ISO-10303-21;
HEADER;
/* Generated by software containing ST-Developer
 * from STEP Tools, Inc. (www.steptools.com) 
 */

FILE_DESCRIPTION(
/* description */ (''),
/* implementation_level */ '2;1');

FILE_NAME(
/* name */ 
'D:\\dat\\Dokumente\\mci_2020\\Masterarbeit\\simscape_model6\\\\plexi1
_2_ipt_571b1b34.STEP',
/* time_stamp */ '2021-04-07T19:49:15+02:00',
/* author */ ('Christoff'),
/* organization */ (''),
/* preprocessor_version */ 'ST-DEVELOPER v18',
/* originating_system */ 'Autodesk Inventor 2020',
/* authorisation */ '');

FILE_SCHEMA (('AUTOMOTIVE_DESIGN { 1 0 10303 214 3 1 1 }'));
ENDSEC;

DATA;
#10=MECHANICAL_DESIGN_GEOMETRIC_PRESENTATION_REPRESENTATION('',(#16,#17),
#334);
#11=SHAPE_REPRESENTATION_RELATIONSHIP('SRR','None',#341,#12);
#12=ADVANCED_BREP_SHAPE_REPRESENTATION('',(#13),#333);
#13=MANIFOLD_SOLID_BREP('Solid2',#188);
#14=FACE_BOUND('',#37,.T.);
#15=FACE_BOUND('',#45,.T.);
#16=STYLED_ITEM('',(#352),#180);
#17=STYLED_ITEM('',(#351),#13);
#18=PLANE('',#211);
#19=PLANE('',#212);
#20=PLANE('',#218);
#21=PLANE('',#221);
#22=PLANE('',#224);
#23=PLANE('',#225);
#24=FACE_OUTER_BOUND('',#34,.T.);
#25=FACE_OUTER_BOUND('',#35,.T.);
#26=FACE_OUTER_BOUND('',#36,.T.);
#27=FACE_OUTER_BOUND('',#38,.T.);
#28=FACE_OUTER_BOUND('',#39,.T.);
#29=FACE_OUTER_BOUND('',#40,.T.);
#30=FACE_OUTER_BOUND('',#41,.T.);
#31=FACE_OUTER_BOUND('',#42,.T.);
#32=FACE_OUTER_BOUND('',#43,.T.);
#33=FACE_OUTER_BOUND('',#44,.T.);
#34=EDGE_LOOP('',(#126,#127,#128,#129));
#35=EDGE_LOOP('',(#130,#131,#132,#133));
#36=EDGE_LOOP('',(#134,#135,#136,#137));
#37=EDGE_LOOP('',(#138,#139,#140,#141));
#38=EDGE_LOOP('',(#142,#143,#144,#145));
#39=EDGE_LOOP('',(#146,#147,#148,#149));
#40=EDGE_LOOP('',(#150,#151,#152,#153));
#41=EDGE_LOOP('',(#154,#155,#156,#157));
#42=EDGE_LOOP('',(#158,#159,#160,#161));
#43=EDGE_LOOP('',(#162,#163,#164,#165));
#44=EDGE_LOOP('',(#166,#167,#168,#169));
#45=EDGE_LOOP('',(#170,#171,#172,#173));
#46=CIRCLE('',#209,34.9999999999996);
#47=CIRCLE('',#210,34.9999999999996);
#48=CIRCLE('',#213,38.5);
#49=CIRCLE('',#214,57.000000000005);
#50=CIRCLE('',#215,20.5);
#51=CIRCLE('',#217,20.5);
#52=CIRCLE('',#220,57.000000000005);
#53=CIRCLE('',#223,38.5);
#54=LINE('',#284,#70);
#55=LINE('',#288,#71);
#56=LINE('',#292,#72);
#57=LINE('',#294,#73);
#58=LINE('',#295,#74);
#59=LINE('',#299,#75);
#60=LINE('',#303,#76);
#61=LINE('',#306,#77);
#62=LINE('',#311,#78);
#63=LINE('',#313,#79);
#64=LINE('',#318,#80);
#65=LINE('',#319,#81);
#66=LINE('',#322,#82);
#67=LINE('',#323,#83);
#68=LINE('',#327,#84);
#69=LINE('',#329,#85);
#70=VECTOR('',#230,10.);
#71=VECTOR('',#233,10.);
#72=VECTOR('',#238,10.);
#73=VECTOR('',#239,10.);
#74=VECTOR('',#240,10.);
#75=VECTOR('',#243,10.);
#76=VECTOR('',#246,9.99999999999999);
#77=VECTOR('',#249,10.);
#78=VECTOR('',#256,10.);
#79=VECTOR('',#259,10.);
#80=VECTOR('',#264,10.);
#81=VECTOR('',#265,10.);
#82=VECTOR('',#268,9.99999999999999);
#83=VECTOR('',#269,10.);
#84=VECTOR('',#274,10.);
#85=VECTOR('',#277,10.);
#86=VERTEX_POINT('',#282);
#87=VERTEX_POINT('',#283);
#88=VERTEX_POINT('',#285);
#89=VERTEX_POINT('',#287);
#90=VERTEX_POINT('',#291);
#91=VERTEX_POINT('',#293);
#92=VERTEX_POINT('',#297);
#93=VERTEX_POINT('',#298);
#94=VERTEX_POINT('',#300);
#95=VERTEX_POINT('',#302);
#96=VERTEX_POINT('',#305);
#97=VERTEX_POINT('',#309);
#98=VERTEX_POINT('',#315);
#99=VERTEX_POINT('',#316);
#100=VERTEX_POINT('',#321);
#101=VERTEX_POINT('',#325);
#102=EDGE_CURVE('',#86,#87,#54,.T.);
#103=EDGE_CURVE('',#88,#86,#46,.T.);
#104=EDGE_CURVE('',#89,#88,#55,.T.);
#105=EDGE_CURVE('',#87,#89,#47,.T.);
#106=EDGE_CURVE('',#90,#87,#56,.T.);
#107=EDGE_CURVE('',#90,#91,#57,.T.);
#108=EDGE_CURVE('',#86,#91,#58,.T.);
#109=EDGE_CURVE('',#92,#93,#59,.T.);
#110=EDGE_CURVE('',#93,#94,#48,.T.);
#111=EDGE_CURVE('',#94,#95,#60,.T.);
#112=EDGE_CURVE('',#95,#92,#49,.T.);
#113=EDGE_CURVE('',#89,#96,#61,.T.);
#114=EDGE_CURVE('',#96,#90,#50,.T.);
#115=EDGE_CURVE('',#91,#97,#51,.T.);
#116=EDGE_CURVE('',#96,#97,#62,.T.);
#117=EDGE_CURVE('',#97,#88,#63,.T.);
#118=EDGE_CURVE('',#98,#99,#52,.T.);
#119=EDGE_CURVE('',#99,#92,#64,.T.);
#120=EDGE_CURVE('',#98,#95,#65,.T.);
#121=EDGE_CURVE('',#100,#98,#66,.T.);
#122=EDGE_CURVE('',#100,#94,#67,.T.);
#123=EDGE_CURVE('',#101,#100,#53,.T.);
#124=EDGE_CURVE('',#101,#93,#68,.T.);
#125=EDGE_CURVE('',#99,#101,#69,.T.);
#126=ORIENTED_EDGE('',*,*,#102,.F.);
#127=ORIENTED_EDGE('',*,*,#103,.F.);
#128=ORIENTED_EDGE('',*,*,#104,.F.);
#129=ORIENTED_EDGE('',*,*,#105,.F.);
#130=ORIENTED_EDGE('',*,*,#102,.T.);
#131=ORIENTED_EDGE('',*,*,#106,.F.);
#132=ORIENTED_EDGE('',*,*,#107,.T.);
#133=ORIENTED_EDGE('',*,*,#108,.F.);
#134=ORIENTED_EDGE('',*,*,#109,.T.);
#135=ORIENTED_EDGE('',*,*,#110,.T.);
#136=ORIENTED_EDGE('',*,*,#111,.T.);
#137=ORIENTED_EDGE('',*,*,#112,.T.);
#138=ORIENTED_EDGE('',*,*,#105,.T.);
#139=ORIENTED_EDGE('',*,*,#113,.T.);
#140=ORIENTED_EDGE('',*,*,#114,.T.);
#141=ORIENTED_EDGE('',*,*,#106,.T.);
#142=ORIENTED_EDGE('',*,*,#115,.F.);
#143=ORIENTED_EDGE('',*,*,#107,.F.);
#144=ORIENTED_EDGE('',*,*,#114,.F.);
#145=ORIENTED_EDGE('',*,*,#116,.T.);
#146=ORIENTED_EDGE('',*,*,#104,.T.);
#147=ORIENTED_EDGE('',*,*,#117,.F.);
#148=ORIENTED_EDGE('',*,*,#116,.F.);
#149=ORIENTED_EDGE('',*,*,#113,.F.);
#150=ORIENTED_EDGE('',*,*,#118,.T.);
#151=ORIENTED_EDGE('',*,*,#119,.T.);
#152=ORIENTED_EDGE('',*,*,#112,.F.);
#153=ORIENTED_EDGE('',*,*,#120,.F.);
#154=ORIENTED_EDGE('',*,*,#121,.T.);
#155=ORIENTED_EDGE('',*,*,#120,.T.);
#156=ORIENTED_EDGE('',*,*,#111,.F.);
#157=ORIENTED_EDGE('',*,*,#122,.F.);
#158=ORIENTED_EDGE('',*,*,#123,.T.);
#159=ORIENTED_EDGE('',*,*,#122,.T.);
#160=ORIENTED_EDGE('',*,*,#110,.F.);
#161=ORIENTED_EDGE('',*,*,#124,.F.);
#162=ORIENTED_EDGE('',*,*,#125,.T.);
#163=ORIENTED_EDGE('',*,*,#124,.T.);
#164=ORIENTED_EDGE('',*,*,#109,.F.);
#165=ORIENTED_EDGE('',*,*,#119,.F.);
#166=ORIENTED_EDGE('',*,*,#125,.F.);
#167=ORIENTED_EDGE('',*,*,#118,.F.);
#168=ORIENTED_EDGE('',*,*,#121,.F.);
#169=ORIENTED_EDGE('',*,*,#123,.F.);
#170=ORIENTED_EDGE('',*,*,#103,.T.);
#171=ORIENTED_EDGE('',*,*,#108,.T.);
#172=ORIENTED_EDGE('',*,*,#115,.T.);
#173=ORIENTED_EDGE('',*,*,#117,.T.);
#174=CYLINDRICAL_SURFACE('',#208,34.9999999999996);
#175=CYLINDRICAL_SURFACE('',#216,20.5);
#176=CYLINDRICAL_SURFACE('',#219,57.000000000005);
#177=CYLINDRICAL_SURFACE('',#222,38.5);
#178=ADVANCED_FACE('',(#24),#174,.F.);
#179=ADVANCED_FACE('',(#25),#18,.F.);
#180=ADVANCED_FACE('',(#26,#14),#19,.F.);
#181=ADVANCED_FACE('',(#27),#175,.F.);
#182=ADVANCED_FACE('',(#28),#20,.F.);
#183=ADVANCED_FACE('',(#29),#176,.T.);
#184=ADVANCED_FACE('',(#30),#21,.T.);
#185=ADVANCED_FACE('',(#31),#177,.T.);
#186=ADVANCED_FACE('',(#32),#22,.T.);
#187=ADVANCED_FACE('',(#33,#15),#23,.T.);
#188=CLOSED_SHELL('',(#178,#179,#180,#181,#182,#183,#184,#185,#186,#187));
#189=DERIVED_UNIT_ELEMENT(#191,1.);
#190=DERIVED_UNIT_ELEMENT(#336,3.);
#191=(
MASS_UNIT()
NAMED_UNIT(*)
SI_UNIT($,.GRAM.)
);
#192=DERIVED_UNIT((#189,#190));
#193=MEASURE_REPRESENTATION_ITEM('density measure',
POSITIVE_RATIO_MEASURE(2.18),#192);
#194=PROPERTY_DEFINITION_REPRESENTATION(#199,#196);
#195=PROPERTY_DEFINITION_REPRESENTATION(#200,#197);
#196=REPRESENTATION('material name',(#198),#333);
#197=REPRESENTATION('density',(#193),#333);
#198=DESCRIPTIVE_REPRESENTATION_ITEM('Glass','Glass');
#199=PROPERTY_DEFINITION('material property','material name',#343);
#200=PROPERTY_DEFINITION('material property','density of part',#343);
#201=DATE_TIME_ROLE('creation_date');
#202=APPLIED_DATE_AND_TIME_ASSIGNMENT(#203,#201,(#343));
#203=DATE_AND_TIME(#204,#205);
#204=CALENDAR_DATE(2020,11,12);
#205=LOCAL_TIME(8,30,45.,#206);
#206=COORDINATED_UNIVERSAL_TIME_OFFSET(0,0,.BEHIND.);
#207=AXIS2_PLACEMENT_3D('placement',#280,#226,#227);
#208=AXIS2_PLACEMENT_3D('',#281,#228,#229);
#209=AXIS2_PLACEMENT_3D('',#286,#231,#232);
#210=AXIS2_PLACEMENT_3D('',#289,#234,#235);
#211=AXIS2_PLACEMENT_3D('',#290,#236,#237);
#212=AXIS2_PLACEMENT_3D('',#296,#241,#242);
#213=AXIS2_PLACEMENT_3D('',#301,#244,#245);
#214=AXIS2_PLACEMENT_3D('',#304,#247,#248);
#215=AXIS2_PLACEMENT_3D('',#307,#250,#251);
#216=AXIS2_PLACEMENT_3D('',#308,#252,#253);
#217=AXIS2_PLACEMENT_3D('',#310,#254,#255);
#218=AXIS2_PLACEMENT_3D('',#312,#257,#258);
#219=AXIS2_PLACEMENT_3D('',#314,#260,#261);
#220=AXIS2_PLACEMENT_3D('',#317,#262,#263);
#221=AXIS2_PLACEMENT_3D('',#320,#266,#267);
#222=AXIS2_PLACEMENT_3D('',#324,#270,#271);
#223=AXIS2_PLACEMENT_3D('',#326,#272,#273);
#224=AXIS2_PLACEMENT_3D('',#328,#275,#276);
#225=AXIS2_PLACEMENT_3D('',#330,#278,#279);
#226=DIRECTION('axis',(0.,0.,1.));
#227=DIRECTION('refdir',(1.,0.,0.));
#228=DIRECTION('center_axis',(0.,-2.22044604925031E-16,1.));
#229=DIRECTION('ref_axis',(-0.00150065384405088,-0.999998874018386,-2.22044354906888E-16));
#230=DIRECTION('',(0.,-2.22044604925031E-16,1.));
#231=DIRECTION('center_axis',(0.,-2.22044604925031E-16,1.));
#232=DIRECTION('ref_axis',(-1.,0.,0.));
#233=DIRECTION('',(0.,2.22044604925031E-16,-1.));
#234=DIRECTION('center_axis',(0.,2.22044604925031E-16,-1.));
#235=DIRECTION('ref_axis',(-1.,0.,0.));
#236=DIRECTION('center_axis',(1.,0.,0.));
#237=DIRECTION('ref_axis',(0.,-1.,-2.22044604925031E-16));
#238=DIRECTION('',(0.,-1.,-2.22044604925031E-16));
#239=DIRECTION('',(0.,2.22044604925031E-16,-1.));
#240=DIRECTION('',(0.,1.,2.22044604925031E-16));
#241=DIRECTION('center_axis',(0.,2.22044604925031E-16,-1.));
#242=DIRECTION('ref_axis',(0.,1.,2.22044604925031E-16));
#243=DIRECTION('',(0.123333333333371,-0.992365300123337,-2.20349361007196E-16));
#244=DIRECTION('center_axis',(0.,-2.22044604925031E-16,1.));
#245=DIRECTION('ref_axis',(-0.992365300123336,-0.123333333333371,-2.73855012740955E-17));
#246=DIRECTION('',(0.123333333333362,0.992365300123338,2.20349361007197E-16));
#247=DIRECTION('center_axis',(0.,-2.22044604925031E-16,1.));
#248=DIRECTION('ref_axis',(0.992365300123337,-0.123333333333363,-2.73855012740937E-17));
#249=DIRECTION('',(0.000258932367884132,0.999999966477014,2.22044597481433E-16));
#250=DIRECTION('center_axis',(0.,2.22044604925031E-16,-1.));
#251=DIRECTION('ref_axis',(0.998105390979931,-0.061527461322558,-1.36618408414075E-17));
#252=DIRECTION('center_axis',(0.,2.22044604925031E-16,-1.));
#253=DIRECTION('ref_axis',(0.0309077169230613,0.999522242391135,2.21938521425521E-16));
#254=DIRECTION('center_axis',(0.,-2.22044604925031E-16,1.));
#255=DIRECTION('ref_axis',(0.998105390979931,-0.061527461322558,-1.36618408414075E-17));
#256=DIRECTION('',(0.,2.22044604925031E-16,-1.));
#257=DIRECTION('center_axis',(-0.999999966477014,0.000258932367884132,5.7494535329135E-20));
#258=DIRECTION('ref_axis',(0.000258932367884132,0.999999966477014,2.22044597481433E-16));
#259=DIRECTION('',(-0.000258932367884132,-0.999999966477014,-2.22044597481433E-16));
#260=DIRECTION('center_axis',(0.,-2.22044604925031E-16,1.));
#261=DIRECTION('ref_axis',(-4.07081775695855E-15,1.,2.22044604925031E-16));
#262=DIRECTION('center_axis',(0.,-2.22044604925031E-16,1.));
#263=DIRECTION('ref_axis',(0.992365300123337,-0.123333333333363,-2.73855012740937E-17));
#264=DIRECTION('',(0.,-2.22044604925031E-16,1.));
#265=DIRECTION('',(0.,-2.22044604925031E-16,1.));
#266=DIRECTION('center_axis',(0.992365300123338,-0.123333333333362,-2.73855012740937E-17));
#267=DIRECTION('ref_axis',(0.123333333333362,0.992365300123338,2.20349361007197E-16));
#268=DIRECTION('',(0.123333333333362,0.992365300123338,2.20349361007197E-16));
#269=DIRECTION('',(0.,-2.22044604925031E-16,1.));
#270=DIRECTION('center_axis',(0.,-2.22044604925031E-16,1.));
#271=DIRECTION('ref_axis',(-0.992365300123336,-0.123333333333371,-2.73855012740955E-17));
#272=DIRECTION('center_axis',(0.,-2.22044604925031E-16,1.));
#273=DIRECTION('ref_axis',(-0.992365300123336,-0.123333333333371,-2.73855012740955E-17));
#274=DIRECTION('',(0.,-2.22044604925031E-16,1.));
#275=DIRECTION('center_axis',(-0.992365300123336,-0.123333333333371,-2.73855012740955E-17));
#276=DIRECTION('ref_axis',(0.123333333333371,-0.992365300123337,-2.20349361007196E-16));
#277=DIRECTION('',(0.123333333333371,-0.992365300123337,-2.20349361007196E-16));
#278=DIRECTION('center_axis',(0.,2.22044604925031E-16,-1.));
#279=DIRECTION('ref_axis',(0.,1.,2.22044604925031E-16));
#280=CARTESIAN_POINT('',(0.,0.,0.));
#281=CARTESIAN_POINT('Origin',(-0.0777374800319386,-149.998559936131,-3.33063709803418E-14));
#282=CARTESIAN_POINT('',(20.4611605150886,-121.65859400203,-2.70136344409155E-14));
#283=CARTESIAN_POINT('',(20.4611605150886,-121.65859400203,20.));
#284=CARTESIAN_POINT('',(20.4611605150886,-121.65859400203,-2.70136344409155E-14));
#285=CARTESIAN_POINT('',(-20.5314861076525,-121.597078160032,-2.69999751800824E-14));
#286=CARTESIAN_POINT('Origin',(-0.0777374800319386,-149.998559936131,-3.33063709803418E-14));
#287=CARTESIAN_POINT('',(-20.5314861076525,-121.597078160032,20.));
#288=CARTESIAN_POINT('',(-20.5314861076525,-121.597078160032,-2.69999751800824E-14));
#289=CARTESIAN_POINT('Origin',(-0.0777374800319386,-149.998559936131,20.));
#290=CARTESIAN_POINT('Origin',(20.4611605150886,-1.26131295711243,20.));
#291=CARTESIAN_POINT('',(20.4611605150886,-1.26131295711244,20.));
#292=CARTESIAN_POINT('',(20.4611605150886,-32.9278019856503,20.));
#293=CARTESIAN_POINT('',(20.4611605150886,-1.26131295711244,-2.80067737248854E-16));
#294=CARTESIAN_POINT('',(20.4611605150886,-1.26131295711244,20.));
#295=CARTESIAN_POINT('',(20.4611605150886,-32.9278019856503,-7.31144078295339E-15));
#296=CARTESIAN_POINT('Origin',(-0.0388394849117812,-64.5942910141882,20.));
#297=CARTESIAN_POINT('',(-56.6036615919472,-7.02856497964865,20.));
#298=CARTESIAN_POINT('',(-38.2449035396599,-154.746898312981,20.));
#299=CARTESIAN_POINT('',(-56.6036615919472,-7.02856497964865,20.));
#300=CARTESIAN_POINT('',(38.1672245698371,-154.74689831298,20.));
#301=CARTESIAN_POINT('Origin',(-0.0388394849114182,-149.998564979646,20.));
#302=CARTESIAN_POINT('',(56.5259826221231,-7.02856497964817,20.));
#303=CARTESIAN_POINT('',(38.1672245698371,-154.74689831298,20.));
#304=CARTESIAN_POINT('Origin',(-0.0388394849120543,0.00143502035410817,
20.));
#305=CARTESIAN_POINT('',(-20.4999993127788,0.00530811354162042,20.));
#306=CARTESIAN_POINT('',(-20.5277818326182,-107.291122746382,20.));
#307=CARTESIAN_POINT('Origin',(0.,-4.44089209850063E-15,20.));
#308=CARTESIAN_POINT('Origin',(0.,-4.44089209850063E-15,20.));
#309=CARTESIAN_POINT('',(-20.4999993127788,0.00530811354162486,1.1786379742473E-18));
#310=CARTESIAN_POINT('Origin',(0.,0.,0.));
#311=CARTESIAN_POINT('',(-20.4999993127788,0.00530811354162042,20.));
#312=CARTESIAN_POINT('Origin',(-20.5388387976902,-149.993256866104,20.));
#313=CARTESIAN_POINT('',(-20.5277818326182,-107.291122746382,-2.38234149621834E-14));
#314=CARTESIAN_POINT('Origin',(-0.0388394849120543,0.00143502035411261,
3.18638527588313E-19));
#315=CARTESIAN_POINT('',(56.5259826221231,-7.02856497964817,-1.56065493409589E-15));
#316=CARTESIAN_POINT('',(-56.6036615919472,-7.02856497964865,-1.560654934096E-15));
#317=CARTESIAN_POINT('Origin',(-0.0388394849120543,0.00143502035411261,
3.18638527588313E-19));
#318=CARTESIAN_POINT('',(-56.6036615919472,-7.02856497964865,-1.560654934096E-15));
#319=CARTESIAN_POINT('',(56.5259826221231,-7.02856497964817,-1.56065493409589E-15));
#320=CARTESIAN_POINT('Origin',(38.1672245698371,-154.74689831298,-3.43607138992797E-14));
#321=CARTESIAN_POINT('',(38.1672245698371,-154.74689831298,-3.43607138992797E-14));
#322=CARTESIAN_POINT('',(38.1672245698371,-154.74689831298,-3.43607138992797E-14));
#323=CARTESIAN_POINT('',(38.1672245698371,-154.74689831298,-3.43607138992797E-14));
#324=CARTESIAN_POINT('Origin',(-0.0388394849114182,-149.998564979646,-3.33063721002271E-14));
#325=CARTESIAN_POINT('',(-38.2449035396599,-154.746898312981,-3.43607138992798E-14));
#326=CARTESIAN_POINT('Origin',(-0.0388394849114182,-149.998564979646,-3.33063721002271E-14));
#327=CARTESIAN_POINT('',(-38.2449035396599,-154.746898312981,-3.43607138992798E-14));
#328=CARTESIAN_POINT('Origin',(-56.6036615919472,-7.02856497964865,-1.560654934096E-15));
#329=CARTESIAN_POINT('',(-56.6036615919472,-7.02856497964865,-1.560654934096E-15));
#330=CARTESIAN_POINT('Origin',(-0.0388394849117812,-64.5942910141882,-1.43428138286579E-14));
#331=UNCERTAINTY_MEASURE_WITH_UNIT(LENGTH_MEASURE(0.01),#335,
'DISTANCE_ACCURACY_VALUE',
'Maximum model space distance between geometric entities at asserted c
onnectivities');
#332=UNCERTAINTY_MEASURE_WITH_UNIT(LENGTH_MEASURE(0.01),#335,
'DISTANCE_ACCURACY_VALUE',
'Maximum model space distance between geometric entities at asserted c
onnectivities');
#333=(
GEOMETRIC_REPRESENTATION_CONTEXT(3)
GLOBAL_UNCERTAINTY_ASSIGNED_CONTEXT((#331))
GLOBAL_UNIT_ASSIGNED_CONTEXT((#335,#337,#338))
REPRESENTATION_CONTEXT('','3D')
);
#334=(
GEOMETRIC_REPRESENTATION_CONTEXT(3)
GLOBAL_UNCERTAINTY_ASSIGNED_CONTEXT((#332))
GLOBAL_UNIT_ASSIGNED_CONTEXT((#335,#337,#338))
REPRESENTATION_CONTEXT('','3D')
);
#335=(
LENGTH_UNIT()
NAMED_UNIT(*)
SI_UNIT(.MILLI.,.METRE.)
);
#336=(
LENGTH_UNIT()
NAMED_UNIT(*)
SI_UNIT(.CENTI.,.METRE.)
);
#337=(
NAMED_UNIT(*)
PLANE_ANGLE_UNIT()
SI_UNIT($,.RADIAN.)
);
#338=(
NAMED_UNIT(*)
SI_UNIT($,.STERADIAN.)
SOLID_ANGLE_UNIT()
);
#339=SHAPE_DEFINITION_REPRESENTATION(#340,#341);
#340=PRODUCT_DEFINITION_SHAPE('',$,#343);
#341=SHAPE_REPRESENTATION('',(#207),#333);
#342=PRODUCT_DEFINITION_CONTEXT('part definition',#347,'design');
#343=PRODUCT_DEFINITION('plexi1_2','plexi1_2',#344,#342);
#344=PRODUCT_DEFINITION_FORMATION('',$,#349);
#345=PRODUCT_RELATED_PRODUCT_CATEGORY('plexi1_2','plexi1_2',(#349));
#346=APPLICATION_PROTOCOL_DEFINITION('international standard',
'automotive_design',2009,#347);
#347=APPLICATION_CONTEXT(
'Core Data for Automotive Mechanical Design Process');
#348=PRODUCT_CONTEXT('part definition',#347,'mechanical');
#349=PRODUCT('plexi1_2','plexi1_2',$,(#348));
#350=PRESENTATION_STYLE_ASSIGNMENT((#353));
#351=PRESENTATION_STYLE_ASSIGNMENT((#354));
#352=PRESENTATION_STYLE_ASSIGNMENT((#355));
#353=SURFACE_STYLE_USAGE(.BOTH.,#362);
#354=SURFACE_STYLE_USAGE(.BOTH.,#363);
#355=SURFACE_STYLE_USAGE(.BOTH.,#364);
#356=SURFACE_STYLE_RENDERING_WITH_PROPERTIES($,#374,(#359));
#357=SURFACE_STYLE_RENDERING_WITH_PROPERTIES($,#375,(#360));
#358=SURFACE_STYLE_RENDERING_WITH_PROPERTIES($,#376,(#361));
#359=SURFACE_STYLE_TRANSPARENT(0.);
#360=SURFACE_STYLE_TRANSPARENT(0.339999973773956);
#361=SURFACE_STYLE_TRANSPARENT(0.);
#362=SURFACE_SIDE_STYLE('',(#365,#356));
#363=SURFACE_SIDE_STYLE('',(#366,#357));
#364=SURFACE_SIDE_STYLE('',(#367,#358));
#365=SURFACE_STYLE_FILL_AREA(#368);
#366=SURFACE_STYLE_FILL_AREA(#369);
#367=SURFACE_STYLE_FILL_AREA(#370);
#368=FILL_AREA_STYLE('',(#371));
#369=FILL_AREA_STYLE('',(#372));
#370=FILL_AREA_STYLE('',(#373));
#371=FILL_AREA_STYLE_COLOUR('',#374);
#372=FILL_AREA_STYLE_COLOUR('',#375);
#373=FILL_AREA_STYLE_COLOUR('',#376);
#374=COLOUR_RGB('',0.749019607843137,0.749019607843137,0.749019607843137);
#375=COLOUR_RGB('',0.925490196078431,0.945098039215686,0.937254901960784);
#376=COLOUR_RGB('',0.0470588235294118,1.,0.);
ENDSEC;
END-ISO-10303-21;
