ISO-10303-21;
HEADER;
/* Generated by software containing ST-Developer
 * from STEP Tools, Inc. (www.steptools.com) 
 */

FILE_DESCRIPTION(
/* description */ (''),
/* implementation_level */ '2;1');

FILE_NAME(
/* name */ 
'D:\\dat\\Dokumente\\mci_2020\\Masterarbeit\\simscape_model6\\\\plexi2
_1_ipt_12b6d0e9.STEP',
/* time_stamp */ '2021-04-07T19:49:16+02:00',
/* author */ ('Christoff'),
/* organization */ (''),
/* preprocessor_version */ 'ST-DEVELOPER v18',
/* originating_system */ 'Autodesk Inventor 2020',
/* authorisation */ '');

FILE_SCHEMA (('AUTOMOTIVE_DESIGN { 1 0 10303 214 3 1 1 }'));
ENDSEC;

DATA;
#10=MECHANICAL_DESIGN_GEOMETRIC_PRESENTATION_REPRESENTATION('',(#24,#25),
#429);
#11=SHAPE_REPRESENTATION_RELATIONSHIP('SRR','None',#436,#12);
#12=ADVANCED_BREP_SHAPE_REPRESENTATION('',(#13),#428);
#13=MANIFOLD_SOLID_BREP('Solid2',#239);
#14=FACE_BOUND('',#51,.T.);
#15=FACE_BOUND('',#52,.T.);
#16=FACE_BOUND('',#53,.T.);
#17=FACE_BOUND('',#54,.T.);
#18=FACE_BOUND('',#55,.T.);
#19=FACE_BOUND('',#57,.T.);
#20=FACE_BOUND('',#58,.T.);
#21=FACE_BOUND('',#59,.T.);
#22=FACE_BOUND('',#60,.T.);
#23=FACE_BOUND('',#61,.T.);
#24=STYLED_ITEM('',(#447),#237);
#25=STYLED_ITEM('',(#446),#13);
#26=PLANE('',#278);
#27=PLANE('',#282);
#28=PLANE('',#286);
#29=PLANE('',#287);
#30=FACE_OUTER_BOUND('',#41,.T.);
#31=FACE_OUTER_BOUND('',#42,.T.);
#32=FACE_OUTER_BOUND('',#43,.T.);
#33=FACE_OUTER_BOUND('',#44,.T.);
#34=FACE_OUTER_BOUND('',#45,.T.);
#35=FACE_OUTER_BOUND('',#46,.T.);
#36=FACE_OUTER_BOUND('',#47,.T.);
#37=FACE_OUTER_BOUND('',#48,.T.);
#38=FACE_OUTER_BOUND('',#49,.T.);
#39=FACE_OUTER_BOUND('',#50,.T.);
#40=FACE_OUTER_BOUND('',#56,.T.);
#41=EDGE_LOOP('',(#159,#160,#161,#162));
#42=EDGE_LOOP('',(#163,#164,#165,#166,#167));
#43=EDGE_LOOP('',(#168,#169,#170,#171,#172));
#44=EDGE_LOOP('',(#173,#174,#175,#176,#177));
#45=EDGE_LOOP('',(#178,#179,#180,#181,#182));
#46=EDGE_LOOP('',(#183,#184,#185,#186));
#47=EDGE_LOOP('',(#187,#188,#189,#190));
#48=EDGE_LOOP('',(#191,#192,#193,#194));
#49=EDGE_LOOP('',(#195,#196,#197,#198));
#50=EDGE_LOOP('',(#199,#200,#201,#202));
#51=EDGE_LOOP('',(#203));
#52=EDGE_LOOP('',(#204,#205));
#53=EDGE_LOOP('',(#206,#207));
#54=EDGE_LOOP('',(#208,#209));
#55=EDGE_LOOP('',(#210,#211));
#56=EDGE_LOOP('',(#212,#213,#214,#215));
#57=EDGE_LOOP('',(#216));
#58=EDGE_LOOP('',(#217));
#59=EDGE_LOOP('',(#218));
#60=EDGE_LOOP('',(#219));
#61=EDGE_LOOP('',(#220));
#62=LINE('',#366,#75);
#63=LINE('',#372,#76);
#64=LINE('',#380,#77);
#65=LINE('',#388,#78);
#66=LINE('',#396,#79);
#67=LINE('',#403,#80);
#68=LINE('',#405,#81);
#69=LINE('',#407,#82);
#70=LINE('',#408,#83);
#71=LINE('',#414,#84);
#72=LINE('',#417,#85);
#73=LINE('',#419,#86);
#74=LINE('',#420,#87);
#75=VECTOR('',#294,10.5);
#76=VECTOR('',#301,1.5);
#77=VECTOR('',#310,1.5);
#78=VECTOR('',#319,1.5);
#79=VECTOR('',#328,1.5);
#80=VECTOR('',#335,10.);
#81=VECTOR('',#336,10.);
#82=VECTOR('',#337,10.);
#83=VECTOR('',#338,10.);
#84=VECTOR('',#345,10.);
#85=VECTOR('',#348,10.);
#86=VECTOR('',#349,10.);
#87=VECTOR('',#350,10.);
#88=CIRCLE('',#260,10.5);
#89=CIRCLE('',#261,10.5);
#90=CIRCLE('',#263,1.5);
#91=CIRCLE('',#264,1.5);
#92=CIRCLE('',#265,1.5);
#93=CIRCLE('',#267,1.5);
#94=CIRCLE('',#268,1.5);
#95=CIRCLE('',#269,1.5);
#96=CIRCLE('',#271,1.5);
#97=CIRCLE('',#272,1.5);
#98=CIRCLE('',#273,1.5);
#99=CIRCLE('',#275,1.5);
#100=CIRCLE('',#276,1.5);
#101=CIRCLE('',#277,1.5);
#102=CIRCLE('',#280,38.5);
#103=CIRCLE('',#281,38.5);
#104=CIRCLE('',#284,26.);
#105=CIRCLE('',#285,26.);
#106=VERTEX_POINT('',#363);
#107=VERTEX_POINT('',#365);
#108=VERTEX_POINT('',#369);
#109=VERTEX_POINT('',#371);
#110=VERTEX_POINT('',#373);
#111=VERTEX_POINT('',#377);
#112=VERTEX_POINT('',#379);
#113=VERTEX_POINT('',#381);
#114=VERTEX_POINT('',#385);
#115=VERTEX_POINT('',#387);
#116=VERTEX_POINT('',#389);
#117=VERTEX_POINT('',#393);
#118=VERTEX_POINT('',#395);
#119=VERTEX_POINT('',#397);
#120=VERTEX_POINT('',#401);
#121=VERTEX_POINT('',#402);
#122=VERTEX_POINT('',#404);
#123=VERTEX_POINT('',#406);
#124=VERTEX_POINT('',#410);
#125=VERTEX_POINT('',#412);
#126=VERTEX_POINT('',#416);
#127=VERTEX_POINT('',#418);
#128=EDGE_CURVE('',#106,#106,#88,.T.);
#129=EDGE_CURVE('',#106,#107,#62,.T.);
#130=EDGE_CURVE('',#107,#107,#89,.T.);
#131=EDGE_CURVE('',#108,#108,#90,.T.);
#132=EDGE_CURVE('',#108,#109,#63,.T.);
#133=EDGE_CURVE('',#110,#109,#91,.T.);
#134=EDGE_CURVE('',#109,#110,#92,.T.);
#135=EDGE_CURVE('',#111,#111,#93,.T.);
#136=EDGE_CURVE('',#111,#112,#64,.T.);
#137=EDGE_CURVE('',#113,#112,#94,.T.);
#138=EDGE_CURVE('',#112,#113,#95,.T.);
#139=EDGE_CURVE('',#114,#114,#96,.T.);
#140=EDGE_CURVE('',#114,#115,#65,.T.);
#141=EDGE_CURVE('',#116,#115,#97,.T.);
#142=EDGE_CURVE('',#115,#116,#98,.T.);
#143=EDGE_CURVE('',#117,#117,#99,.T.);
#144=EDGE_CURVE('',#117,#118,#66,.T.);
#145=EDGE_CURVE('',#119,#118,#100,.T.);
#146=EDGE_CURVE('',#118,#119,#101,.T.);
#147=EDGE_CURVE('',#120,#121,#67,.T.);
#148=EDGE_CURVE('',#121,#122,#68,.T.);
#149=EDGE_CURVE('',#123,#122,#69,.T.);
#150=EDGE_CURVE('',#120,#123,#70,.T.);
#151=EDGE_CURVE('',#124,#120,#102,.T.);
#152=EDGE_CURVE('',#125,#123,#103,.T.);
#153=EDGE_CURVE('',#124,#125,#71,.T.);
#154=EDGE_CURVE('',#126,#124,#72,.T.);
#155=EDGE_CURVE('',#127,#125,#73,.T.);
#156=EDGE_CURVE('',#126,#127,#74,.T.);
#157=EDGE_CURVE('',#121,#126,#104,.T.);
#158=EDGE_CURVE('',#122,#127,#105,.T.);
#159=ORIENTED_EDGE('',*,*,#128,.F.);
#160=ORIENTED_EDGE('',*,*,#129,.T.);
#161=ORIENTED_EDGE('',*,*,#130,.F.);
#162=ORIENTED_EDGE('',*,*,#129,.F.);
#163=ORIENTED_EDGE('',*,*,#131,.F.);
#164=ORIENTED_EDGE('',*,*,#132,.T.);
#165=ORIENTED_EDGE('',*,*,#133,.F.);
#166=ORIENTED_EDGE('',*,*,#134,.F.);
#167=ORIENTED_EDGE('',*,*,#132,.F.);
#168=ORIENTED_EDGE('',*,*,#135,.F.);
#169=ORIENTED_EDGE('',*,*,#136,.T.);
#170=ORIENTED_EDGE('',*,*,#137,.F.);
#171=ORIENTED_EDGE('',*,*,#138,.F.);
#172=ORIENTED_EDGE('',*,*,#136,.F.);
#173=ORIENTED_EDGE('',*,*,#139,.F.);
#174=ORIENTED_EDGE('',*,*,#140,.T.);
#175=ORIENTED_EDGE('',*,*,#141,.F.);
#176=ORIENTED_EDGE('',*,*,#142,.F.);
#177=ORIENTED_EDGE('',*,*,#140,.F.);
#178=ORIENTED_EDGE('',*,*,#143,.F.);
#179=ORIENTED_EDGE('',*,*,#144,.T.);
#180=ORIENTED_EDGE('',*,*,#145,.F.);
#181=ORIENTED_EDGE('',*,*,#146,.F.);
#182=ORIENTED_EDGE('',*,*,#144,.F.);
#183=ORIENTED_EDGE('',*,*,#147,.T.);
#184=ORIENTED_EDGE('',*,*,#148,.T.);
#185=ORIENTED_EDGE('',*,*,#149,.F.);
#186=ORIENTED_EDGE('',*,*,#150,.F.);
#187=ORIENTED_EDGE('',*,*,#151,.T.);
#188=ORIENTED_EDGE('',*,*,#150,.T.);
#189=ORIENTED_EDGE('',*,*,#152,.F.);
#190=ORIENTED_EDGE('',*,*,#153,.F.);
#191=ORIENTED_EDGE('',*,*,#154,.T.);
#192=ORIENTED_EDGE('',*,*,#153,.T.);
#193=ORIENTED_EDGE('',*,*,#155,.F.);
#194=ORIENTED_EDGE('',*,*,#156,.F.);
#195=ORIENTED_EDGE('',*,*,#157,.T.);
#196=ORIENTED_EDGE('',*,*,#156,.T.);
#197=ORIENTED_EDGE('',*,*,#158,.F.);
#198=ORIENTED_EDGE('',*,*,#148,.F.);
#199=ORIENTED_EDGE('',*,*,#158,.T.);
#200=ORIENTED_EDGE('',*,*,#155,.T.);
#201=ORIENTED_EDGE('',*,*,#152,.T.);
#202=ORIENTED_EDGE('',*,*,#149,.T.);
#203=ORIENTED_EDGE('',*,*,#130,.T.);
#204=ORIENTED_EDGE('',*,*,#133,.T.);
#205=ORIENTED_EDGE('',*,*,#134,.T.);
#206=ORIENTED_EDGE('',*,*,#137,.T.);
#207=ORIENTED_EDGE('',*,*,#138,.T.);
#208=ORIENTED_EDGE('',*,*,#141,.T.);
#209=ORIENTED_EDGE('',*,*,#142,.T.);
#210=ORIENTED_EDGE('',*,*,#145,.T.);
#211=ORIENTED_EDGE('',*,*,#146,.T.);
#212=ORIENTED_EDGE('',*,*,#157,.F.);
#213=ORIENTED_EDGE('',*,*,#147,.F.);
#214=ORIENTED_EDGE('',*,*,#151,.F.);
#215=ORIENTED_EDGE('',*,*,#154,.F.);
#216=ORIENTED_EDGE('',*,*,#128,.T.);
#217=ORIENTED_EDGE('',*,*,#131,.T.);
#218=ORIENTED_EDGE('',*,*,#135,.T.);
#219=ORIENTED_EDGE('',*,*,#139,.T.);
#220=ORIENTED_EDGE('',*,*,#143,.T.);
#221=CYLINDRICAL_SURFACE('',#259,10.5);
#222=CYLINDRICAL_SURFACE('',#262,1.5);
#223=CYLINDRICAL_SURFACE('',#266,1.5);
#224=CYLINDRICAL_SURFACE('',#270,1.5);
#225=CYLINDRICAL_SURFACE('',#274,1.5);
#226=CYLINDRICAL_SURFACE('',#279,38.5);
#227=CYLINDRICAL_SURFACE('',#283,26.);
#228=ADVANCED_FACE('',(#30),#221,.F.);
#229=ADVANCED_FACE('',(#31),#222,.F.);
#230=ADVANCED_FACE('',(#32),#223,.F.);
#231=ADVANCED_FACE('',(#33),#224,.F.);
#232=ADVANCED_FACE('',(#34),#225,.F.);
#233=ADVANCED_FACE('',(#35),#26,.T.);
#234=ADVANCED_FACE('',(#36),#226,.T.);
#235=ADVANCED_FACE('',(#37),#27,.T.);
#236=ADVANCED_FACE('',(#38),#227,.T.);
#237=ADVANCED_FACE('',(#39,#14,#15,#16,#17,#18),#28,.T.);
#238=ADVANCED_FACE('',(#40,#19,#20,#21,#22,#23),#29,.F.);
#239=CLOSED_SHELL('',(#228,#229,#230,#231,#232,#233,#234,#235,#236,#237,
#238));
#240=DERIVED_UNIT_ELEMENT(#242,1.);
#241=DERIVED_UNIT_ELEMENT(#431,3.);
#242=(
MASS_UNIT()
NAMED_UNIT(*)
SI_UNIT($,.GRAM.)
);
#243=DERIVED_UNIT((#240,#241));
#244=MEASURE_REPRESENTATION_ITEM('density measure',
POSITIVE_RATIO_MEASURE(2.18),#243);
#245=PROPERTY_DEFINITION_REPRESENTATION(#250,#247);
#246=PROPERTY_DEFINITION_REPRESENTATION(#251,#248);
#247=REPRESENTATION('material name',(#249),#428);
#248=REPRESENTATION('density',(#244),#428);
#249=DESCRIPTIVE_REPRESENTATION_ITEM('Glass','Glass');
#250=PROPERTY_DEFINITION('material property','material name',#438);
#251=PROPERTY_DEFINITION('material property','density of part',#438);
#252=DATE_TIME_ROLE('creation_date');
#253=APPLIED_DATE_AND_TIME_ASSIGNMENT(#254,#252,(#438));
#254=DATE_AND_TIME(#255,#256);
#255=CALENDAR_DATE(2020,15,12);
#256=LOCAL_TIME(12,39,41.,#257);
#257=COORDINATED_UNIVERSAL_TIME_OFFSET(0,0,.BEHIND.);
#258=AXIS2_PLACEMENT_3D('placement',#361,#288,#289);
#259=AXIS2_PLACEMENT_3D('',#362,#290,#291);
#260=AXIS2_PLACEMENT_3D('',#364,#292,#293);
#261=AXIS2_PLACEMENT_3D('',#367,#295,#296);
#262=AXIS2_PLACEMENT_3D('',#368,#297,#298);
#263=AXIS2_PLACEMENT_3D('',#370,#299,#300);
#264=AXIS2_PLACEMENT_3D('',#374,#302,#303);
#265=AXIS2_PLACEMENT_3D('',#375,#304,#305);
#266=AXIS2_PLACEMENT_3D('',#376,#306,#307);
#267=AXIS2_PLACEMENT_3D('',#378,#308,#309);
#268=AXIS2_PLACEMENT_3D('',#382,#311,#312);
#269=AXIS2_PLACEMENT_3D('',#383,#313,#314);
#270=AXIS2_PLACEMENT_3D('',#384,#315,#316);
#271=AXIS2_PLACEMENT_3D('',#386,#317,#318);
#272=AXIS2_PLACEMENT_3D('',#390,#320,#321);
#273=AXIS2_PLACEMENT_3D('',#391,#322,#323);
#274=AXIS2_PLACEMENT_3D('',#392,#324,#325);
#275=AXIS2_PLACEMENT_3D('',#394,#326,#327);
#276=AXIS2_PLACEMENT_3D('',#398,#329,#330);
#277=AXIS2_PLACEMENT_3D('',#399,#331,#332);
#278=AXIS2_PLACEMENT_3D('',#400,#333,#334);
#279=AXIS2_PLACEMENT_3D('',#409,#339,#340);
#280=AXIS2_PLACEMENT_3D('',#411,#341,#342);
#281=AXIS2_PLACEMENT_3D('',#413,#343,#344);
#282=AXIS2_PLACEMENT_3D('',#415,#346,#347);
#283=AXIS2_PLACEMENT_3D('',#421,#351,#352);
#284=AXIS2_PLACEMENT_3D('',#422,#353,#354);
#285=AXIS2_PLACEMENT_3D('',#423,#355,#356);
#286=AXIS2_PLACEMENT_3D('',#424,#357,#358);
#287=AXIS2_PLACEMENT_3D('',#425,#359,#360);
#288=DIRECTION('axis',(0.,0.,1.));
#289=DIRECTION('refdir',(1.,0.,0.));
#290=DIRECTION('center_axis',(0.,0.,1.));
#291=DIRECTION('ref_axis',(-1.,0.,0.));
#292=DIRECTION('center_axis',(0.,0.,1.));
#293=DIRECTION('ref_axis',(-1.,0.,0.));
#294=DIRECTION('',(0.,0.,1.));
#295=DIRECTION('center_axis',(0.,0.,-1.));
#296=DIRECTION('ref_axis',(-1.,0.,0.));
#297=DIRECTION('center_axis',(0.,0.,1.));
#298=DIRECTION('ref_axis',(1.,0.,0.));
#299=DIRECTION('center_axis',(0.,0.,1.));
#300=DIRECTION('ref_axis',(1.,0.,0.));
#301=DIRECTION('',(0.,0.,1.));
#302=DIRECTION('center_axis',(0.,0.,-1.));
#303=DIRECTION('ref_axis',(1.,0.,0.));
#304=DIRECTION('center_axis',(0.,0.,-1.));
#305=DIRECTION('ref_axis',(1.,0.,0.));
#306=DIRECTION('center_axis',(0.,0.,1.));
#307=DIRECTION('ref_axis',(1.,0.,0.));
#308=DIRECTION('center_axis',(0.,0.,1.));
#309=DIRECTION('ref_axis',(1.,0.,0.));
#310=DIRECTION('',(0.,0.,1.));
#311=DIRECTION('center_axis',(0.,0.,-1.));
#312=DIRECTION('ref_axis',(1.,0.,0.));
#313=DIRECTION('center_axis',(0.,0.,-1.));
#314=DIRECTION('ref_axis',(1.,0.,0.));
#315=DIRECTION('center_axis',(0.,0.,1.));
#316=DIRECTION('ref_axis',(1.,0.,0.));
#317=DIRECTION('center_axis',(0.,0.,1.));
#318=DIRECTION('ref_axis',(1.,0.,0.));
#319=DIRECTION('',(0.,0.,1.));
#320=DIRECTION('center_axis',(0.,0.,-1.));
#321=DIRECTION('ref_axis',(1.,0.,0.));
#322=DIRECTION('center_axis',(0.,0.,-1.));
#323=DIRECTION('ref_axis',(1.,0.,0.));
#324=DIRECTION('center_axis',(0.,0.,1.));
#325=DIRECTION('ref_axis',(1.,0.,0.));
#326=DIRECTION('center_axis',(0.,0.,1.));
#327=DIRECTION('ref_axis',(1.,0.,0.));
#328=DIRECTION('',(0.,0.,1.));
#329=DIRECTION('center_axis',(0.,0.,-1.));
#330=DIRECTION('ref_axis',(1.,0.,0.));
#331=DIRECTION('center_axis',(0.,0.,-1.));
#332=DIRECTION('ref_axis',(1.,0.,0.));
#333=DIRECTION('center_axis',(0.0833333333333334,-0.996521728591783,0.));
#334=DIRECTION('ref_axis',(0.996521728591783,0.0833333333333334,0.));
#335=DIRECTION('',(0.996521728591783,0.0833333333333334,0.));
#336=DIRECTION('',(0.,0.,1.));
#337=DIRECTION('',(0.996521728591783,0.0833333333333334,0.));
#338=DIRECTION('',(0.,0.,1.));
#339=DIRECTION('center_axis',(0.,0.,1.));
#340=DIRECTION('ref_axis',(-1.,4.75809867696496E-16,0.));
#341=DIRECTION('center_axis',(0.,0.,1.));
#342=DIRECTION('ref_axis',(0.0833333333333333,0.996521728591783,0.));
#343=DIRECTION('center_axis',(0.,0.,1.));
#344=DIRECTION('ref_axis',(0.0833333333333333,0.996521728591783,0.));
#345=DIRECTION('',(0.,0.,1.));
#346=DIRECTION('center_axis',(0.0833333333333332,0.996521728591783,0.));
#347=DIRECTION('ref_axis',(-0.996521728591783,0.0833333333333332,0.));
#348=DIRECTION('',(-0.996521728591783,0.0833333333333332,0.));
#349=DIRECTION('',(-0.996521728591783,0.0833333333333332,0.));
#350=DIRECTION('',(0.,0.,1.));
#351=DIRECTION('center_axis',(0.,0.,1.));
#352=DIRECTION('ref_axis',(0.0833333333333334,-0.996521728591783,0.));
#353=DIRECTION('center_axis',(0.,0.,1.));
#354=DIRECTION('ref_axis',(0.0833333333333334,-0.996521728591783,0.));
#355=DIRECTION('center_axis',(0.,0.,1.));
#356=DIRECTION('ref_axis',(0.0833333333333334,-0.996521728591783,0.));
#357=DIRECTION('center_axis',(0.,0.,1.));
#358=DIRECTION('ref_axis',(1.,0.,0.));
#359=DIRECTION('center_axis',(0.,0.,1.));
#360=DIRECTION('ref_axis',(1.,0.,0.));
#361=CARTESIAN_POINT('',(0.,0.,0.));
#362=CARTESIAN_POINT('Origin',(0.,0.,0.));
#363=CARTESIAN_POINT('',(10.5,1.28587913910472E-15,0.));
#364=CARTESIAN_POINT('Origin',(0.,0.,0.));
#365=CARTESIAN_POINT('',(10.5,-1.28587913910472E-15,5.));
#366=CARTESIAN_POINT('',(10.5,1.28587913910472E-15,0.));
#367=CARTESIAN_POINT('Origin',(0.,0.,5.));
#368=CARTESIAN_POINT('Origin',(4.83037589559984E-14,20.,-222.956684481943));
#369=CARTESIAN_POINT('',(-1.49999999999995,20.,0.));
#370=CARTESIAN_POINT('Origin',(4.83037589559984E-14,20.,0.));
#371=CARTESIAN_POINT('',(-1.49999999999995,20.,5.));
#372=CARTESIAN_POINT('',(-1.49999999999995,20.,-222.956684481943));
#373=CARTESIAN_POINT('',(1.50000000000005,20.,5.));
#374=CARTESIAN_POINT('Origin',(4.83037589559984E-14,20.,5.));
#375=CARTESIAN_POINT('Origin',(4.83037589559984E-14,20.,5.));
#376=CARTESIAN_POINT('Origin',(-5.07530525542931E-14,-20.,-222.956684481943));
#377=CARTESIAN_POINT('',(-1.50000000000005,-20.,0.));
#378=CARTESIAN_POINT('Origin',(-5.07530525542931E-14,-20.,0.));
#379=CARTESIAN_POINT('',(-1.50000000000005,-20.,5.));
#380=CARTESIAN_POINT('',(-1.50000000000005,-20.,-222.956684481943));
#381=CARTESIAN_POINT('',(1.49999999999995,-20.,5.));
#382=CARTESIAN_POINT('Origin',(-5.07530525542931E-14,-20.,5.));
#383=CARTESIAN_POINT('Origin',(-5.07530525542931E-14,-20.,5.));
#384=CARTESIAN_POINT('Origin',(20.,-5.19776993534405E-14,-222.956684481943));
#385=CARTESIAN_POINT('',(18.5,-5.17940023335684E-14,0.));
#386=CARTESIAN_POINT('Origin',(20.,-5.19776993534405E-14,0.));
#387=CARTESIAN_POINT('',(18.5,-5.21613963733126E-14,5.));
#388=CARTESIAN_POINT('',(18.5,-5.21613963733126E-14,-222.956684481943));
#389=CARTESIAN_POINT('',(21.5,-5.19776993534405E-14,5.));
#390=CARTESIAN_POINT('Origin',(20.,-5.19776993534405E-14,5.));
#391=CARTESIAN_POINT('Origin',(20.,-5.19776993534405E-14,5.));
#392=CARTESIAN_POINT('Origin',(-20.,4.95284057551458E-14,-222.956684481943));
#393=CARTESIAN_POINT('',(-21.5,4.97121027750179E-14,0.));
#394=CARTESIAN_POINT('Origin',(-20.,4.95284057551458E-14,0.));
#395=CARTESIAN_POINT('',(-21.5,4.93447087352737E-14,5.));
#396=CARTESIAN_POINT('',(-21.5,4.93447087352737E-14,-222.956684481943));
#397=CARTESIAN_POINT('',(-18.5,4.95284057551458E-14,5.));
#398=CARTESIAN_POINT('Origin',(-20.,4.95284057551458E-14,5.));
#399=CARTESIAN_POINT('Origin',(-20.,4.95284057551458E-14,5.));
#400=CARTESIAN_POINT('Origin',(3.20833333333331,-38.3660865507837,0.));
#401=CARTESIAN_POINT('',(3.20833333333331,-38.3660865507837,0.));
#402=CARTESIAN_POINT('',(152.166666666667,-25.9095649433863,0.));
#403=CARTESIAN_POINT('',(3.20833333333331,-38.3660865507837,0.));
#404=CARTESIAN_POINT('',(152.166666666667,-25.9095649433863,5.));
#405=CARTESIAN_POINT('',(152.166666666667,-25.9095649433863,0.));
#406=CARTESIAN_POINT('',(3.20833333333331,-38.3660865507837,5.));
#407=CARTESIAN_POINT('',(3.20833333333331,-38.3660865507837,5.));
#408=CARTESIAN_POINT('',(3.20833333333331,-38.3660865507837,0.));
#409=CARTESIAN_POINT('Origin',(0.,0.,0.));
#410=CARTESIAN_POINT('',(3.20833333333333,38.3660865507836,0.));
#411=CARTESIAN_POINT('Origin',(0.,0.,0.));
#412=CARTESIAN_POINT('',(3.20833333333333,38.3660865507836,5.));
#413=CARTESIAN_POINT('Origin',(0.,0.,5.));
#414=CARTESIAN_POINT('',(3.20833333333333,38.3660865507836,0.));
#415=CARTESIAN_POINT('Origin',(152.166666666667,25.9095649433864,0.));
#416=CARTESIAN_POINT('',(152.166666666667,25.9095649433864,0.));
#417=CARTESIAN_POINT('',(152.166666666667,25.9095649433864,0.));
#418=CARTESIAN_POINT('',(152.166666666667,25.9095649433864,5.));
#419=CARTESIAN_POINT('',(152.166666666667,25.9095649433864,5.));
#420=CARTESIAN_POINT('',(152.166666666667,25.9095649433864,0.));
#421=CARTESIAN_POINT('Origin',(150.,0.,0.));
#422=CARTESIAN_POINT('Origin',(150.,0.,0.));
#423=CARTESIAN_POINT('Origin',(150.,0.,5.));
#424=CARTESIAN_POINT('Origin',(67.8926111365836,-2.35541434689405E-15,5.));
#425=CARTESIAN_POINT('Origin',(67.8926111365836,-2.35541434689405E-15,0.));
#426=UNCERTAINTY_MEASURE_WITH_UNIT(LENGTH_MEASURE(0.01),#430,
'DISTANCE_ACCURACY_VALUE',
'Maximum model space distance between geometric entities at asserted c
onnectivities');
#427=UNCERTAINTY_MEASURE_WITH_UNIT(LENGTH_MEASURE(0.01),#430,
'DISTANCE_ACCURACY_VALUE',
'Maximum model space distance between geometric entities at asserted c
onnectivities');
#428=(
GEOMETRIC_REPRESENTATION_CONTEXT(3)
GLOBAL_UNCERTAINTY_ASSIGNED_CONTEXT((#426))
GLOBAL_UNIT_ASSIGNED_CONTEXT((#430,#432,#433))
REPRESENTATION_CONTEXT('','3D')
);
#429=(
GEOMETRIC_REPRESENTATION_CONTEXT(3)
GLOBAL_UNCERTAINTY_ASSIGNED_CONTEXT((#427))
GLOBAL_UNIT_ASSIGNED_CONTEXT((#430,#432,#433))
REPRESENTATION_CONTEXT('','3D')
);
#430=(
LENGTH_UNIT()
NAMED_UNIT(*)
SI_UNIT(.MILLI.,.METRE.)
);
#431=(
LENGTH_UNIT()
NAMED_UNIT(*)
SI_UNIT(.CENTI.,.METRE.)
);
#432=(
NAMED_UNIT(*)
PLANE_ANGLE_UNIT()
SI_UNIT($,.RADIAN.)
);
#433=(
NAMED_UNIT(*)
SI_UNIT($,.STERADIAN.)
SOLID_ANGLE_UNIT()
);
#434=SHAPE_DEFINITION_REPRESENTATION(#435,#436);
#435=PRODUCT_DEFINITION_SHAPE('',$,#438);
#436=SHAPE_REPRESENTATION('',(#258),#428);
#437=PRODUCT_DEFINITION_CONTEXT('part definition',#442,'design');
#438=PRODUCT_DEFINITION('plexi2_1','plexi2_1',#439,#437);
#439=PRODUCT_DEFINITION_FORMATION('',$,#444);
#440=PRODUCT_RELATED_PRODUCT_CATEGORY('plexi2_1','plexi2_1',(#444));
#441=APPLICATION_PROTOCOL_DEFINITION('international standard',
'automotive_design',2009,#442);
#442=APPLICATION_CONTEXT(
'Core Data for Automotive Mechanical Design Process');
#443=PRODUCT_CONTEXT('part definition',#442,'mechanical');
#444=PRODUCT('plexi2_1','plexi2_1',$,(#443));
#445=PRESENTATION_STYLE_ASSIGNMENT((#448));
#446=PRESENTATION_STYLE_ASSIGNMENT((#449));
#447=PRESENTATION_STYLE_ASSIGNMENT((#450));
#448=SURFACE_STYLE_USAGE(.BOTH.,#457);
#449=SURFACE_STYLE_USAGE(.BOTH.,#458);
#450=SURFACE_STYLE_USAGE(.BOTH.,#459);
#451=SURFACE_STYLE_RENDERING_WITH_PROPERTIES($,#469,(#454));
#452=SURFACE_STYLE_RENDERING_WITH_PROPERTIES($,#470,(#455));
#453=SURFACE_STYLE_RENDERING_WITH_PROPERTIES($,#471,(#456));
#454=SURFACE_STYLE_TRANSPARENT(0.);
#455=SURFACE_STYLE_TRANSPARENT(0.339999973773956);
#456=SURFACE_STYLE_TRANSPARENT(0.339999973773956);
#457=SURFACE_SIDE_STYLE('',(#460,#451));
#458=SURFACE_SIDE_STYLE('',(#461,#452));
#459=SURFACE_SIDE_STYLE('',(#462,#453));
#460=SURFACE_STYLE_FILL_AREA(#463);
#461=SURFACE_STYLE_FILL_AREA(#464);
#462=SURFACE_STYLE_FILL_AREA(#465);
#463=FILL_AREA_STYLE('',(#466));
#464=FILL_AREA_STYLE('',(#467));
#465=FILL_AREA_STYLE('',(#468));
#466=FILL_AREA_STYLE_COLOUR('',#469);
#467=FILL_AREA_STYLE_COLOUR('',#470);
#468=FILL_AREA_STYLE_COLOUR('',#471);
#469=COLOUR_RGB('',0.749019607843137,0.749019607843137,0.749019607843137);
#470=COLOUR_RGB('',0.925490196078431,0.945098039215686,0.937254901960784);
#471=COLOUR_RGB('',0.0470588235294118,1.,0.);
ENDSEC;
END-ISO-10303-21;
