ISO-10303-21;
HEADER;
/* Generated by software containing ST-Developer
 * from STEP Tools, Inc. (www.steptools.com) 
 */

FILE_DESCRIPTION(
/* description */ ('STEP AP203'),
/* implementation_level */ '2;1');

FILE_NAME(
/* name */ 
'C:\\Users\\Serafin Kollegger\\Documents\\MCI\\Studium\\MA\\MA-Thesis\\
RoboZelle\\Delta Roboter Model\\Model4\\\\ETY-DR-0011_Default_sldprt_i
pt_efe6ceff.STEP',
/* time_stamp */ '2021-04-19T13:14:20+02:00',
/* author */ (''),
/* organization */ (''),
/* preprocessor_version */ 'ST-DEVELOPER v18',
/* originating_system */ 'Autodesk Inventor 2020',
/* authorisation */ '');

FILE_SCHEMA (('AUTOMOTIVE_DESIGN { 1 0 10303 214 3 1 1 }'));
ENDSEC;

DATA;
#10=MECHANICAL_DESIGN_GEOMETRIC_PRESENTATION_REPRESENTATION('',(#13),#1489);
#11=SHAPE_REPRESENTATION_RELATIONSHIP('SRR','None',#1496,#12);
#12=ADVANCED_BREP_SHAPE_REPRESENTATION('',(#14),#1488);
#13=STYLED_ITEM('',(#1505),#14);
#14=MANIFOLD_SOLID_BREP('Volumenk\X\F6rper1',#880);
#15=FACE_BOUND('',#123,.T.);
#16=FACE_BOUND('',#124,.T.);
#17=FACE_BOUND('',#125,.T.);
#18=FACE_BOUND('',#126,.T.);
#19=FACE_BOUND('',#140,.T.);
#20=FACE_BOUND('',#141,.T.);
#21=FACE_BOUND('',#143,.T.);
#22=FACE_BOUND('',#145,.T.);
#23=FACE_BOUND('',#147,.T.);
#24=FACE_BOUND('',#149,.T.);
#25=FACE_BOUND('',#150,.T.);
#26=FACE_BOUND('',#152,.T.);
#27=FACE_BOUND('',#153,.T.);
#28=FACE_BOUND('',#155,.T.);
#29=FACE_BOUND('',#156,.T.);
#30=PLANE('',#941);
#31=PLANE('',#945);
#32=PLANE('',#946);
#33=PLANE('',#947);
#34=PLANE('',#950);
#35=PLANE('',#951);
#36=PLANE('',#952);
#37=PLANE('',#955);
#38=PLANE('',#956);
#39=PLANE('',#957);
#40=PLANE('',#960);
#41=PLANE('',#961);
#42=PLANE('',#962);
#43=PLANE('',#963);
#44=PLANE('',#964);
#45=PLANE('',#965);
#46=PLANE('',#966);
#47=PLANE('',#967);
#48=PLANE('',#968);
#49=PLANE('',#969);
#50=PLANE('',#970);
#51=PLANE('',#971);
#52=PLANE('',#972);
#53=PLANE('',#973);
#54=PLANE('',#974);
#55=PLANE('',#975);
#56=PLANE('',#976);
#57=PLANE('',#977);
#58=PLANE('',#978);
#59=PLANE('',#979);
#60=PLANE('',#980);
#61=PLANE('',#981);
#62=CONICAL_SURFACE('',#940,1.49999999996453,1.02974425866743);
#63=ELLIPSE('',#906,7.07106781186548,5.00000000000001);
#64=ELLIPSE('',#909,7.07106781186548,5.00000000000001);
#65=ELLIPSE('',#911,7.07106781186546,4.99999999999998);
#66=ELLIPSE('',#914,7.07106781186546,4.99999999999998);
#67=ELLIPSE('',#916,7.07106781186548,5.);
#68=ELLIPSE('',#919,7.07106781186548,5.);
#69=FACE_OUTER_BOUND('',#113,.T.);
#70=FACE_OUTER_BOUND('',#114,.T.);
#71=FACE_OUTER_BOUND('',#115,.T.);
#72=FACE_OUTER_BOUND('',#116,.T.);
#73=FACE_OUTER_BOUND('',#117,.T.);
#74=FACE_OUTER_BOUND('',#118,.T.);
#75=FACE_OUTER_BOUND('',#119,.T.);
#76=FACE_OUTER_BOUND('',#120,.T.);
#77=FACE_OUTER_BOUND('',#121,.T.);
#78=FACE_OUTER_BOUND('',#122,.T.);
#79=FACE_OUTER_BOUND('',#127,.T.);
#80=FACE_OUTER_BOUND('',#128,.T.);
#81=FACE_OUTER_BOUND('',#129,.T.);
#82=FACE_OUTER_BOUND('',#130,.T.);
#83=FACE_OUTER_BOUND('',#131,.T.);
#84=FACE_OUTER_BOUND('',#132,.T.);
#85=FACE_OUTER_BOUND('',#133,.T.);
#86=FACE_OUTER_BOUND('',#134,.T.);
#87=FACE_OUTER_BOUND('',#135,.T.);
#88=FACE_OUTER_BOUND('',#136,.T.);
#89=FACE_OUTER_BOUND('',#137,.T.);
#90=FACE_OUTER_BOUND('',#138,.T.);
#91=FACE_OUTER_BOUND('',#139,.T.);
#92=FACE_OUTER_BOUND('',#142,.T.);
#93=FACE_OUTER_BOUND('',#144,.T.);
#94=FACE_OUTER_BOUND('',#146,.T.);
#95=FACE_OUTER_BOUND('',#148,.T.);
#96=FACE_OUTER_BOUND('',#151,.T.);
#97=FACE_OUTER_BOUND('',#154,.T.);
#98=FACE_OUTER_BOUND('',#157,.T.);
#99=FACE_OUTER_BOUND('',#158,.T.);
#100=FACE_OUTER_BOUND('',#159,.T.);
#101=FACE_OUTER_BOUND('',#160,.T.);
#102=FACE_OUTER_BOUND('',#161,.T.);
#103=FACE_OUTER_BOUND('',#162,.T.);
#104=FACE_OUTER_BOUND('',#163,.T.);
#105=FACE_OUTER_BOUND('',#164,.T.);
#106=FACE_OUTER_BOUND('',#165,.T.);
#107=FACE_OUTER_BOUND('',#166,.T.);
#108=FACE_OUTER_BOUND('',#167,.T.);
#109=FACE_OUTER_BOUND('',#168,.T.);
#110=FACE_OUTER_BOUND('',#169,.T.);
#111=FACE_OUTER_BOUND('',#170,.T.);
#112=FACE_OUTER_BOUND('',#171,.T.);
#113=EDGE_LOOP('',(#581,#582,#583,#584,#585,#586));
#114=EDGE_LOOP('',(#587,#588,#589,#590,#591,#592));
#115=EDGE_LOOP('',(#593,#594,#595,#596,#597,#598));
#116=EDGE_LOOP('',(#599,#600,#601,#602,#603,#604));
#117=EDGE_LOOP('',(#605,#606,#607,#608,#609,#610));
#118=EDGE_LOOP('',(#611,#612,#613,#614,#615,#616));
#119=EDGE_LOOP('',(#617,#618,#619,#620,#621,#622));
#120=EDGE_LOOP('',(#623,#624,#625,#626,#627,#628));
#121=EDGE_LOOP('',(#629,#630,#631,#632));
#122=EDGE_LOOP('',(#633,#634,#635,#636,#637,#638,#639,#640,#641,#642,#643,
#644));
#123=EDGE_LOOP('',(#645,#646));
#124=EDGE_LOOP('',(#647,#648));
#125=EDGE_LOOP('',(#649,#650));
#126=EDGE_LOOP('',(#651,#652));
#127=EDGE_LOOP('',(#653,#654,#655,#656,#657));
#128=EDGE_LOOP('',(#658,#659,#660,#661));
#129=EDGE_LOOP('',(#662,#663,#664,#665,#666));
#130=EDGE_LOOP('',(#667,#668,#669,#670));
#131=EDGE_LOOP('',(#671,#672,#673,#674,#675));
#132=EDGE_LOOP('',(#676,#677,#678,#679));
#133=EDGE_LOOP('',(#680,#681,#682,#683,#684));
#134=EDGE_LOOP('',(#685,#686,#687,#688));
#135=EDGE_LOOP('',(#689,#690,#691,#692,#693));
#136=EDGE_LOOP('',(#694,#695,#696,#697));
#137=EDGE_LOOP('',(#698,#699,#700,#701,#702));
#138=EDGE_LOOP('',(#703,#704,#705,#706));
#139=EDGE_LOOP('',(#707,#708,#709,#710,#711,#712,#713,#714,#715,#716,#717,
#718));
#140=EDGE_LOOP('',(#719,#720));
#141=EDGE_LOOP('',(#721,#722));
#142=EDGE_LOOP('',(#723,#724));
#143=EDGE_LOOP('',(#725,#726));
#144=EDGE_LOOP('',(#727,#728));
#145=EDGE_LOOP('',(#729,#730));
#146=EDGE_LOOP('',(#731,#732));
#147=EDGE_LOOP('',(#733,#734));
#148=EDGE_LOOP('',(#735,#736,#737,#738));
#149=EDGE_LOOP('',(#739,#740));
#150=EDGE_LOOP('',(#741,#742,#743,#744));
#151=EDGE_LOOP('',(#745,#746,#747,#748));
#152=EDGE_LOOP('',(#749,#750));
#153=EDGE_LOOP('',(#751,#752,#753,#754));
#154=EDGE_LOOP('',(#755,#756,#757,#758));
#155=EDGE_LOOP('',(#759,#760));
#156=EDGE_LOOP('',(#761,#762,#763,#764));
#157=EDGE_LOOP('',(#765,#766,#767,#768));
#158=EDGE_LOOP('',(#769,#770,#771,#772));
#159=EDGE_LOOP('',(#773,#774,#775,#776));
#160=EDGE_LOOP('',(#777,#778,#779,#780));
#161=EDGE_LOOP('',(#781,#782,#783,#784));
#162=EDGE_LOOP('',(#785,#786,#787,#788));
#163=EDGE_LOOP('',(#789,#790,#791,#792));
#164=EDGE_LOOP('',(#793,#794,#795,#796));
#165=EDGE_LOOP('',(#797,#798,#799,#800));
#166=EDGE_LOOP('',(#801,#802,#803,#804));
#167=EDGE_LOOP('',(#805,#806,#807,#808));
#168=EDGE_LOOP('',(#809,#810,#811,#812));
#169=EDGE_LOOP('',(#813,#814,#815,#816));
#170=EDGE_LOOP('',(#817,#818,#819,#820));
#171=EDGE_LOOP('',(#821,#822,#823,#824));
#172=LINE('',#1238,#256);
#173=LINE('',#1248,#257);
#174=LINE('',#1258,#258);
#175=LINE('',#1268,#259);
#176=LINE('',#1279,#260);
#177=LINE('',#1288,#261);
#178=LINE('',#1298,#262);
#179=LINE('',#1308,#263);
#180=LINE('',#1315,#264);
#181=LINE('',#1319,#265);
#182=LINE('',#1321,#266);
#183=LINE('',#1325,#267);
#184=LINE('',#1327,#268);
#185=LINE('',#1329,#269);
#186=LINE('',#1333,#270);
#187=LINE('',#1335,#271);
#188=LINE('',#1337,#272);
#189=LINE('',#1340,#273);
#190=LINE('',#1344,#274);
#191=LINE('',#1345,#275);
#192=LINE('',#1347,#276);
#193=LINE('',#1348,#277);
#194=LINE('',#1351,#278);
#195=LINE('',#1352,#279);
#196=LINE('',#1356,#280);
#197=LINE('',#1357,#281);
#198=LINE('',#1358,#282);
#199=LINE('',#1362,#283);
#200=LINE('',#1366,#284);
#201=LINE('',#1367,#285);
#202=LINE('',#1368,#286);
#203=LINE('',#1371,#287);
#204=LINE('',#1372,#288);
#205=LINE('',#1376,#289);
#206=LINE('',#1377,#290);
#207=LINE('',#1378,#291);
#208=LINE('',#1382,#292);
#209=LINE('',#1386,#293);
#210=LINE('',#1387,#294);
#211=LINE('',#1388,#295);
#212=LINE('',#1391,#296);
#213=LINE('',#1392,#297);
#214=LINE('',#1396,#298);
#215=LINE('',#1397,#299);
#216=LINE('',#1398,#300);
#217=LINE('',#1402,#301);
#218=LINE('',#1403,#302);
#219=LINE('',#1404,#303);
#220=LINE('',#1411,#304);
#221=LINE('',#1413,#305);
#222=LINE('',#1415,#306);
#223=LINE('',#1416,#307);
#224=LINE('',#1420,#308);
#225=LINE('',#1422,#309);
#226=LINE('',#1424,#310);
#227=LINE('',#1425,#311);
#228=LINE('',#1429,#312);
#229=LINE('',#1431,#313);
#230=LINE('',#1433,#314);
#231=LINE('',#1434,#315);
#232=LINE('',#1438,#316);
#233=LINE('',#1439,#317);
#234=LINE('',#1440,#318);
#235=LINE('',#1443,#319);
#236=LINE('',#1444,#320);
#237=LINE('',#1447,#321);
#238=LINE('',#1448,#322);
#239=LINE('',#1450,#323);
#240=LINE('',#1454,#324);
#241=LINE('',#1455,#325);
#242=LINE('',#1456,#326);
#243=LINE('',#1459,#327);
#244=LINE('',#1460,#328);
#245=LINE('',#1463,#329);
#246=LINE('',#1464,#330);
#247=LINE('',#1466,#331);
#248=LINE('',#1470,#332);
#249=LINE('',#1471,#333);
#250=LINE('',#1472,#334);
#251=LINE('',#1475,#335);
#252=LINE('',#1476,#336);
#253=LINE('',#1479,#337);
#254=LINE('',#1480,#338);
#255=LINE('',#1482,#339);
#256=VECTOR('',#988,17.5);
#257=VECTOR('',#999,5.);
#258=VECTOR('',#1010,5.);
#259=VECTOR('',#1021,5.);
#260=VECTOR('',#1034,1.5);
#261=VECTOR('',#1043,2.75);
#262=VECTOR('',#1054,2.75);
#263=VECTOR('',#1065,2.75);
#264=VECTOR('',#1074,1.49999999996453);
#265=VECTOR('',#1077,1000.);
#266=VECTOR('',#1078,1000.);
#267=VECTOR('',#1081,1000.);
#268=VECTOR('',#1082,1000.);
#269=VECTOR('',#1083,1000.);
#270=VECTOR('',#1086,1000.);
#271=VECTOR('',#1087,1000.);
#272=VECTOR('',#1088,1000.);
#273=VECTOR('',#1091,1000.);
#274=VECTOR('',#1094,1000.);
#275=VECTOR('',#1095,1000.);
#276=VECTOR('',#1096,1000.);
#277=VECTOR('',#1097,1000.);
#278=VECTOR('',#1100,1000.);
#279=VECTOR('',#1101,1000.);
#280=VECTOR('',#1104,1000.);
#281=VECTOR('',#1105,1000.);
#282=VECTOR('',#1106,1000.);
#283=VECTOR('',#1111,1000.);
#284=VECTOR('',#1114,1000.);
#285=VECTOR('',#1115,1000.);
#286=VECTOR('',#1116,1000.);
#287=VECTOR('',#1119,1000.);
#288=VECTOR('',#1120,1000.);
#289=VECTOR('',#1123,1000.);
#290=VECTOR('',#1124,1000.);
#291=VECTOR('',#1125,1000.);
#292=VECTOR('',#1130,1000.);
#293=VECTOR('',#1133,1000.);
#294=VECTOR('',#1134,1000.);
#295=VECTOR('',#1135,1000.);
#296=VECTOR('',#1138,1000.);
#297=VECTOR('',#1139,1000.);
#298=VECTOR('',#1142,1000.);
#299=VECTOR('',#1143,1000.);
#300=VECTOR('',#1144,1000.);
#301=VECTOR('',#1151,1000.);
#302=VECTOR('',#1152,1000.);
#303=VECTOR('',#1153,1000.);
#304=VECTOR('',#1162,1000.);
#305=VECTOR('',#1163,1000.);
#306=VECTOR('',#1164,1000.);
#307=VECTOR('',#1165,1000.);
#308=VECTOR('',#1168,1000.);
#309=VECTOR('',#1169,1000.);
#310=VECTOR('',#1170,1000.);
#311=VECTOR('',#1171,1000.);
#312=VECTOR('',#1174,1000.);
#313=VECTOR('',#1175,1000.);
#314=VECTOR('',#1176,1000.);
#315=VECTOR('',#1177,1000.);
#316=VECTOR('',#1180,1000.);
#317=VECTOR('',#1181,1000.);
#318=VECTOR('',#1182,1000.);
#319=VECTOR('',#1185,1000.);
#320=VECTOR('',#1186,1000.);
#321=VECTOR('',#1189,1000.);
#322=VECTOR('',#1190,1000.);
#323=VECTOR('',#1193,1000.);
#324=VECTOR('',#1196,1000.);
#325=VECTOR('',#1197,1000.);
#326=VECTOR('',#1198,1000.);
#327=VECTOR('',#1201,1000.);
#328=VECTOR('',#1202,1000.);
#329=VECTOR('',#1205,1000.);
#330=VECTOR('',#1206,1000.);
#331=VECTOR('',#1209,1000.);
#332=VECTOR('',#1212,1000.);
#333=VECTOR('',#1213,1000.);
#334=VECTOR('',#1214,1000.);
#335=VECTOR('',#1217,1000.);
#336=VECTOR('',#1218,1000.);
#337=VECTOR('',#1221,1000.);
#338=VECTOR('',#1222,1000.);
#339=VECTOR('',#1225,1000.);
#340=CIRCLE('',#901,17.5);
#341=CIRCLE('',#902,17.5);
#342=CIRCLE('',#903,17.5);
#343=CIRCLE('',#904,17.5);
#344=CIRCLE('',#907,5.);
#345=CIRCLE('',#908,5.);
#346=CIRCLE('',#912,5.);
#347=CIRCLE('',#913,5.);
#348=CIRCLE('',#917,5.);
#349=CIRCLE('',#918,5.);
#350=CIRCLE('',#921,1.5);
#351=CIRCLE('',#922,1.5);
#352=CIRCLE('',#923,1.5);
#353=CIRCLE('',#924,1.5);
#354=CIRCLE('',#926,2.75);
#355=CIRCLE('',#927,2.75);
#356=CIRCLE('',#928,2.75);
#357=CIRCLE('',#929,2.75);
#358=CIRCLE('',#931,2.75);
#359=CIRCLE('',#932,2.75);
#360=CIRCLE('',#933,2.75);
#361=CIRCLE('',#934,2.75);
#362=CIRCLE('',#936,2.75);
#363=CIRCLE('',#937,2.75);
#364=CIRCLE('',#938,2.75);
#365=CIRCLE('',#939,2.75);
#366=CIRCLE('',#942,49.2820323027551);
#367=CIRCLE('',#943,49.2820323027551);
#368=CIRCLE('',#944,49.282032302755);
#369=CIRCLE('',#949,49.2820323027551);
#370=CIRCLE('',#954,49.2820323027551);
#371=CIRCLE('',#959,49.282032302755);
#372=VERTEX_POINT('',#1234);
#373=VERTEX_POINT('',#1235);
#374=VERTEX_POINT('',#1237);
#375=VERTEX_POINT('',#1239);
#376=VERTEX_POINT('',#1244);
#377=VERTEX_POINT('',#1245);
#378=VERTEX_POINT('',#1247);
#379=VERTEX_POINT('',#1249);
#380=VERTEX_POINT('',#1254);
#381=VERTEX_POINT('',#1255);
#382=VERTEX_POINT('',#1257);
#383=VERTEX_POINT('',#1259);
#384=VERTEX_POINT('',#1264);
#385=VERTEX_POINT('',#1265);
#386=VERTEX_POINT('',#1267);
#387=VERTEX_POINT('',#1269);
#388=VERTEX_POINT('',#1274);
#389=VERTEX_POINT('',#1275);
#390=VERTEX_POINT('',#1278);
#391=VERTEX_POINT('',#1280);
#392=VERTEX_POINT('',#1284);
#393=VERTEX_POINT('',#1285);
#394=VERTEX_POINT('',#1287);
#395=VERTEX_POINT('',#1289);
#396=VERTEX_POINT('',#1294);
#397=VERTEX_POINT('',#1295);
#398=VERTEX_POINT('',#1297);
#399=VERTEX_POINT('',#1299);
#400=VERTEX_POINT('',#1304);
#401=VERTEX_POINT('',#1305);
#402=VERTEX_POINT('',#1307);
#403=VERTEX_POINT('',#1309);
#404=VERTEX_POINT('',#1314);
#405=VERTEX_POINT('',#1317);
#406=VERTEX_POINT('',#1318);
#407=VERTEX_POINT('',#1320);
#408=VERTEX_POINT('',#1322);
#409=VERTEX_POINT('',#1324);
#410=VERTEX_POINT('',#1326);
#411=VERTEX_POINT('',#1328);
#412=VERTEX_POINT('',#1330);
#413=VERTEX_POINT('',#1332);
#414=VERTEX_POINT('',#1334);
#415=VERTEX_POINT('',#1336);
#416=VERTEX_POINT('',#1338);
#417=VERTEX_POINT('',#1342);
#418=VERTEX_POINT('',#1343);
#419=VERTEX_POINT('',#1346);
#420=VERTEX_POINT('',#1350);
#421=VERTEX_POINT('',#1354);
#422=VERTEX_POINT('',#1355);
#423=VERTEX_POINT('',#1360);
#424=VERTEX_POINT('',#1364);
#425=VERTEX_POINT('',#1365);
#426=VERTEX_POINT('',#1370);
#427=VERTEX_POINT('',#1374);
#428=VERTEX_POINT('',#1375);
#429=VERTEX_POINT('',#1380);
#430=VERTEX_POINT('',#1384);
#431=VERTEX_POINT('',#1385);
#432=VERTEX_POINT('',#1390);
#433=VERTEX_POINT('',#1394);
#434=VERTEX_POINT('',#1395);
#435=VERTEX_POINT('',#1409);
#436=VERTEX_POINT('',#1410);
#437=VERTEX_POINT('',#1412);
#438=VERTEX_POINT('',#1414);
#439=VERTEX_POINT('',#1418);
#440=VERTEX_POINT('',#1419);
#441=VERTEX_POINT('',#1421);
#442=VERTEX_POINT('',#1423);
#443=VERTEX_POINT('',#1427);
#444=VERTEX_POINT('',#1428);
#445=VERTEX_POINT('',#1430);
#446=VERTEX_POINT('',#1432);
#447=VERTEX_POINT('',#1436);
#448=VERTEX_POINT('',#1437);
#449=VERTEX_POINT('',#1442);
#450=VERTEX_POINT('',#1446);
#451=VERTEX_POINT('',#1452);
#452=VERTEX_POINT('',#1453);
#453=VERTEX_POINT('',#1458);
#454=VERTEX_POINT('',#1462);
#455=VERTEX_POINT('',#1468);
#456=VERTEX_POINT('',#1469);
#457=VERTEX_POINT('',#1474);
#458=VERTEX_POINT('',#1478);
#459=EDGE_CURVE('',#372,#373,#340,.T.);
#460=EDGE_CURVE('',#373,#374,#172,.T.);
#461=EDGE_CURVE('',#375,#374,#341,.T.);
#462=EDGE_CURVE('',#374,#375,#342,.T.);
#463=EDGE_CURVE('',#373,#372,#343,.T.);
#464=EDGE_CURVE('',#376,#377,#63,.T.);
#465=EDGE_CURVE('',#377,#378,#173,.T.);
#466=EDGE_CURVE('',#379,#378,#344,.T.);
#467=EDGE_CURVE('',#378,#379,#345,.T.);
#468=EDGE_CURVE('',#377,#376,#64,.T.);
#469=EDGE_CURVE('',#380,#381,#65,.T.);
#470=EDGE_CURVE('',#381,#382,#174,.T.);
#471=EDGE_CURVE('',#383,#382,#346,.T.);
#472=EDGE_CURVE('',#382,#383,#347,.T.);
#473=EDGE_CURVE('',#381,#380,#66,.T.);
#474=EDGE_CURVE('',#384,#385,#67,.T.);
#475=EDGE_CURVE('',#385,#386,#175,.T.);
#476=EDGE_CURVE('',#387,#386,#348,.T.);
#477=EDGE_CURVE('',#386,#387,#349,.T.);
#478=EDGE_CURVE('',#385,#384,#68,.T.);
#479=EDGE_CURVE('',#388,#389,#350,.T.);
#480=EDGE_CURVE('',#389,#388,#351,.T.);
#481=EDGE_CURVE('',#389,#390,#176,.T.);
#482=EDGE_CURVE('',#391,#390,#352,.T.);
#483=EDGE_CURVE('',#390,#391,#353,.T.);
#484=EDGE_CURVE('',#392,#393,#354,.T.);
#485=EDGE_CURVE('',#393,#394,#177,.T.);
#486=EDGE_CURVE('',#395,#394,#355,.T.);
#487=EDGE_CURVE('',#394,#395,#356,.T.);
#488=EDGE_CURVE('',#393,#392,#357,.T.);
#489=EDGE_CURVE('',#396,#397,#358,.T.);
#490=EDGE_CURVE('',#397,#398,#178,.T.);
#491=EDGE_CURVE('',#399,#398,#359,.T.);
#492=EDGE_CURVE('',#398,#399,#360,.T.);
#493=EDGE_CURVE('',#397,#396,#361,.T.);
#494=EDGE_CURVE('',#400,#401,#362,.T.);
#495=EDGE_CURVE('',#401,#402,#179,.T.);
#496=EDGE_CURVE('',#403,#402,#363,.T.);
#497=EDGE_CURVE('',#402,#403,#364,.T.);
#498=EDGE_CURVE('',#401,#400,#365,.T.);
#499=EDGE_CURVE('',#404,#389,#180,.T.);
#500=EDGE_CURVE('',#405,#406,#181,.T.);
#501=EDGE_CURVE('',#407,#405,#182,.T.);
#502=EDGE_CURVE('',#408,#407,#366,.T.);
#503=EDGE_CURVE('',#409,#408,#183,.T.);
#504=EDGE_CURVE('',#410,#409,#184,.T.);
#505=EDGE_CURVE('',#411,#410,#185,.T.);
#506=EDGE_CURVE('',#412,#411,#367,.T.);
#507=EDGE_CURVE('',#413,#412,#186,.T.);
#508=EDGE_CURVE('',#414,#413,#187,.T.);
#509=EDGE_CURVE('',#415,#414,#188,.T.);
#510=EDGE_CURVE('',#416,#415,#368,.T.);
#511=EDGE_CURVE('',#406,#416,#189,.T.);
#512=EDGE_CURVE('',#417,#418,#190,.T.);
#513=EDGE_CURVE('',#418,#406,#191,.T.);
#514=EDGE_CURVE('',#416,#419,#192,.T.);
#515=EDGE_CURVE('',#419,#417,#193,.T.);
#516=EDGE_CURVE('',#418,#420,#194,.T.);
#517=EDGE_CURVE('',#420,#405,#195,.T.);
#518=EDGE_CURVE('',#421,#422,#196,.T.);
#519=EDGE_CURVE('',#422,#407,#197,.T.);
#520=EDGE_CURVE('',#420,#421,#198,.T.);
#521=EDGE_CURVE('',#423,#422,#369,.T.);
#522=EDGE_CURVE('',#408,#423,#199,.T.);
#523=EDGE_CURVE('',#424,#425,#200,.T.);
#524=EDGE_CURVE('',#425,#409,#201,.T.);
#525=EDGE_CURVE('',#423,#424,#202,.T.);
#526=EDGE_CURVE('',#425,#426,#203,.T.);
#527=EDGE_CURVE('',#426,#410,#204,.T.);
#528=EDGE_CURVE('',#427,#428,#205,.T.);
#529=EDGE_CURVE('',#428,#411,#206,.T.);
#530=EDGE_CURVE('',#426,#427,#207,.T.);
#531=EDGE_CURVE('',#429,#428,#370,.T.);
#532=EDGE_CURVE('',#412,#429,#208,.T.);
#533=EDGE_CURVE('',#430,#431,#209,.T.);
#534=EDGE_CURVE('',#431,#413,#210,.T.);
#535=EDGE_CURVE('',#429,#430,#211,.T.);
#536=EDGE_CURVE('',#431,#432,#212,.T.);
#537=EDGE_CURVE('',#432,#414,#213,.T.);
#538=EDGE_CURVE('',#433,#434,#214,.T.);
#539=EDGE_CURVE('',#434,#415,#215,.T.);
#540=EDGE_CURVE('',#432,#433,#216,.T.);
#541=EDGE_CURVE('',#419,#434,#371,.T.);
#542=EDGE_CURVE('',#427,#424,#217,.T.);
#543=EDGE_CURVE('',#421,#417,#218,.T.);
#544=EDGE_CURVE('',#433,#430,#219,.T.);
#545=EDGE_CURVE('',#435,#436,#220,.T.);
#546=EDGE_CURVE('',#436,#437,#221,.T.);
#547=EDGE_CURVE('',#437,#438,#222,.T.);
#548=EDGE_CURVE('',#438,#435,#223,.T.);
#549=EDGE_CURVE('',#439,#440,#224,.T.);
#550=EDGE_CURVE('',#440,#441,#225,.T.);
#551=EDGE_CURVE('',#441,#442,#226,.T.);
#552=EDGE_CURVE('',#442,#439,#227,.T.);
#553=EDGE_CURVE('',#443,#444,#228,.T.);
#554=EDGE_CURVE('',#444,#445,#229,.T.);
#555=EDGE_CURVE('',#445,#446,#230,.T.);
#556=EDGE_CURVE('',#446,#443,#231,.T.);
#557=EDGE_CURVE('',#447,#448,#232,.T.);
#558=EDGE_CURVE('',#448,#437,#233,.T.);
#559=EDGE_CURVE('',#436,#447,#234,.T.);
#560=EDGE_CURVE('',#449,#447,#235,.T.);
#561=EDGE_CURVE('',#435,#449,#236,.T.);
#562=EDGE_CURVE('',#438,#450,#237,.T.);
#563=EDGE_CURVE('',#450,#449,#238,.T.);
#564=EDGE_CURVE('',#448,#450,#239,.T.);
#565=EDGE_CURVE('',#451,#452,#240,.T.);
#566=EDGE_CURVE('',#452,#441,#241,.T.);
#567=EDGE_CURVE('',#440,#451,#242,.T.);
#568=EDGE_CURVE('',#453,#451,#243,.T.);
#569=EDGE_CURVE('',#439,#453,#244,.T.);
#570=EDGE_CURVE('',#442,#454,#245,.T.);
#571=EDGE_CURVE('',#454,#453,#246,.T.);
#572=EDGE_CURVE('',#452,#454,#247,.T.);
#573=EDGE_CURVE('',#455,#456,#248,.T.);
#574=EDGE_CURVE('',#456,#445,#249,.T.);
#575=EDGE_CURVE('',#444,#455,#250,.T.);
#576=EDGE_CURVE('',#457,#455,#251,.T.);
#577=EDGE_CURVE('',#443,#457,#252,.T.);
#578=EDGE_CURVE('',#446,#458,#253,.T.);
#579=EDGE_CURVE('',#458,#457,#254,.T.);
#580=EDGE_CURVE('',#456,#458,#255,.T.);
#581=ORIENTED_EDGE('',*,*,#459,.T.);
#582=ORIENTED_EDGE('',*,*,#460,.T.);
#583=ORIENTED_EDGE('',*,*,#461,.F.);
#584=ORIENTED_EDGE('',*,*,#462,.F.);
#585=ORIENTED_EDGE('',*,*,#460,.F.);
#586=ORIENTED_EDGE('',*,*,#463,.T.);
#587=ORIENTED_EDGE('',*,*,#464,.T.);
#588=ORIENTED_EDGE('',*,*,#465,.T.);
#589=ORIENTED_EDGE('',*,*,#466,.F.);
#590=ORIENTED_EDGE('',*,*,#467,.F.);
#591=ORIENTED_EDGE('',*,*,#465,.F.);
#592=ORIENTED_EDGE('',*,*,#468,.T.);
#593=ORIENTED_EDGE('',*,*,#469,.T.);
#594=ORIENTED_EDGE('',*,*,#470,.T.);
#595=ORIENTED_EDGE('',*,*,#471,.F.);
#596=ORIENTED_EDGE('',*,*,#472,.F.);
#597=ORIENTED_EDGE('',*,*,#470,.F.);
#598=ORIENTED_EDGE('',*,*,#473,.T.);
#599=ORIENTED_EDGE('',*,*,#474,.T.);
#600=ORIENTED_EDGE('',*,*,#475,.T.);
#601=ORIENTED_EDGE('',*,*,#476,.F.);
#602=ORIENTED_EDGE('',*,*,#477,.F.);
#603=ORIENTED_EDGE('',*,*,#475,.F.);
#604=ORIENTED_EDGE('',*,*,#478,.T.);
#605=ORIENTED_EDGE('',*,*,#479,.F.);
#606=ORIENTED_EDGE('',*,*,#480,.F.);
#607=ORIENTED_EDGE('',*,*,#481,.T.);
#608=ORIENTED_EDGE('',*,*,#482,.F.);
#609=ORIENTED_EDGE('',*,*,#483,.F.);
#610=ORIENTED_EDGE('',*,*,#481,.F.);
#611=ORIENTED_EDGE('',*,*,#484,.T.);
#612=ORIENTED_EDGE('',*,*,#485,.T.);
#613=ORIENTED_EDGE('',*,*,#486,.F.);
#614=ORIENTED_EDGE('',*,*,#487,.F.);
#615=ORIENTED_EDGE('',*,*,#485,.F.);
#616=ORIENTED_EDGE('',*,*,#488,.T.);
#617=ORIENTED_EDGE('',*,*,#489,.T.);
#618=ORIENTED_EDGE('',*,*,#490,.T.);
#619=ORIENTED_EDGE('',*,*,#491,.F.);
#620=ORIENTED_EDGE('',*,*,#492,.F.);
#621=ORIENTED_EDGE('',*,*,#490,.F.);
#622=ORIENTED_EDGE('',*,*,#493,.T.);
#623=ORIENTED_EDGE('',*,*,#494,.T.);
#624=ORIENTED_EDGE('',*,*,#495,.T.);
#625=ORIENTED_EDGE('',*,*,#496,.F.);
#626=ORIENTED_EDGE('',*,*,#497,.F.);
#627=ORIENTED_EDGE('',*,*,#495,.F.);
#628=ORIENTED_EDGE('',*,*,#498,.T.);
#629=ORIENTED_EDGE('',*,*,#499,.T.);
#630=ORIENTED_EDGE('',*,*,#480,.T.);
#631=ORIENTED_EDGE('',*,*,#479,.T.);
#632=ORIENTED_EDGE('',*,*,#499,.F.);
#633=ORIENTED_EDGE('',*,*,#500,.F.);
#634=ORIENTED_EDGE('',*,*,#501,.F.);
#635=ORIENTED_EDGE('',*,*,#502,.F.);
#636=ORIENTED_EDGE('',*,*,#503,.F.);
#637=ORIENTED_EDGE('',*,*,#504,.F.);
#638=ORIENTED_EDGE('',*,*,#505,.F.);
#639=ORIENTED_EDGE('',*,*,#506,.F.);
#640=ORIENTED_EDGE('',*,*,#507,.F.);
#641=ORIENTED_EDGE('',*,*,#508,.F.);
#642=ORIENTED_EDGE('',*,*,#509,.F.);
#643=ORIENTED_EDGE('',*,*,#510,.F.);
#644=ORIENTED_EDGE('',*,*,#511,.F.);
#645=ORIENTED_EDGE('',*,*,#459,.F.);
#646=ORIENTED_EDGE('',*,*,#463,.F.);
#647=ORIENTED_EDGE('',*,*,#464,.F.);
#648=ORIENTED_EDGE('',*,*,#468,.F.);
#649=ORIENTED_EDGE('',*,*,#469,.F.);
#650=ORIENTED_EDGE('',*,*,#473,.F.);
#651=ORIENTED_EDGE('',*,*,#474,.F.);
#652=ORIENTED_EDGE('',*,*,#478,.F.);
#653=ORIENTED_EDGE('',*,*,#512,.T.);
#654=ORIENTED_EDGE('',*,*,#513,.T.);
#655=ORIENTED_EDGE('',*,*,#511,.T.);
#656=ORIENTED_EDGE('',*,*,#514,.T.);
#657=ORIENTED_EDGE('',*,*,#515,.T.);
#658=ORIENTED_EDGE('',*,*,#516,.T.);
#659=ORIENTED_EDGE('',*,*,#517,.T.);
#660=ORIENTED_EDGE('',*,*,#500,.T.);
#661=ORIENTED_EDGE('',*,*,#513,.F.);
#662=ORIENTED_EDGE('',*,*,#518,.T.);
#663=ORIENTED_EDGE('',*,*,#519,.T.);
#664=ORIENTED_EDGE('',*,*,#501,.T.);
#665=ORIENTED_EDGE('',*,*,#517,.F.);
#666=ORIENTED_EDGE('',*,*,#520,.T.);
#667=ORIENTED_EDGE('',*,*,#519,.F.);
#668=ORIENTED_EDGE('',*,*,#521,.F.);
#669=ORIENTED_EDGE('',*,*,#522,.F.);
#670=ORIENTED_EDGE('',*,*,#502,.T.);
#671=ORIENTED_EDGE('',*,*,#523,.T.);
#672=ORIENTED_EDGE('',*,*,#524,.T.);
#673=ORIENTED_EDGE('',*,*,#503,.T.);
#674=ORIENTED_EDGE('',*,*,#522,.T.);
#675=ORIENTED_EDGE('',*,*,#525,.T.);
#676=ORIENTED_EDGE('',*,*,#526,.T.);
#677=ORIENTED_EDGE('',*,*,#527,.T.);
#678=ORIENTED_EDGE('',*,*,#504,.T.);
#679=ORIENTED_EDGE('',*,*,#524,.F.);
#680=ORIENTED_EDGE('',*,*,#528,.T.);
#681=ORIENTED_EDGE('',*,*,#529,.T.);
#682=ORIENTED_EDGE('',*,*,#505,.T.);
#683=ORIENTED_EDGE('',*,*,#527,.F.);
#684=ORIENTED_EDGE('',*,*,#530,.T.);
#685=ORIENTED_EDGE('',*,*,#529,.F.);
#686=ORIENTED_EDGE('',*,*,#531,.F.);
#687=ORIENTED_EDGE('',*,*,#532,.F.);
#688=ORIENTED_EDGE('',*,*,#506,.T.);
#689=ORIENTED_EDGE('',*,*,#533,.T.);
#690=ORIENTED_EDGE('',*,*,#534,.T.);
#691=ORIENTED_EDGE('',*,*,#507,.T.);
#692=ORIENTED_EDGE('',*,*,#532,.T.);
#693=ORIENTED_EDGE('',*,*,#535,.T.);
#694=ORIENTED_EDGE('',*,*,#536,.T.);
#695=ORIENTED_EDGE('',*,*,#537,.T.);
#696=ORIENTED_EDGE('',*,*,#508,.T.);
#697=ORIENTED_EDGE('',*,*,#534,.F.);
#698=ORIENTED_EDGE('',*,*,#538,.T.);
#699=ORIENTED_EDGE('',*,*,#539,.T.);
#700=ORIENTED_EDGE('',*,*,#509,.T.);
#701=ORIENTED_EDGE('',*,*,#537,.F.);
#702=ORIENTED_EDGE('',*,*,#540,.T.);
#703=ORIENTED_EDGE('',*,*,#539,.F.);
#704=ORIENTED_EDGE('',*,*,#541,.F.);
#705=ORIENTED_EDGE('',*,*,#514,.F.);
#706=ORIENTED_EDGE('',*,*,#510,.T.);
#707=ORIENTED_EDGE('',*,*,#531,.T.);
#708=ORIENTED_EDGE('',*,*,#528,.F.);
#709=ORIENTED_EDGE('',*,*,#542,.T.);
#710=ORIENTED_EDGE('',*,*,#525,.F.);
#711=ORIENTED_EDGE('',*,*,#521,.T.);
#712=ORIENTED_EDGE('',*,*,#518,.F.);
#713=ORIENTED_EDGE('',*,*,#543,.T.);
#714=ORIENTED_EDGE('',*,*,#515,.F.);
#715=ORIENTED_EDGE('',*,*,#541,.T.);
#716=ORIENTED_EDGE('',*,*,#538,.F.);
#717=ORIENTED_EDGE('',*,*,#544,.T.);
#718=ORIENTED_EDGE('',*,*,#535,.F.);
#719=ORIENTED_EDGE('',*,*,#461,.T.);
#720=ORIENTED_EDGE('',*,*,#462,.T.);
#721=ORIENTED_EDGE('',*,*,#482,.T.);
#722=ORIENTED_EDGE('',*,*,#483,.T.);
#723=ORIENTED_EDGE('',*,*,#466,.T.);
#724=ORIENTED_EDGE('',*,*,#467,.T.);
#725=ORIENTED_EDGE('',*,*,#484,.F.);
#726=ORIENTED_EDGE('',*,*,#488,.F.);
#727=ORIENTED_EDGE('',*,*,#471,.T.);
#728=ORIENTED_EDGE('',*,*,#472,.T.);
#729=ORIENTED_EDGE('',*,*,#489,.F.);
#730=ORIENTED_EDGE('',*,*,#493,.F.);
#731=ORIENTED_EDGE('',*,*,#476,.T.);
#732=ORIENTED_EDGE('',*,*,#477,.T.);
#733=ORIENTED_EDGE('',*,*,#494,.F.);
#734=ORIENTED_EDGE('',*,*,#498,.F.);
#735=ORIENTED_EDGE('',*,*,#520,.F.);
#736=ORIENTED_EDGE('',*,*,#516,.F.);
#737=ORIENTED_EDGE('',*,*,#512,.F.);
#738=ORIENTED_EDGE('',*,*,#543,.F.);
#739=ORIENTED_EDGE('',*,*,#491,.T.);
#740=ORIENTED_EDGE('',*,*,#492,.T.);
#741=ORIENTED_EDGE('',*,*,#545,.T.);
#742=ORIENTED_EDGE('',*,*,#546,.T.);
#743=ORIENTED_EDGE('',*,*,#547,.T.);
#744=ORIENTED_EDGE('',*,*,#548,.T.);
#745=ORIENTED_EDGE('',*,*,#530,.F.);
#746=ORIENTED_EDGE('',*,*,#526,.F.);
#747=ORIENTED_EDGE('',*,*,#523,.F.);
#748=ORIENTED_EDGE('',*,*,#542,.F.);
#749=ORIENTED_EDGE('',*,*,#486,.T.);
#750=ORIENTED_EDGE('',*,*,#487,.T.);
#751=ORIENTED_EDGE('',*,*,#549,.T.);
#752=ORIENTED_EDGE('',*,*,#550,.T.);
#753=ORIENTED_EDGE('',*,*,#551,.T.);
#754=ORIENTED_EDGE('',*,*,#552,.T.);
#755=ORIENTED_EDGE('',*,*,#540,.F.);
#756=ORIENTED_EDGE('',*,*,#536,.F.);
#757=ORIENTED_EDGE('',*,*,#533,.F.);
#758=ORIENTED_EDGE('',*,*,#544,.F.);
#759=ORIENTED_EDGE('',*,*,#496,.T.);
#760=ORIENTED_EDGE('',*,*,#497,.T.);
#761=ORIENTED_EDGE('',*,*,#553,.T.);
#762=ORIENTED_EDGE('',*,*,#554,.T.);
#763=ORIENTED_EDGE('',*,*,#555,.T.);
#764=ORIENTED_EDGE('',*,*,#556,.T.);
#765=ORIENTED_EDGE('',*,*,#557,.T.);
#766=ORIENTED_EDGE('',*,*,#558,.T.);
#767=ORIENTED_EDGE('',*,*,#546,.F.);
#768=ORIENTED_EDGE('',*,*,#559,.T.);
#769=ORIENTED_EDGE('',*,*,#560,.T.);
#770=ORIENTED_EDGE('',*,*,#559,.F.);
#771=ORIENTED_EDGE('',*,*,#545,.F.);
#772=ORIENTED_EDGE('',*,*,#561,.T.);
#773=ORIENTED_EDGE('',*,*,#548,.F.);
#774=ORIENTED_EDGE('',*,*,#562,.T.);
#775=ORIENTED_EDGE('',*,*,#563,.T.);
#776=ORIENTED_EDGE('',*,*,#561,.F.);
#777=ORIENTED_EDGE('',*,*,#564,.T.);
#778=ORIENTED_EDGE('',*,*,#562,.F.);
#779=ORIENTED_EDGE('',*,*,#547,.F.);
#780=ORIENTED_EDGE('',*,*,#558,.F.);
#781=ORIENTED_EDGE('',*,*,#565,.T.);
#782=ORIENTED_EDGE('',*,*,#566,.T.);
#783=ORIENTED_EDGE('',*,*,#550,.F.);
#784=ORIENTED_EDGE('',*,*,#567,.T.);
#785=ORIENTED_EDGE('',*,*,#568,.T.);
#786=ORIENTED_EDGE('',*,*,#567,.F.);
#787=ORIENTED_EDGE('',*,*,#549,.F.);
#788=ORIENTED_EDGE('',*,*,#569,.T.);
#789=ORIENTED_EDGE('',*,*,#552,.F.);
#790=ORIENTED_EDGE('',*,*,#570,.T.);
#791=ORIENTED_EDGE('',*,*,#571,.T.);
#792=ORIENTED_EDGE('',*,*,#569,.F.);
#793=ORIENTED_EDGE('',*,*,#572,.T.);
#794=ORIENTED_EDGE('',*,*,#570,.F.);
#795=ORIENTED_EDGE('',*,*,#551,.F.);
#796=ORIENTED_EDGE('',*,*,#566,.F.);
#797=ORIENTED_EDGE('',*,*,#573,.T.);
#798=ORIENTED_EDGE('',*,*,#574,.T.);
#799=ORIENTED_EDGE('',*,*,#554,.F.);
#800=ORIENTED_EDGE('',*,*,#575,.T.);
#801=ORIENTED_EDGE('',*,*,#576,.T.);
#802=ORIENTED_EDGE('',*,*,#575,.F.);
#803=ORIENTED_EDGE('',*,*,#553,.F.);
#804=ORIENTED_EDGE('',*,*,#577,.T.);
#805=ORIENTED_EDGE('',*,*,#556,.F.);
#806=ORIENTED_EDGE('',*,*,#578,.T.);
#807=ORIENTED_EDGE('',*,*,#579,.T.);
#808=ORIENTED_EDGE('',*,*,#577,.F.);
#809=ORIENTED_EDGE('',*,*,#580,.T.);
#810=ORIENTED_EDGE('',*,*,#578,.F.);
#811=ORIENTED_EDGE('',*,*,#555,.F.);
#812=ORIENTED_EDGE('',*,*,#574,.F.);
#813=ORIENTED_EDGE('',*,*,#563,.F.);
#814=ORIENTED_EDGE('',*,*,#564,.F.);
#815=ORIENTED_EDGE('',*,*,#557,.F.);
#816=ORIENTED_EDGE('',*,*,#560,.F.);
#817=ORIENTED_EDGE('',*,*,#571,.F.);
#818=ORIENTED_EDGE('',*,*,#572,.F.);
#819=ORIENTED_EDGE('',*,*,#565,.F.);
#820=ORIENTED_EDGE('',*,*,#568,.F.);
#821=ORIENTED_EDGE('',*,*,#579,.F.);
#822=ORIENTED_EDGE('',*,*,#580,.F.);
#823=ORIENTED_EDGE('',*,*,#573,.F.);
#824=ORIENTED_EDGE('',*,*,#576,.F.);
#825=CYLINDRICAL_SURFACE('',#900,17.5);
#826=CYLINDRICAL_SURFACE('',#905,5.);
#827=CYLINDRICAL_SURFACE('',#910,5.);
#828=CYLINDRICAL_SURFACE('',#915,5.);
#829=CYLINDRICAL_SURFACE('',#920,1.5);
#830=CYLINDRICAL_SURFACE('',#925,2.75);
#831=CYLINDRICAL_SURFACE('',#930,2.75);
#832=CYLINDRICAL_SURFACE('',#935,2.75);
#833=CYLINDRICAL_SURFACE('',#948,49.2820323027551);
#834=CYLINDRICAL_SURFACE('',#953,49.2820323027551);
#835=CYLINDRICAL_SURFACE('',#958,49.282032302755);
#836=ADVANCED_FACE('',(#69),#825,.F.);
#837=ADVANCED_FACE('',(#70),#826,.F.);
#838=ADVANCED_FACE('',(#71),#827,.F.);
#839=ADVANCED_FACE('',(#72),#828,.F.);
#840=ADVANCED_FACE('',(#73),#829,.F.);
#841=ADVANCED_FACE('',(#74),#830,.F.);
#842=ADVANCED_FACE('',(#75),#831,.F.);
#843=ADVANCED_FACE('',(#76),#832,.F.);
#844=ADVANCED_FACE('',(#77),#62,.F.);
#845=ADVANCED_FACE('',(#78,#15,#16,#17,#18),#30,.F.);
#846=ADVANCED_FACE('',(#79),#31,.T.);
#847=ADVANCED_FACE('',(#80),#32,.T.);
#848=ADVANCED_FACE('',(#81),#33,.T.);
#849=ADVANCED_FACE('',(#82),#833,.F.);
#850=ADVANCED_FACE('',(#83),#34,.T.);
#851=ADVANCED_FACE('',(#84),#35,.T.);
#852=ADVANCED_FACE('',(#85),#36,.T.);
#853=ADVANCED_FACE('',(#86),#834,.F.);
#854=ADVANCED_FACE('',(#87),#37,.T.);
#855=ADVANCED_FACE('',(#88),#38,.T.);
#856=ADVANCED_FACE('',(#89),#39,.T.);
#857=ADVANCED_FACE('',(#90),#835,.F.);
#858=ADVANCED_FACE('',(#91,#19,#20),#40,.T.);
#859=ADVANCED_FACE('',(#92,#21),#41,.F.);
#860=ADVANCED_FACE('',(#93,#22),#42,.F.);
#861=ADVANCED_FACE('',(#94,#23),#43,.F.);
#862=ADVANCED_FACE('',(#95,#24,#25),#44,.T.);
#863=ADVANCED_FACE('',(#96,#26,#27),#45,.T.);
#864=ADVANCED_FACE('',(#97,#28,#29),#46,.T.);
#865=ADVANCED_FACE('',(#98),#47,.T.);
#866=ADVANCED_FACE('',(#99),#48,.T.);
#867=ADVANCED_FACE('',(#100),#49,.T.);
#868=ADVANCED_FACE('',(#101),#50,.T.);
#869=ADVANCED_FACE('',(#102),#51,.T.);
#870=ADVANCED_FACE('',(#103),#52,.T.);
#871=ADVANCED_FACE('',(#104),#53,.T.);
#872=ADVANCED_FACE('',(#105),#54,.T.);
#873=ADVANCED_FACE('',(#106),#55,.T.);
#874=ADVANCED_FACE('',(#107),#56,.T.);
#875=ADVANCED_FACE('',(#108),#57,.T.);
#876=ADVANCED_FACE('',(#109),#58,.T.);
#877=ADVANCED_FACE('',(#110),#59,.T.);
#878=ADVANCED_FACE('',(#111),#60,.T.);
#879=ADVANCED_FACE('',(#112),#61,.T.);
#880=CLOSED_SHELL('',(#836,#837,#838,#839,#840,#841,#842,#843,#844,#845,
#846,#847,#848,#849,#850,#851,#852,#853,#854,#855,#856,#857,#858,#859,#860,
#861,#862,#863,#864,#865,#866,#867,#868,#869,#870,#871,#872,#873,#874,#875,
#876,#877,#878,#879));
#881=DERIVED_UNIT_ELEMENT(#883,1.);
#882=DERIVED_UNIT_ELEMENT(#1491,3.);
#883=(
MASS_UNIT()
NAMED_UNIT(*)
SI_UNIT($,.GRAM.)
);
#884=DERIVED_UNIT((#881,#882));
#885=MEASURE_REPRESENTATION_ITEM('density measure',
POSITIVE_RATIO_MEASURE(1.),#884);
#886=PROPERTY_DEFINITION_REPRESENTATION(#891,#888);
#887=PROPERTY_DEFINITION_REPRESENTATION(#892,#889);
#888=REPRESENTATION('material name',(#890),#1488);
#889=REPRESENTATION('density',(#885),#1488);
#890=DESCRIPTIVE_REPRESENTATION_ITEM('Generisch','Generisch');
#891=PROPERTY_DEFINITION('material property','material name',#1498);
#892=PROPERTY_DEFINITION('material property','density of part',#1498);
#893=DATE_TIME_ROLE('creation_date');
#894=APPLIED_DATE_AND_TIME_ASSIGNMENT(#895,#893,(#1498));
#895=DATE_AND_TIME(#896,#897);
#896=CALENDAR_DATE(2020,15,4);
#897=LOCAL_TIME(12,18,15.,#898);
#898=COORDINATED_UNIVERSAL_TIME_OFFSET(0,0,.BEHIND.);
#899=AXIS2_PLACEMENT_3D('placement',#1232,#982,#983);
#900=AXIS2_PLACEMENT_3D('',#1233,#984,#985);
#901=AXIS2_PLACEMENT_3D('',#1236,#986,#987);
#902=AXIS2_PLACEMENT_3D('',#1240,#989,#990);
#903=AXIS2_PLACEMENT_3D('',#1241,#991,#992);
#904=AXIS2_PLACEMENT_3D('',#1242,#993,#994);
#905=AXIS2_PLACEMENT_3D('',#1243,#995,#996);
#906=AXIS2_PLACEMENT_3D('',#1246,#997,#998);
#907=AXIS2_PLACEMENT_3D('',#1250,#1000,#1001);
#908=AXIS2_PLACEMENT_3D('',#1251,#1002,#1003);
#909=AXIS2_PLACEMENT_3D('',#1252,#1004,#1005);
#910=AXIS2_PLACEMENT_3D('',#1253,#1006,#1007);
#911=AXIS2_PLACEMENT_3D('',#1256,#1008,#1009);
#912=AXIS2_PLACEMENT_3D('',#1260,#1011,#1012);
#913=AXIS2_PLACEMENT_3D('',#1261,#1013,#1014);
#914=AXIS2_PLACEMENT_3D('',#1262,#1015,#1016);
#915=AXIS2_PLACEMENT_3D('',#1263,#1017,#1018);
#916=AXIS2_PLACEMENT_3D('',#1266,#1019,#1020);
#917=AXIS2_PLACEMENT_3D('',#1270,#1022,#1023);
#918=AXIS2_PLACEMENT_3D('',#1271,#1024,#1025);
#919=AXIS2_PLACEMENT_3D('',#1272,#1026,#1027);
#920=AXIS2_PLACEMENT_3D('',#1273,#1028,#1029);
#921=AXIS2_PLACEMENT_3D('',#1276,#1030,#1031);
#922=AXIS2_PLACEMENT_3D('',#1277,#1032,#1033);
#923=AXIS2_PLACEMENT_3D('',#1281,#1035,#1036);
#924=AXIS2_PLACEMENT_3D('',#1282,#1037,#1038);
#925=AXIS2_PLACEMENT_3D('',#1283,#1039,#1040);
#926=AXIS2_PLACEMENT_3D('',#1286,#1041,#1042);
#927=AXIS2_PLACEMENT_3D('',#1290,#1044,#1045);
#928=AXIS2_PLACEMENT_3D('',#1291,#1046,#1047);
#929=AXIS2_PLACEMENT_3D('',#1292,#1048,#1049);
#930=AXIS2_PLACEMENT_3D('',#1293,#1050,#1051);
#931=AXIS2_PLACEMENT_3D('',#1296,#1052,#1053);
#932=AXIS2_PLACEMENT_3D('',#1300,#1055,#1056);
#933=AXIS2_PLACEMENT_3D('',#1301,#1057,#1058);
#934=AXIS2_PLACEMENT_3D('',#1302,#1059,#1060);
#935=AXIS2_PLACEMENT_3D('',#1303,#1061,#1062);
#936=AXIS2_PLACEMENT_3D('',#1306,#1063,#1064);
#937=AXIS2_PLACEMENT_3D('',#1310,#1066,#1067);
#938=AXIS2_PLACEMENT_3D('',#1311,#1068,#1069);
#939=AXIS2_PLACEMENT_3D('',#1312,#1070,#1071);
#940=AXIS2_PLACEMENT_3D('',#1313,#1072,#1073);
#941=AXIS2_PLACEMENT_3D('',#1316,#1075,#1076);
#942=AXIS2_PLACEMENT_3D('',#1323,#1079,#1080);
#943=AXIS2_PLACEMENT_3D('',#1331,#1084,#1085);
#944=AXIS2_PLACEMENT_3D('',#1339,#1089,#1090);
#945=AXIS2_PLACEMENT_3D('',#1341,#1092,#1093);
#946=AXIS2_PLACEMENT_3D('',#1349,#1098,#1099);
#947=AXIS2_PLACEMENT_3D('',#1353,#1102,#1103);
#948=AXIS2_PLACEMENT_3D('',#1359,#1107,#1108);
#949=AXIS2_PLACEMENT_3D('',#1361,#1109,#1110);
#950=AXIS2_PLACEMENT_3D('',#1363,#1112,#1113);
#951=AXIS2_PLACEMENT_3D('',#1369,#1117,#1118);
#952=AXIS2_PLACEMENT_3D('',#1373,#1121,#1122);
#953=AXIS2_PLACEMENT_3D('',#1379,#1126,#1127);
#954=AXIS2_PLACEMENT_3D('',#1381,#1128,#1129);
#955=AXIS2_PLACEMENT_3D('',#1383,#1131,#1132);
#956=AXIS2_PLACEMENT_3D('',#1389,#1136,#1137);
#957=AXIS2_PLACEMENT_3D('',#1393,#1140,#1141);
#958=AXIS2_PLACEMENT_3D('',#1399,#1145,#1146);
#959=AXIS2_PLACEMENT_3D('',#1400,#1147,#1148);
#960=AXIS2_PLACEMENT_3D('',#1401,#1149,#1150);
#961=AXIS2_PLACEMENT_3D('',#1405,#1154,#1155);
#962=AXIS2_PLACEMENT_3D('',#1406,#1156,#1157);
#963=AXIS2_PLACEMENT_3D('',#1407,#1158,#1159);
#964=AXIS2_PLACEMENT_3D('',#1408,#1160,#1161);
#965=AXIS2_PLACEMENT_3D('',#1417,#1166,#1167);
#966=AXIS2_PLACEMENT_3D('',#1426,#1172,#1173);
#967=AXIS2_PLACEMENT_3D('',#1435,#1178,#1179);
#968=AXIS2_PLACEMENT_3D('',#1441,#1183,#1184);
#969=AXIS2_PLACEMENT_3D('',#1445,#1187,#1188);
#970=AXIS2_PLACEMENT_3D('',#1449,#1191,#1192);
#971=AXIS2_PLACEMENT_3D('',#1451,#1194,#1195);
#972=AXIS2_PLACEMENT_3D('',#1457,#1199,#1200);
#973=AXIS2_PLACEMENT_3D('',#1461,#1203,#1204);
#974=AXIS2_PLACEMENT_3D('',#1465,#1207,#1208);
#975=AXIS2_PLACEMENT_3D('',#1467,#1210,#1211);
#976=AXIS2_PLACEMENT_3D('',#1473,#1215,#1216);
#977=AXIS2_PLACEMENT_3D('',#1477,#1219,#1220);
#978=AXIS2_PLACEMENT_3D('',#1481,#1223,#1224);
#979=AXIS2_PLACEMENT_3D('',#1483,#1226,#1227);
#980=AXIS2_PLACEMENT_3D('',#1484,#1228,#1229);
#981=AXIS2_PLACEMENT_3D('',#1485,#1230,#1231);
#982=DIRECTION('axis',(0.,0.,1.));
#983=DIRECTION('refdir',(1.,0.,0.));
#984=DIRECTION('center_axis',(0.,0.,1.));
#985=DIRECTION('ref_axis',(1.,0.,0.));
#986=DIRECTION('center_axis',(0.,0.,-1.));
#987=DIRECTION('ref_axis',(1.,0.,0.));
#988=DIRECTION('',(0.,0.,1.));
#989=DIRECTION('center_axis',(0.,0.,-1.));
#990=DIRECTION('ref_axis',(1.,0.,0.));
#991=DIRECTION('center_axis',(0.,0.,-1.));
#992=DIRECTION('ref_axis',(1.,0.,0.));
#993=DIRECTION('center_axis',(0.,0.,-1.));
#994=DIRECTION('ref_axis',(1.,0.,0.));
#995=DIRECTION('center_axis',(0.,0.707106781186548,0.707106781186548));
#996=DIRECTION('ref_axis',(0.,-0.707106781186548,0.707106781186548));
#997=DIRECTION('center_axis',(0.,0.,-1.));
#998=DIRECTION('ref_axis',(2.45326946669341E-16,1.,0.));
#999=DIRECTION('',(0.,0.707106781186548,0.707106781186548));
#1000=DIRECTION('center_axis',(0.,-0.707106781186548,-0.707106781186548));
#1001=DIRECTION('ref_axis',(0.,-0.707106781186548,0.707106781186548));
#1002=DIRECTION('center_axis',(0.,-0.707106781186548,-0.707106781186548));
#1003=DIRECTION('ref_axis',(0.,-0.707106781186548,0.707106781186548));
#1004=DIRECTION('center_axis',(0.,0.,-1.));
#1005=DIRECTION('ref_axis',(2.45326946669341E-16,1.,0.));
#1006=DIRECTION('center_axis',(-0.612372435695795,-0.353553390593274,0.707106781186548));
#1007=DIRECTION('ref_axis',(0.755928946018454,8.32667268468867E-17,0.654653670707977));
#1008=DIRECTION('center_axis',(0.,0.,-1.));
#1009=DIRECTION('ref_axis',(0.866025403784442,0.499999999999995,0.));
#1010=DIRECTION('',(-0.612372435695795,-0.353553390593274,0.707106781186548));
#1011=DIRECTION('center_axis',(0.612372435695795,0.353553390593274,-0.707106781186548));
#1012=DIRECTION('ref_axis',(0.755928946018454,1.94289029309402E-16,0.654653670707977));
#1013=DIRECTION('center_axis',(0.612372435695795,0.353553390593274,-0.707106781186548));
#1014=DIRECTION('ref_axis',(0.755928946018454,1.94289029309402E-16,0.654653670707977));
#1015=DIRECTION('center_axis',(0.,0.,-1.));
#1016=DIRECTION('ref_axis',(0.866025403784442,0.499999999999995,0.));
#1017=DIRECTION('center_axis',(0.612372435695794,-0.353553390593274,0.707106781186548));
#1018=DIRECTION('ref_axis',(0.755928946018455,1.11022302462516E-16,-0.654653670707977));
#1019=DIRECTION('center_axis',(-2.05573358285649E-16,-8.30814836211045E-16,
-1.));
#1020=DIRECTION('ref_axis',(0.866025403784437,-0.500000000000003,2.37375667488873E-16));
#1021=DIRECTION('',(0.612372435695794,-0.353553390593274,0.707106781186548));
#1022=DIRECTION('center_axis',(-0.612372435695794,0.353553390593274,-0.707106781186548));
#1023=DIRECTION('ref_axis',(0.755928946018455,5.55111512312578E-17,-0.654653670707977));
#1024=DIRECTION('center_axis',(-0.612372435695794,0.353553390593274,-0.707106781186548));
#1025=DIRECTION('ref_axis',(0.755928946018455,5.55111512312578E-17,-0.654653670707977));
#1026=DIRECTION('center_axis',(-2.05573358285649E-16,-8.30814836211045E-16,
-1.));
#1027=DIRECTION('ref_axis',(0.866025403784437,-0.500000000000003,2.37375667488873E-16));
#1028=DIRECTION('center_axis',(0.,0.,1.));
#1029=DIRECTION('ref_axis',(1.,0.,0.));
#1030=DIRECTION('center_axis',(0.,0.,1.));
#1031=DIRECTION('ref_axis',(1.,0.,0.));
#1032=DIRECTION('center_axis',(0.,0.,1.));
#1033=DIRECTION('ref_axis',(1.,0.,0.));
#1034=DIRECTION('',(0.,0.,1.));
#1035=DIRECTION('center_axis',(0.,0.,-1.));
#1036=DIRECTION('ref_axis',(1.,0.,0.));
#1037=DIRECTION('center_axis',(0.,0.,-1.));
#1038=DIRECTION('ref_axis',(1.,0.,0.));
#1039=DIRECTION('center_axis',(0.,0.707106781186548,0.707106781186548));
#1040=DIRECTION('ref_axis',(0.,-0.707106781186548,0.707106781186548));
#1041=DIRECTION('center_axis',(0.,-0.707106781186548,-0.707106781186548));
#1042=DIRECTION('ref_axis',(0.,-0.707106781186548,0.707106781186548));
#1043=DIRECTION('',(0.,0.707106781186548,0.707106781186548));
#1044=DIRECTION('center_axis',(0.,-0.707106781186548,-0.707106781186548));
#1045=DIRECTION('ref_axis',(0.,-0.707106781186548,0.707106781186548));
#1046=DIRECTION('center_axis',(0.,-0.707106781186548,-0.707106781186548));
#1047=DIRECTION('ref_axis',(0.,-0.707106781186548,0.707106781186548));
#1048=DIRECTION('center_axis',(0.,-0.707106781186548,-0.707106781186548));
#1049=DIRECTION('ref_axis',(0.,-0.707106781186548,0.707106781186548));
#1050=DIRECTION('center_axis',(-0.612372435695795,-0.353553390593274,0.707106781186548));
#1051=DIRECTION('ref_axis',(0.755928946018454,9.43689570931383E-16,0.654653670707978));
#1052=DIRECTION('center_axis',(0.612372435695795,0.353553390593274,-0.707106781186548));
#1053=DIRECTION('ref_axis',(0.755928946018454,-2.22044604925031E-16,0.654653670707977));
#1054=DIRECTION('',(-0.612372435695794,-0.353553390593274,0.707106781186547));
#1055=DIRECTION('center_axis',(0.612372435695795,0.353553390593274,-0.707106781186548));
#1056=DIRECTION('ref_axis',(0.755928946018455,1.11022302462516E-16,0.654653670707977));
#1057=DIRECTION('center_axis',(0.612372435695795,0.353553390593274,-0.707106781186548));
#1058=DIRECTION('ref_axis',(0.755928946018455,1.11022302462516E-16,0.654653670707977));
#1059=DIRECTION('center_axis',(0.612372435695795,0.353553390593274,-0.707106781186548));
#1060=DIRECTION('ref_axis',(0.755928946018454,-2.22044604925031E-16,0.654653670707977));
#1061=DIRECTION('center_axis',(0.612372435695794,-0.353553390593274,0.707106781186548));
#1062=DIRECTION('ref_axis',(0.755928946018455,-1.19348975147204E-15,-0.654653670707977));
#1063=DIRECTION('center_axis',(-0.612372435695794,0.353553390593274,-0.707106781186548));
#1064=DIRECTION('ref_axis',(0.755928946018455,-1.13797860024079E-15,-0.654653670707977));
#1065=DIRECTION('',(0.612372435695794,-0.353553390593274,0.707106781186548));
#1066=DIRECTION('center_axis',(-0.612372435695794,0.353553390593274,-0.707106781186548));
#1067=DIRECTION('ref_axis',(0.755928946018455,-2.77555756156289E-17,-0.654653670707977));
#1068=DIRECTION('center_axis',(-0.612372435695794,0.353553390593274,-0.707106781186548));
#1069=DIRECTION('ref_axis',(0.755928946018455,-2.77555756156289E-17,-0.654653670707977));
#1070=DIRECTION('center_axis',(-0.612372435695794,0.353553390593274,-0.707106781186548));
#1071=DIRECTION('ref_axis',(0.755928946018455,-1.13797860024079E-15,-0.654653670707977));
#1072=DIRECTION('center_axis',(0.,0.,1.));
#1073=DIRECTION('ref_axis',(1.,0.,0.));
#1074=DIRECTION('',(-0.857167300697362,-1.0497271911328E-16,0.515038074917959));
#1075=DIRECTION('center_axis',(0.,0.,1.));
#1076=DIRECTION('ref_axis',(1.,0.,0.));
#1077=DIRECTION('',(0.500000000000002,-0.866025403784437,0.));
#1078=DIRECTION('',(-0.866025403784439,-0.499999999999999,0.));
#1079=DIRECTION('center_axis',(0.,0.,-1.));
#1080=DIRECTION('ref_axis',(1.,0.,0.));
#1081=DIRECTION('',(0.,-1.,0.));
#1082=DIRECTION('',(-1.,0.,0.));
#1083=DIRECTION('',(0.,1.,0.));
#1084=DIRECTION('center_axis',(0.,0.,-1.));
#1085=DIRECTION('ref_axis',(1.,-8.44798022282776E-16,0.));
#1086=DIRECTION('',(-0.866025403784438,0.500000000000001,0.));
#1087=DIRECTION('',(0.5,0.866025403784438,0.));
#1088=DIRECTION('',(0.866025403784438,-0.500000000000001,0.));
#1089=DIRECTION('center_axis',(0.,0.,-1.));
#1090=DIRECTION('ref_axis',(1.,3.66079142989203E-15,0.));
#1091=DIRECTION('',(0.866025403784438,0.500000000000001,0.));
#1092=DIRECTION('center_axis',(0.5,-0.866025403784439,0.));
#1093=DIRECTION('ref_axis',(0.866025403784439,0.5,0.));
#1094=DIRECTION('',(-0.612372435695794,-0.353553390593273,-0.707106781186548));
#1095=DIRECTION('',(0.,0.,-1.));
#1096=DIRECTION('',(0.,0.,1.));
#1097=DIRECTION('',(-0.866025403784439,-0.5,0.));
#1098=DIRECTION('center_axis',(-0.866025403784438,-0.500000000000001,0.));
#1099=DIRECTION('ref_axis',(0.500000000000001,-0.866025403784438,0.));
#1100=DIRECTION('',(-0.500000000000001,0.866025403784438,0.));
#1101=DIRECTION('',(0.,0.,-1.));
#1102=DIRECTION('center_axis',(-0.5,0.866025403784439,0.));
#1103=DIRECTION('ref_axis',(-0.866025403784439,-0.5,0.));
#1104=DIRECTION('',(0.866025403784439,0.5,0.));
#1105=DIRECTION('',(0.,0.,-1.));
#1106=DIRECTION('',(0.612372435695795,0.353553390593274,0.707106781186547));
#1107=DIRECTION('center_axis',(0.,0.,1.));
#1108=DIRECTION('ref_axis',(1.,0.,0.));
#1109=DIRECTION('center_axis',(0.,0.,-1.));
#1110=DIRECTION('ref_axis',(1.,0.,0.));
#1111=DIRECTION('',(0.,0.,1.));
#1112=DIRECTION('center_axis',(-1.,0.,0.));
#1113=DIRECTION('ref_axis',(0.,0.,1.));
#1114=DIRECTION('',(0.,0.707106781186547,-0.707106781186547));
#1115=DIRECTION('',(0.,0.,-1.));
#1116=DIRECTION('',(0.,1.,0.));
#1117=DIRECTION('center_axis',(0.,1.,0.));
#1118=DIRECTION('ref_axis',(0.,0.,1.));
#1119=DIRECTION('',(1.,0.,0.));
#1120=DIRECTION('',(0.,0.,-1.));
#1121=DIRECTION('center_axis',(1.,0.,0.));
#1122=DIRECTION('ref_axis',(0.,0.,-1.));
#1123=DIRECTION('',(0.,-1.,0.));
#1124=DIRECTION('',(0.,0.,-1.));
#1125=DIRECTION('',(0.,-0.707106781186547,0.707106781186547));
#1126=DIRECTION('center_axis',(0.,0.,1.));
#1127=DIRECTION('ref_axis',(1.,0.,0.));
#1128=DIRECTION('center_axis',(0.,0.,-1.));
#1129=DIRECTION('ref_axis',(1.,0.,0.));
#1130=DIRECTION('',(0.,0.,1.));
#1131=DIRECTION('center_axis',(0.5,0.866025403784439,0.));
#1132=DIRECTION('ref_axis',(-0.866025403784439,0.5,0.));
#1133=DIRECTION('',(0.612372435695795,-0.353553390593274,-0.707106781186547));
#1134=DIRECTION('',(0.,0.,-1.));
#1135=DIRECTION('',(0.866025403784439,-0.5,0.));
#1136=DIRECTION('center_axis',(0.866025403784439,-0.499999999999999,0.));
#1137=DIRECTION('ref_axis',(0.499999999999999,0.866025403784439,0.));
#1138=DIRECTION('',(-0.499999999999999,-0.866025403784439,0.));
#1139=DIRECTION('',(0.,0.,-1.));
#1140=DIRECTION('center_axis',(-0.5,-0.866025403784439,0.));
#1141=DIRECTION('ref_axis',(0.866025403784439,-0.5,0.));
#1142=DIRECTION('',(-0.866025403784439,0.5,0.));
#1143=DIRECTION('',(0.,0.,-1.));
#1144=DIRECTION('',(-0.612372435695794,0.353553390593273,0.707106781186548));
#1145=DIRECTION('center_axis',(0.,0.,1.));
#1146=DIRECTION('ref_axis',(1.,0.,0.));
#1147=DIRECTION('center_axis',(0.,0.,-1.));
#1148=DIRECTION('ref_axis',(1.,-8.44798022282777E-16,0.));
#1149=DIRECTION('center_axis',(0.,0.,1.));
#1150=DIRECTION('ref_axis',(1.,0.,0.));
#1151=DIRECTION('',(-1.,0.,0.));
#1152=DIRECTION('',(0.500000000000001,-0.866025403784438,0.));
#1153=DIRECTION('',(0.499999999999998,0.86602540378444,0.));
#1154=DIRECTION('center_axis',(0.,0.707106781186548,0.707106781186548));
#1155=DIRECTION('ref_axis',(0.,-0.707106781186548,0.707106781186548));
#1156=DIRECTION('center_axis',(-0.612372435695795,-0.353553390593274,0.707106781186547));
#1157=DIRECTION('ref_axis',(0.755928946018454,0.,0.654653670707977));
#1158=DIRECTION('center_axis',(0.612372435695794,-0.353553390593274,0.707106781186548));
#1159=DIRECTION('ref_axis',(0.755928946018455,0.,-0.654653670707977));
#1160=DIRECTION('center_axis',(-0.612372435695794,-0.353553390593275,0.707106781186548));
#1161=DIRECTION('ref_axis',(0.755928946018455,-2.77555756156289E-17,0.654653670707977));
#1162=DIRECTION('',(-0.612372435695796,-0.35355339059327,-0.707106781186548));
#1163=DIRECTION('',(-0.500000000000003,0.866025403784437,0.));
#1164=DIRECTION('',(0.612372435695793,0.353553390593277,0.707106781186547));
#1165=DIRECTION('',(0.499999999999998,-0.86602540378444,-2.72113486427731E-15));
#1166=DIRECTION('center_axis',(0.,0.707106781186548,0.707106781186548));
#1167=DIRECTION('ref_axis',(0.,-0.707106781186548,0.707106781186548));
#1168=DIRECTION('',(0.,0.707106781186547,-0.707106781186547));
#1169=DIRECTION('',(1.,0.,0.));
#1170=DIRECTION('',(0.,-0.707106781186547,0.707106781186547));
#1171=DIRECTION('',(-1.,0.,0.));
#1172=DIRECTION('center_axis',(0.612372435695795,-0.353553390593273,0.707106781186548));
#1173=DIRECTION('ref_axis',(0.755928946018454,0.,-0.654653670707977));
#1174=DIRECTION('',(0.612372435695793,-0.353553390593277,-0.707106781186547));
#1175=DIRECTION('',(-0.500000000000001,-0.866025403784438,1.36056743213868E-15));
#1176=DIRECTION('',(-0.612372435695794,0.353553390593276,0.707106781186547));
#1177=DIRECTION('',(0.500000000000003,0.866025403784437,-2.72113486427736E-15));
#1178=DIRECTION('center_axis',(-0.612372435695794,-0.353553390593272,-0.707106781186549));
#1179=DIRECTION('ref_axis',(-0.755928946018455,0.,0.654653670707976));
#1180=DIRECTION('',(-0.5,0.866025403784438,2.72113486427737E-15));
#1181=DIRECTION('',(0.612372435695785,0.353553390593292,-0.707106781186547));
#1182=DIRECTION('',(-0.612372435695787,-0.35355339059329,0.707106781186546));
#1183=DIRECTION('center_axis',(0.499999999999998,-0.86602540378444,0.));
#1184=DIRECTION('ref_axis',(0.86602540378444,0.499999999999998,0.));
#1185=DIRECTION('',(-0.612372435695794,-0.353553390593271,-0.70710678118655));
#1186=DIRECTION('',(-0.612372435695791,-0.353553390593271,0.707106781186552));
#1187=DIRECTION('center_axis',(0.612372435695795,0.353553390593273,0.707106781186547));
#1188=DIRECTION('ref_axis',(0.755928946018454,0.,-0.654653670707978));
#1189=DIRECTION('',(-0.612372435695783,-0.35355339059329,0.707106781186549));
#1190=DIRECTION('',(0.500000000000001,-0.866025403784438,-2.72113486427736E-15));
#1191=DIRECTION('center_axis',(-0.499999999999998,0.86602540378444,0.));
#1192=DIRECTION('ref_axis',(-0.86602540378444,-0.499999999999998,0.));
#1193=DIRECTION('',(0.612372435695793,0.353553390593271,0.70710678118655));
#1194=DIRECTION('center_axis',(1.16573417585641E-15,0.707106781186546,-0.707106781186549));
#1195=DIRECTION('ref_axis',(0.,0.707106781186549,0.707106781186546));
#1196=DIRECTION('',(1.,-8.24298540808977E-16,8.24298540808981E-16));
#1197=DIRECTION('',(0.,-0.707106781186549,-0.707106781186546));
#1198=DIRECTION('',(0.,0.707106781186549,0.707106781186546));
#1199=DIRECTION('center_axis',(-1.,1.66533453693773E-15,0.));
#1200=DIRECTION('ref_axis',(-1.66533453693773E-15,-1.,0.));
#1201=DIRECTION('',(1.19262238973406E-15,0.707106781186543,-0.707106781186552));
#1202=DIRECTION('',(1.0842021724855E-15,0.707106781186549,0.707106781186546));
#1203=DIRECTION('center_axis',(-1.22124532708767E-15,-0.707106781186548,
0.707106781186547));
#1204=DIRECTION('ref_axis',(0.,-0.707106781186547,-0.707106781186548));
#1205=DIRECTION('',(0.,0.707106781186547,0.707106781186548));
#1206=DIRECTION('',(-1.,8.63550852276075E-16,-8.63550852276074E-16));
#1207=DIRECTION('center_axis',(1.,-1.66533453693773E-15,0.));
#1208=DIRECTION('ref_axis',(1.66533453693773E-15,1.,0.));
#1209=DIRECTION('',(-1.19262238973406E-15,-0.707106781186543,0.707106781186552));
#1210=DIRECTION('center_axis',(0.612372435695793,-0.353553390593274,-0.707106781186549));
#1211=DIRECTION('ref_axis',(-0.755928946018456,0.,-0.654653670707976));
#1212=DIRECTION('',(-0.500000000000003,-0.866025403784437,-2.72113486427736E-15));
#1213=DIRECTION('',(-0.612372435695809,0.353553390593254,-0.707106781186545));
#1214=DIRECTION('',(0.612372435695805,-0.353553390593255,0.707106781186548));
#1215=DIRECTION('center_axis',(0.500000000000001,0.866025403784438,0.));
#1216=DIRECTION('ref_axis',(-0.866025403784438,0.500000000000001,0.));
#1217=DIRECTION('',(0.612372435695792,-0.353553390593273,-0.70710678118655));
#1218=DIRECTION('',(0.612372435695789,-0.353553390593272,0.707106781186553));
#1219=DIRECTION('center_axis',(-0.612372435695794,0.353553390593275,0.707106781186547));
#1220=DIRECTION('ref_axis',(0.755928946018455,2.77555756156289E-17,0.654653670707977));
#1221=DIRECTION('',(0.612372435695785,-0.353553390593291,0.707106781186547));
#1222=DIRECTION('',(0.499999999999999,0.866025403784439,-4.08170229641597E-15));
#1223=DIRECTION('center_axis',(-0.500000000000001,-0.866025403784438,0.));
#1224=DIRECTION('ref_axis',(0.866025403784438,-0.500000000000001,0.));
#1225=DIRECTION('',(-0.61237243569579,0.353553390593272,0.707106781186552));
#1226=DIRECTION('center_axis',(-0.612372435695795,-0.353553390593273,0.707106781186548));
#1227=DIRECTION('ref_axis',(0.755928946018454,-2.77555756156289E-17,0.654653670707977));
#1228=DIRECTION('center_axis',(1.22124532708767E-15,0.707106781186548,0.707106781186547));
#1229=DIRECTION('ref_axis',(0.,-0.707106781186547,0.707106781186548));
#1230=DIRECTION('center_axis',(0.612372435695794,-0.353553390593275,0.707106781186547));
#1231=DIRECTION('ref_axis',(0.755928946018455,2.77555756156289E-17,-0.654653670707977));
#1232=CARTESIAN_POINT('',(0.,0.,0.));
#1233=CARTESIAN_POINT('Origin',(0.,0.,0.));
#1234=CARTESIAN_POINT('',(17.5,0.,15.));
#1235=CARTESIAN_POINT('',(-17.5,-2.14313189850787E-15,15.));
#1236=CARTESIAN_POINT('Origin',(0.,0.,15.));
#1237=CARTESIAN_POINT('',(-17.5,-2.14313189850787E-15,50.));
#1238=CARTESIAN_POINT('',(-17.5,-2.14313189850787E-15,0.));
#1239=CARTESIAN_POINT('',(17.5,0.,50.));
#1240=CARTESIAN_POINT('Origin',(0.,0.,50.));
#1241=CARTESIAN_POINT('Origin',(0.,0.,50.));
#1242=CARTESIAN_POINT('Origin',(0.,0.,15.));
#1243=CARTESIAN_POINT('Origin',(0.,46.6701443402665,7.88334777586296));
#1244=CARTESIAN_POINT('',(0.,46.7157287525381,15.));
#1245=CARTESIAN_POINT('',(-6.12323399573678E-16,60.857864376269,15.));
#1246=CARTESIAN_POINT('Origin',(1.27675647831893E-14,53.7867965644036,15.));
#1247=CARTESIAN_POINT('',(-6.12323399573677E-16,65.3377633635914,19.4798989873223));
#1248=CARTESIAN_POINT('',(-6.12323399573677E-16,50.2056782461992,4.34781386993022));
#1249=CARTESIAN_POINT('',(0.,58.2666955517259,26.5509667991878));
#1250=CARTESIAN_POINT('Origin',(0.,61.8022294576586,23.0154328932551));
#1251=CARTESIAN_POINT('Origin',(0.,61.8022294576586,23.0154328932551));
#1252=CARTESIAN_POINT('Origin',(1.27675647831893E-14,53.7867965644036,15.));
#1253=CARTESIAN_POINT('Origin',(-40.4175305969574,-23.3350721701333,7.88334777586296));
#1254=CARTESIAN_POINT('',(-39.9663539352976,-25.2567641054319,15.));
#1255=CARTESIAN_POINT('',(-53.1951104906206,-28.5300324589718,15.));
#1256=CARTESIAN_POINT('Origin',(-46.5807322129591,-26.8933982822019,15.));
#1257=CARTESIAN_POINT('',(-57.3019454509397,-30.9011147288294,19.7421645397152));
#1258=CARTESIAN_POINT('',(-44.1971753270497,-23.3350721701333,4.61007942232307));
#1259=CARTESIAN_POINT('',(-49.7426559907551,-30.9011147288294,26.288701246795));
#1260=CARTESIAN_POINT('Origin',(-53.5223007208474,-30.9011147288294,23.0154328932551));
#1261=CARTESIAN_POINT('Origin',(-53.5223007208474,-30.9011147288294,23.0154328932551));
#1262=CARTESIAN_POINT('Origin',(-46.5807322129591,-26.8933982822019,15.));
#1263=CARTESIAN_POINT('Origin',(40.4175305969573,-23.3350721701333,7.88334777586296));
#1264=CARTESIAN_POINT('',(53.1951104906205,-28.5300324589718,15.));
#1265=CARTESIAN_POINT('',(39.9663539352975,-25.2567641054319,15.));
#1266=CARTESIAN_POINT('Origin',(46.580732212959,-26.8933982822018,15.));
#1267=CARTESIAN_POINT('',(49.7426559907551,-30.9011147288294,26.288701246795));
#1268=CARTESIAN_POINT('',(36.637885866865,-23.3350721701333,11.1566161294028));
#1269=CARTESIAN_POINT('',(57.3019454509396,-30.9011147288294,19.7421645397153));
#1270=CARTESIAN_POINT('Origin',(53.5223007208473,-30.9011147288294,23.0154328932551));
#1271=CARTESIAN_POINT('Origin',(53.5223007208473,-30.9011147288294,23.0154328932551));
#1272=CARTESIAN_POINT('Origin',(46.580732212959,-26.8933982822018,15.));
#1273=CARTESIAN_POINT('Origin',(0.,38.,48.5));
#1274=CARTESIAN_POINT('',(1.49999999992215,38.,47.));
#1275=CARTESIAN_POINT('',(-1.5,38.,47.));
#1276=CARTESIAN_POINT('Origin',(0.,38.,47.));
#1277=CARTESIAN_POINT('Origin',(0.,38.,47.));
#1278=CARTESIAN_POINT('',(-1.5,38.,50.));
#1279=CARTESIAN_POINT('',(-1.5,38.,48.5));
#1280=CARTESIAN_POINT('',(1.5,38.,50.));
#1281=CARTESIAN_POINT('Origin',(0.,38.,50.));
#1282=CARTESIAN_POINT('Origin',(0.,38.,50.));
#1283=CARTESIAN_POINT('Origin',(0.,177.486568408368,138.699771843964));
#1284=CARTESIAN_POINT('',(0.,59.8576858093958,24.9599765415178));
#1285=CARTESIAN_POINT('',(-3.36777869765522E-16,63.7467731059218,21.0708892449918));
#1286=CARTESIAN_POINT('Origin',(0.,61.8022294576588,23.0154328932548));
#1287=CARTESIAN_POINT('',(-3.36777869765522E-16,68.837941930465,26.162058069535));
#1288=CARTESIAN_POINT('',(-3.36777869765522E-16,179.431112056631,136.755228195701));
#1289=CARTESIAN_POINT('',(0.,64.948854633939,30.051145366061));
#1290=CARTESIAN_POINT('Origin',(0.,66.893398282202,28.106601717798));
#1291=CARTESIAN_POINT('Origin',(0.,66.893398282202,28.106601717798));
#1292=CARTESIAN_POINT('Origin',(0.,61.8022294576588,23.0154328932548));
#1293=CARTESIAN_POINT('Origin',(-153.707877072171,-88.7432842041838,138.699771843964));
#1294=CARTESIAN_POINT('',(-51.4434961192967,-30.9011147288293,24.815730487702));
#1295=CARTESIAN_POINT('',(-55.6011053223981,-30.9011147288293,21.215135298808));
#1296=CARTESIAN_POINT('Origin',(-53.5223007208474,-30.9011147288293,23.015432893255));
#1297=CARTESIAN_POINT('',(-60.0101868594078,-33.4466991411009,26.3063041233512));
#1298=CARTESIAN_POINT('',(-155.786681673722,-88.7432842041838,136.899474249517));
#1299=CARTESIAN_POINT('',(-55.8525776563064,-33.4466991411009,29.9068993122451));
#1300=CARTESIAN_POINT('Origin',(-57.9313822578571,-33.4466991411009,28.1066017177982));
#1301=CARTESIAN_POINT('Origin',(-57.9313822578571,-33.4466991411009,28.1066017177982));
#1302=CARTESIAN_POINT('Origin',(-53.5223007208474,-30.9011147288293,23.015432893255));
#1303=CARTESIAN_POINT('Origin',(153.707877072171,-88.7432842041839,138.699771843964));
#1304=CARTESIAN_POINT('',(55.6011053223981,-30.9011147288293,21.2151352988079));
#1305=CARTESIAN_POINT('',(51.4434961192966,-30.9011147288293,24.8157304877017));
#1306=CARTESIAN_POINT('Origin',(53.5223007208474,-30.9011147288293,23.0154328932549));
#1307=CARTESIAN_POINT('',(55.8525776563064,-33.4466991411009,29.9068993122449));
#1308=CARTESIAN_POINT('',(151.62907247062,-88.7432842041839,140.500069438411));
#1309=CARTESIAN_POINT('',(60.0101868594079,-33.4466991411009,26.3063041233511));
#1310=CARTESIAN_POINT('Origin',(57.9313822578572,-33.4466991411009,28.106601717798));
#1311=CARTESIAN_POINT('Origin',(57.9313822578572,-33.4466991411009,28.106601717798));
#1312=CARTESIAN_POINT('Origin',(53.5223007208474,-30.9011147288293,23.0154328932549));
#1313=CARTESIAN_POINT('Origin',(0.,38.,47.0000000000255));
#1314=CARTESIAN_POINT('',(0.,38.,46.0987090714866));
#1315=CARTESIAN_POINT('',(-1.49999999996453,38.,47.0000000000255));
#1316=CARTESIAN_POINT('Origin',(1.05730835456509E-15,0.,15.));
#1317=CARTESIAN_POINT('',(-74.9519052838329,-20.1794919243113,15.));
#1318=CARTESIAN_POINT('',(-54.9519052838328,-54.8205080756888,15.));
#1319=CARTESIAN_POINT('',(-74.9519052838329,-20.1794919243113,15.));
#1320=CARTESIAN_POINT('',(-44.6410161513776,-2.67949192431137,15.));
#1321=CARTESIAN_POINT('',(-44.6410161513775,-2.67949192431134,15.));
#1322=CARTESIAN_POINT('',(-20.,39.9999999999999,15.));
#1323=CARTESIAN_POINT('Origin',(-69.2820323027551,39.9999999999999,15.));
#1324=CARTESIAN_POINT('',(-20.,75.,15.));
#1325=CARTESIAN_POINT('',(-20.,0.,15.));
#1326=CARTESIAN_POINT('',(20.,75.,15.));
#1327=CARTESIAN_POINT('',(1.05730835456509E-15,75.,15.));
#1328=CARTESIAN_POINT('',(20.,40.0000000000001,15.));
#1329=CARTESIAN_POINT('',(20.,0.,15.));
#1330=CARTESIAN_POINT('',(44.6410161513775,-2.67949192431113,15.));
#1331=CARTESIAN_POINT('Origin',(69.2820323027551,40.0000000000001,15.));
#1332=CARTESIAN_POINT('',(74.9519052838329,-20.1794919243112,15.));
#1333=CARTESIAN_POINT('',(74.9519052838329,-20.1794919243112,15.));
#1334=CARTESIAN_POINT('',(54.9519052838329,-54.8205080756887,15.));
#1335=CARTESIAN_POINT('',(54.9519052838329,-54.8205080756887,15.));
#1336=CARTESIAN_POINT('',(24.6410161513776,-37.3205080756887,15.));
#1337=CARTESIAN_POINT('',(24.6410161513776,-37.3205080756887,15.));
#1338=CARTESIAN_POINT('',(-24.6410161513774,-37.3205080756888,15.));
#1339=CARTESIAN_POINT('Origin',(1.45994449738462E-13,-79.9999999999999,
15.));
#1340=CARTESIAN_POINT('',(-54.9519052838328,-54.8205080756888,15.));
#1341=CARTESIAN_POINT('Origin',(-54.9519052838328,-54.8205080756888,0.));
#1342=CARTESIAN_POINT('',(-28.9711431702997,-39.8205080756888,50.));
#1343=CARTESIAN_POINT('',(-54.9519052838328,-54.8205080756888,20.));
#1344=CARTESIAN_POINT('',(-28.9711431702997,-39.8205080756888,50.));
#1345=CARTESIAN_POINT('',(-54.9519052838328,-54.8205080756888,0.));
#1346=CARTESIAN_POINT('',(-24.6410161513774,-37.3205080756888,50.));
#1347=CARTESIAN_POINT('',(-24.6410161513775,-37.3205080756888,0.));
#1348=CARTESIAN_POINT('',(-54.9519052838328,-54.8205080756888,50.));
#1349=CARTESIAN_POINT('Origin',(-74.9519052838329,-20.1794919243114,0.));
#1350=CARTESIAN_POINT('',(-74.9519052838329,-20.1794919243113,20.));
#1351=CARTESIAN_POINT('',(-74.9519052838329,-20.1794919243114,20.));
#1352=CARTESIAN_POINT('',(-74.9519052838329,-20.1794919243113,0.));
#1353=CARTESIAN_POINT('Origin',(-44.6410161513775,-2.67949192431134,0.));
#1354=CARTESIAN_POINT('',(-48.9711431702997,-5.17949192431135,50.));
#1355=CARTESIAN_POINT('',(-44.6410161513775,-2.67949192431136,50.));
#1356=CARTESIAN_POINT('',(-44.6410161513775,-2.67949192431134,50.));
#1357=CARTESIAN_POINT('',(-44.6410161513775,-2.67949192431134,0.));
#1358=CARTESIAN_POINT('',(-74.9519052838329,-20.1794919243114,20.));
#1359=CARTESIAN_POINT('Origin',(-69.2820323027551,39.9999999999999,0.));
#1360=CARTESIAN_POINT('',(-20.,39.9999999999999,50.));
#1361=CARTESIAN_POINT('Origin',(-69.2820323027551,39.9999999999999,50.));
#1362=CARTESIAN_POINT('',(-20.,39.9999999999999,0.));
#1363=CARTESIAN_POINT('Origin',(-20.,75.,0.));
#1364=CARTESIAN_POINT('',(-20.,45.,50.));
#1365=CARTESIAN_POINT('',(-20.,75.,20.));
#1366=CARTESIAN_POINT('',(-20.,45.,50.));
#1367=CARTESIAN_POINT('',(-20.,75.,0.));
#1368=CARTESIAN_POINT('',(-20.,75.,50.));
#1369=CARTESIAN_POINT('Origin',(20.,75.,0.));
#1370=CARTESIAN_POINT('',(20.,75.,20.));
#1371=CARTESIAN_POINT('',(20.,75.,20.));
#1372=CARTESIAN_POINT('',(20.,75.,0.));
#1373=CARTESIAN_POINT('Origin',(20.,40.,0.));
#1374=CARTESIAN_POINT('',(20.,45.,50.));
#1375=CARTESIAN_POINT('',(20.,40.0000000000001,50.));
#1376=CARTESIAN_POINT('',(20.,40.,50.));
#1377=CARTESIAN_POINT('',(20.,40.,0.));
#1378=CARTESIAN_POINT('',(20.,75.,20.));
#1379=CARTESIAN_POINT('Origin',(69.2820323027551,40.0000000000001,0.));
#1380=CARTESIAN_POINT('',(44.6410161513776,-2.67949192431118,50.));
#1381=CARTESIAN_POINT('Origin',(69.2820323027551,40.0000000000001,50.));
#1382=CARTESIAN_POINT('',(44.6410161513776,-2.67949192431115,0.));
#1383=CARTESIAN_POINT('Origin',(74.9519052838329,-20.1794919243112,0.));
#1384=CARTESIAN_POINT('',(48.9711431702997,-5.17949192431118,50.));
#1385=CARTESIAN_POINT('',(74.9519052838329,-20.1794919243112,20.));
#1386=CARTESIAN_POINT('',(48.9711431702997,-5.17949192431118,50.));
#1387=CARTESIAN_POINT('',(74.9519052838329,-20.1794919243112,0.));
#1388=CARTESIAN_POINT('',(74.9519052838329,-20.1794919243112,50.));
#1389=CARTESIAN_POINT('Origin',(54.9519052838329,-54.8205080756887,0.));
#1390=CARTESIAN_POINT('',(54.9519052838329,-54.8205080756887,20.));
#1391=CARTESIAN_POINT('',(54.9519052838329,-54.8205080756887,20.));
#1392=CARTESIAN_POINT('',(54.9519052838329,-54.8205080756887,0.));
#1393=CARTESIAN_POINT('Origin',(24.6410161513776,-37.3205080756887,0.));
#1394=CARTESIAN_POINT('',(28.9711431702998,-39.8205080756887,50.));
#1395=CARTESIAN_POINT('',(24.6410161513776,-37.3205080756887,50.));
#1396=CARTESIAN_POINT('',(24.6410161513776,-37.3205080756887,50.));
#1397=CARTESIAN_POINT('',(24.6410161513776,-37.3205080756887,0.));
#1398=CARTESIAN_POINT('',(54.9519052838329,-54.8205080756887,20.));
#1399=CARTESIAN_POINT('Origin',(1.45994449738462E-13,-79.9999999999999,
0.));
#1400=CARTESIAN_POINT('Origin',(1.45994449738462E-13,-79.9999999999999,
50.));
#1401=CARTESIAN_POINT('Origin',(2.53840318175927E-14,-1.01536127270371E-14,
50.));
#1402=CARTESIAN_POINT('',(2.53840318175927E-14,45.,50.));
#1403=CARTESIAN_POINT('',(-48.9711431702997,-5.17949192431134,50.));
#1404=CARTESIAN_POINT('',(28.9711431702998,-39.8205080756887,50.));
#1405=CARTESIAN_POINT('Origin',(0.,61.8022294576586,23.0154328932551));
#1406=CARTESIAN_POINT('Origin',(-53.5223007208474,-30.9011147288293,23.0154328932551));
#1407=CARTESIAN_POINT('Origin',(53.5223007208474,-30.9011147288294,23.0154328932551));
#1408=CARTESIAN_POINT('Origin',(-56.9615242270663,-21.3397459621557,35.));
#1409=CARTESIAN_POINT('',(-43.8198675272577,-28.2438986855831,42.9289321881345));
#1410=CARTESIAN_POINT('',(-51.1683367556072,-32.4865393727023,34.443650813896));
#1411=CARTESIAN_POINT('',(-43.8198675272577,-28.2438986855831,42.9289321881345));
#1412=CARTESIAN_POINT('',(-53.7183367556072,-28.0698098134017,34.443650813896));
#1413=CARTESIAN_POINT('',(-51.1683367556072,-32.4865393727023,34.443650813896));
#1414=CARTESIAN_POINT('',(-46.3698675272577,-23.8271691262824,42.9289321881345));
#1415=CARTESIAN_POINT('',(-53.7183367556072,-28.0698098134017,34.443650813896));
#1416=CARTESIAN_POINT('',(-46.3698675272577,-23.8271691262824,42.9289321881345));
#1417=CARTESIAN_POINT('Origin',(10.,60.,35.));
#1418=CARTESIAN_POINT('',(-2.55000000000003,52.0710678118655,42.9289321881345));
#1419=CARTESIAN_POINT('',(-2.55000000000003,60.556349186104,34.443650813896));
#1420=CARTESIAN_POINT('',(-2.55000000000004,60.,35.));
#1421=CARTESIAN_POINT('',(2.54999999999998,60.556349186104,34.443650813896));
#1422=CARTESIAN_POINT('',(10.,60.556349186104,34.443650813896));
#1423=CARTESIAN_POINT('',(2.54999999999997,52.0710678118655,42.9289321881345));
#1424=CARTESIAN_POINT('',(2.54999999999997,60.,35.));
#1425=CARTESIAN_POINT('',(10.,52.0710678118655,42.9289321881345));
#1426=CARTESIAN_POINT('Origin',(46.9615242270663,-38.6602540378443,35.));
#1427=CARTESIAN_POINT('',(46.3698675272577,-23.8271691262824,42.9289321881345));
#1428=CARTESIAN_POINT('',(53.7183367556072,-28.0698098134017,34.443650813896));
#1429=CARTESIAN_POINT('',(46.3698675272577,-23.8271691262824,42.9289321881345));
#1430=CARTESIAN_POINT('',(51.1683367556072,-32.4865393727023,34.443650813896));
#1431=CARTESIAN_POINT('',(53.7183367556072,-28.0698098134017,34.4436508138959));
#1432=CARTESIAN_POINT('',(43.8198675272577,-28.243898685583,42.9289321881345));
#1433=CARTESIAN_POINT('',(51.1683367556072,-32.4865393727023,34.443650813896));
#1434=CARTESIAN_POINT('',(43.8198675272577,-28.243898685583,42.9289321881345));
#1435=CARTESIAN_POINT('Origin',(-53.6680816269988,-30.9852813742386,35.857864376269));
#1436=CARTESIAN_POINT('',(-52.3930816269988,-33.1936461538889,35.857864376269));
#1437=CARTESIAN_POINT('',(-54.9430816269988,-28.7769165945883,35.857864376269));
#1438=CARTESIAN_POINT('',(-52.3930816269988,-33.1936461538889,35.857864376269));
#1439=CARTESIAN_POINT('',(-54.9430816269988,-28.7769165945883,35.857864376269));
#1440=CARTESIAN_POINT('',(-51.1683367556073,-32.4865393727023,34.4436508138959));
#1441=CARTESIAN_POINT('Origin',(-48.1064745771282,-30.718772419736,39.3933982822018));
#1442=CARTESIAN_POINT('',(-45.0446123986493,-28.9510054667696,44.3431457505076));
#1443=CARTESIAN_POINT('',(-45.0446123986493,-28.9510054667697,44.3431457505076));
#1444=CARTESIAN_POINT('',(-43.8198675272577,-28.2438986855831,42.9289321881345));
#1445=CARTESIAN_POINT('Origin',(-45.0948675272577,-26.0355339059327,42.9289321881345));
#1446=CARTESIAN_POINT('',(-47.5946123986493,-24.534275907469,44.3431457505076));
#1447=CARTESIAN_POINT('',(-46.3698675272577,-23.8271691262824,42.9289321881345));
#1448=CARTESIAN_POINT('',(-47.5946123986493,-24.534275907469,44.3431457505076));
#1449=CARTESIAN_POINT('Origin',(-50.6564745771282,-26.3020428604353,39.3933982822018));
#1450=CARTESIAN_POINT('',(-54.9430816269988,-28.7769165945883,35.857864376269));
#1451=CARTESIAN_POINT('Origin',(-3.10862446895044E-14,61.9705627484771,
35.857864376269));
#1452=CARTESIAN_POINT('',(-2.55000000000003,61.9705627484771,35.857864376269));
#1453=CARTESIAN_POINT('',(2.54999999999998,61.9705627484771,35.857864376269));
#1454=CARTESIAN_POINT('',(-3.10862446895044E-14,61.9705627484771,35.857864376269));
#1455=CARTESIAN_POINT('',(2.54999999999997,61.9705627484771,35.857864376269));
#1456=CARTESIAN_POINT('',(-2.55000000000003,61.9705627484771,35.857864376269));
#1457=CARTESIAN_POINT('Origin',(-2.55000000000003,57.0208152801713,39.3933982822018));
#1458=CARTESIAN_POINT('',(-2.55000000000003,53.4852813742386,44.3431457505076));
#1459=CARTESIAN_POINT('',(-2.55000000000004,53.4852813742386,44.3431457505076));
#1460=CARTESIAN_POINT('',(-2.55000000000004,52.0710678118655,42.9289321881345));
#1461=CARTESIAN_POINT('Origin',(-3.10862446895044E-14,52.0710678118655,
42.9289321881345));
#1462=CARTESIAN_POINT('',(2.54999999999998,53.4852813742386,44.3431457505076));
#1463=CARTESIAN_POINT('',(2.54999999999997,52.0710678118655,42.9289321881345));
#1464=CARTESIAN_POINT('',(-3.10862446895044E-14,53.4852813742386,44.3431457505076));
#1465=CARTESIAN_POINT('Origin',(2.54999999999998,57.0208152801713,39.3933982822018));
#1466=CARTESIAN_POINT('',(2.54999999999999,61.9705627484771,35.857864376269));
#1467=CARTESIAN_POINT('Origin',(53.6680816269988,-30.9852813742385,35.857864376269));
#1468=CARTESIAN_POINT('',(54.9430816269988,-28.7769165945882,35.857864376269));
#1469=CARTESIAN_POINT('',(52.3930816269988,-33.1936461538888,35.857864376269));
#1470=CARTESIAN_POINT('',(54.9430816269988,-28.7769165945882,35.857864376269));
#1471=CARTESIAN_POINT('',(52.3930816269988,-33.1936461538888,35.857864376269));
#1472=CARTESIAN_POINT('',(53.7183367556072,-28.0698098134017,34.443650813896));
#1473=CARTESIAN_POINT('Origin',(50.6564745771283,-26.3020428604353,39.3933982822018));
#1474=CARTESIAN_POINT('',(47.5946123986493,-24.5342759074689,44.3431457505076));
#1475=CARTESIAN_POINT('',(47.5946123986493,-24.5342759074689,44.3431457505076));
#1476=CARTESIAN_POINT('',(46.3698675272577,-23.8271691262824,42.9289321881345));
#1477=CARTESIAN_POINT('Origin',(45.0948675272577,-26.0355339059327,42.9289321881345));
#1478=CARTESIAN_POINT('',(45.0446123986493,-28.9510054667696,44.3431457505076));
#1479=CARTESIAN_POINT('',(43.8198675272577,-28.243898685583,42.9289321881345));
#1480=CARTESIAN_POINT('',(45.0446123986493,-28.9510054667696,44.3431457505076));
#1481=CARTESIAN_POINT('Origin',(48.1064745771283,-30.7187724197359,39.3933982822018));
#1482=CARTESIAN_POINT('',(52.3930816269988,-33.1936461538888,35.857864376269));
#1483=CARTESIAN_POINT('Origin',(-46.3196123986493,-26.7426406871193,44.3431457505076));
#1484=CARTESIAN_POINT('Origin',(-2.66453525910038E-14,53.4852813742386,
44.3431457505076));
#1485=CARTESIAN_POINT('Origin',(46.3196123986493,-26.7426406871192,44.3431457505076));
#1486=UNCERTAINTY_MEASURE_WITH_UNIT(LENGTH_MEASURE(0.01),#1490,
'DISTANCE_ACCURACY_VALUE',
'Maximum model space distance between geometric entities at asserted c
onnectivities');
#1487=UNCERTAINTY_MEASURE_WITH_UNIT(LENGTH_MEASURE(0.01),#1490,
'DISTANCE_ACCURACY_VALUE',
'Maximum model space distance between geometric entities at asserted c
onnectivities');
#1488=(
GEOMETRIC_REPRESENTATION_CONTEXT(3)
GLOBAL_UNCERTAINTY_ASSIGNED_CONTEXT((#1486))
GLOBAL_UNIT_ASSIGNED_CONTEXT((#1490,#1492,#1493))
REPRESENTATION_CONTEXT('','3D')
);
#1489=(
GEOMETRIC_REPRESENTATION_CONTEXT(3)
GLOBAL_UNCERTAINTY_ASSIGNED_CONTEXT((#1487))
GLOBAL_UNIT_ASSIGNED_CONTEXT((#1490,#1492,#1493))
REPRESENTATION_CONTEXT('','3D')
);
#1490=(
LENGTH_UNIT()
NAMED_UNIT(*)
SI_UNIT(.MILLI.,.METRE.)
);
#1491=(
LENGTH_UNIT()
NAMED_UNIT(*)
SI_UNIT(.CENTI.,.METRE.)
);
#1492=(
NAMED_UNIT(*)
PLANE_ANGLE_UNIT()
SI_UNIT($,.RADIAN.)
);
#1493=(
NAMED_UNIT(*)
SI_UNIT($,.STERADIAN.)
SOLID_ANGLE_UNIT()
);
#1494=SHAPE_DEFINITION_REPRESENTATION(#1495,#1496);
#1495=PRODUCT_DEFINITION_SHAPE('',$,#1498);
#1496=SHAPE_REPRESENTATION('',(#899),#1488);
#1497=PRODUCT_DEFINITION_CONTEXT('part definition',#1502,'design');
#1498=PRODUCT_DEFINITION('ETY-DR-0011_Default_sldprt',
'ETY-DR-0011_Default_sldprt',#1499,#1497);
#1499=PRODUCT_DEFINITION_FORMATION('ANY',$,#1504);
#1500=PRODUCT_RELATED_PRODUCT_CATEGORY('ETY-DR-0011_Default_sldprt',
'ETY-DR-0011_Default_sldprt',(#1504));
#1501=APPLICATION_PROTOCOL_DEFINITION('international standard',
'automotive_design',2009,#1502);
#1502=APPLICATION_CONTEXT(
'Core Data for Automotive Mechanical Design Process');
#1503=PRODUCT_CONTEXT('part definition',#1502,'mechanical');
#1504=PRODUCT('ETY-DR-0011_Default_sldprt','ETY-DR-0011_Default_sldprt',
'STEP AP203',(#1503));
#1505=PRESENTATION_STYLE_ASSIGNMENT((#1506));
#1506=SURFACE_STYLE_USAGE(.BOTH.,#1509);
#1507=SURFACE_STYLE_RENDERING_WITH_PROPERTIES($,#1513,(#1508));
#1508=SURFACE_STYLE_TRANSPARENT(0.);
#1509=SURFACE_SIDE_STYLE('',(#1510,#1507));
#1510=SURFACE_STYLE_FILL_AREA(#1511);
#1511=FILL_AREA_STYLE('',(#1512));
#1512=FILL_AREA_STYLE_COLOUR('',#1513);
#1513=COLOUR_RGB('',0.749019607843137,0.749019607843137,0.749019607843137);
ENDSEC;
END-ISO-10303-21;
