ISO-10303-21;
HEADER;
/* Generated by software containing ST-Developer
 * from STEP Tools, Inc. (www.steptools.com) 
 */

FILE_DESCRIPTION(
/* description */ ('STEP AP203'),
/* implementation_level */ '2;1');

FILE_NAME(
/* name */ 
'C:\\Users\\Serafin Kollegger\\Documents\\MCI\\Studium\\MA\\MA-Thesis\\
RoboZelle\\Delta Roboter Model\\Model4\\\\ETY-DR-0012_Default_sldprt_i
pt_992dbc3c.STEP',
/* time_stamp */ '2021-04-19T13:14:21+02:00',
/* author */ (''),
/* organization */ (''),
/* preprocessor_version */ 'ST-DEVELOPER v18',
/* originating_system */ 'Autodesk Inventor 2020',
/* authorisation */ '');

FILE_SCHEMA (('AUTOMOTIVE_DESIGN { 1 0 10303 214 3 1 1 }'));
ENDSEC;

DATA;
#10=MECHANICAL_DESIGN_GEOMETRIC_PRESENTATION_REPRESENTATION('',(#13),#1003);
#11=SHAPE_REPRESENTATION_RELATIONSHIP('SRR','None',#1010,#12);
#12=ADVANCED_BREP_SHAPE_REPRESENTATION('',(#14),#1002);
#13=STYLED_ITEM('',(#1019),#14);
#14=MANIFOLD_SOLID_BREP('Volumenk\X\F6rper1',#551);
#15=FACE_BOUND('',#90,.T.);
#16=PLANE('',#610);
#17=PLANE('',#611);
#18=PLANE('',#612);
#19=PLANE('',#614);
#20=PLANE('',#615);
#21=PLANE('',#616);
#22=PLANE('',#618);
#23=PLANE('',#621);
#24=PLANE('',#622);
#25=PLANE('',#624);
#26=PLANE('',#629);
#27=PLANE('',#631);
#28=PLANE('',#633);
#29=PLANE('',#637);
#30=B_SPLINE_CURVE_WITH_KNOTS('',3,(#832,#833,#834,#835),.UNSPECIFIED.,
 .F.,.F.,(4,4),(2.08425898751112E-14,0.000171405813324387),
 .UNSPECIFIED.);
#31=B_SPLINE_CURVE_WITH_KNOTS('',3,(#838,#839,#840,#841),.UNSPECIFIED.,
 .F.,.F.,(4,4),(1.85883541282097E-14,0.000171405813304486),
 .UNSPECIFIED.);
#32=B_SPLINE_CURVE_WITH_KNOTS('',3,(#924,#925,#926,#927),.UNSPECIFIED.,
 .F.,.F.,(4,4),(2.78321108950581E-14,0.000520283933868078),
 .UNSPECIFIED.);
#33=B_SPLINE_CURVE_WITH_KNOTS('',3,(#932,#933,#934,#935),.UNSPECIFIED.,
 .F.,.F.,(4,4),(3.44345330034542E-15,0.0005202839339509),.UNSPECIFIED.);
#34=B_SPLINE_CURVE_WITH_KNOTS('',3,(#945,#946,#947,#948),.UNSPECIFIED.,
 .F.,.F.,(4,4),(6.69465278570488E-15,0.000171405813442166),
 .UNSPECIFIED.);
#35=B_SPLINE_CURVE_WITH_KNOTS('',3,(#952,#953,#954,#955),.UNSPECIFIED.,
 .F.,.F.,(4,4),(2.86040102039623E-14,0.000171405813416726),
 .UNSPECIFIED.);
#36=B_SPLINE_CURVE_WITH_KNOTS('',3,(#969,#970,#971,#972),.UNSPECIFIED.,
 .F.,.F.,(4,4),(3.72056015274197E-14,0.000520283933910253),
 .UNSPECIFIED.);
#37=B_SPLINE_CURVE_WITH_KNOTS('',3,(#976,#977,#978,#979),.UNSPECIFIED.,
 .F.,.F.,(4,4),(7.22653923949172E-16,0.000520283933839518),
 .UNSPECIFIED.);
#38=CONICAL_SURFACE('',#579,5.79999999990833,0.785398163397448);
#39=CONICAL_SURFACE('',#582,2.958499999977,0.785398163397448);
#40=CONICAL_SURFACE('',#606,2.45850000021619,1.02974425867765);
#41=CONICAL_SURFACE('',#607,3.99999999990541,0.785398163369027);
#42=CONICAL_SURFACE('',#617,5.79999999990832,0.785398163397466);
#43=CONICAL_SURFACE('',#634,5.79999999996517,0.785398163302709);
#44=CONICAL_SURFACE('',#635,5.79999999990832,0.785398163397448);
#45=FACE_OUTER_BOUND('',#75,.T.);
#46=FACE_OUTER_BOUND('',#76,.T.);
#47=FACE_OUTER_BOUND('',#77,.T.);
#48=FACE_OUTER_BOUND('',#78,.T.);
#49=FACE_OUTER_BOUND('',#79,.T.);
#50=FACE_OUTER_BOUND('',#80,.T.);
#51=FACE_OUTER_BOUND('',#81,.T.);
#52=FACE_OUTER_BOUND('',#82,.T.);
#53=FACE_OUTER_BOUND('',#83,.T.);
#54=FACE_OUTER_BOUND('',#84,.T.);
#55=FACE_OUTER_BOUND('',#85,.T.);
#56=FACE_OUTER_BOUND('',#86,.T.);
#57=FACE_OUTER_BOUND('',#87,.T.);
#58=FACE_OUTER_BOUND('',#88,.T.);
#59=FACE_OUTER_BOUND('',#89,.T.);
#60=FACE_OUTER_BOUND('',#91,.T.);
#61=FACE_OUTER_BOUND('',#92,.T.);
#62=FACE_OUTER_BOUND('',#93,.T.);
#63=FACE_OUTER_BOUND('',#94,.T.);
#64=FACE_OUTER_BOUND('',#95,.T.);
#65=FACE_OUTER_BOUND('',#96,.T.);
#66=FACE_OUTER_BOUND('',#97,.T.);
#67=FACE_OUTER_BOUND('',#98,.T.);
#68=FACE_OUTER_BOUND('',#99,.T.);
#69=FACE_OUTER_BOUND('',#100,.T.);
#70=FACE_OUTER_BOUND('',#101,.T.);
#71=FACE_OUTER_BOUND('',#102,.T.);
#72=FACE_OUTER_BOUND('',#103,.T.);
#73=FACE_OUTER_BOUND('',#104,.T.);
#74=FACE_OUTER_BOUND('',#105,.T.);
#75=EDGE_LOOP('',(#350,#351,#352,#353,#354,#355,#356,#357,#358));
#76=EDGE_LOOP('',(#359,#360,#361,#362));
#77=EDGE_LOOP('',(#363,#364,#365,#366,#367,#368,#369));
#78=EDGE_LOOP('',(#370,#371,#372,#373));
#79=EDGE_LOOP('',(#374,#375,#376,#377));
#80=EDGE_LOOP('',(#378,#379,#380,#381,#382,#383,#384));
#81=EDGE_LOOP('',(#385,#386,#387,#388));
#82=EDGE_LOOP('',(#389,#390,#391,#392,#393,#394,#395));
#83=EDGE_LOOP('',(#396,#397,#398,#399));
#84=EDGE_LOOP('',(#400,#401,#402,#403,#404,#405));
#85=EDGE_LOOP('',(#406,#407,#408,#409,#410));
#86=EDGE_LOOP('',(#411,#412));
#87=EDGE_LOOP('',(#413,#414,#415,#416));
#88=EDGE_LOOP('',(#417,#418));
#89=EDGE_LOOP('',(#419,#420));
#90=EDGE_LOOP('',(#421,#422));
#91=EDGE_LOOP('',(#423,#424,#425,#426,#427,#428,#429,#430,#431,#432,#433,
#434,#435,#436,#437,#438,#439,#440,#441));
#92=EDGE_LOOP('',(#442,#443,#444,#445));
#93=EDGE_LOOP('',(#446,#447,#448,#449,#450,#451,#452,#453,#454,#455,#456,
#457,#458,#459,#460,#461,#462,#463,#464));
#94=EDGE_LOOP('',(#465,#466,#467,#468));
#95=EDGE_LOOP('',(#469,#470,#471,#472));
#96=EDGE_LOOP('',(#473,#474,#475,#476));
#97=EDGE_LOOP('',(#477,#478,#479,#480,#481));
#98=EDGE_LOOP('',(#482,#483,#484,#485));
#99=EDGE_LOOP('',(#486,#487,#488,#489));
#100=EDGE_LOOP('',(#490,#491,#492,#493));
#101=EDGE_LOOP('',(#494,#495,#496,#497));
#102=EDGE_LOOP('',(#498,#499,#500,#501));
#103=EDGE_LOOP('',(#502,#503,#504,#505));
#104=EDGE_LOOP('',(#506,#507,#508,#509));
#105=EDGE_LOOP('',(#510,#511));
#106=LINE('',#816,#142);
#107=LINE('',#850,#143);
#108=LINE('',#859,#144);
#109=LINE('',#862,#145);
#110=LINE('',#868,#146);
#111=LINE('',#871,#147);
#112=LINE('',#877,#148);
#113=LINE('',#883,#149);
#114=LINE('',#886,#150);
#115=LINE('',#894,#151);
#116=LINE('',#901,#152);
#117=LINE('',#904,#153);
#118=LINE('',#909,#154);
#119=LINE('',#910,#155);
#120=LINE('',#912,#156);
#121=LINE('',#915,#157);
#122=LINE('',#918,#158);
#123=LINE('',#920,#159);
#124=LINE('',#928,#160);
#125=LINE('',#930,#161);
#126=LINE('',#937,#162);
#127=LINE('',#939,#163);
#128=LINE('',#941,#164);
#129=LINE('',#943,#165);
#130=LINE('',#944,#166);
#131=LINE('',#949,#167);
#132=LINE('',#950,#168);
#133=LINE('',#957,#169);
#134=LINE('',#959,#170);
#135=LINE('',#961,#171);
#136=LINE('',#963,#172);
#137=LINE('',#965,#173);
#138=LINE('',#967,#174);
#139=LINE('',#973,#175);
#140=LINE('',#975,#176);
#141=LINE('',#980,#177);
#142=VECTOR('',#644,4.99999999999999);
#143=VECTOR('',#671,2.958499999977);
#144=VECTOR('',#680,1000.);
#145=VECTOR('',#683,1000.);
#146=VECTOR('',#688,1000.);
#147=VECTOR('',#691,1000.);
#148=VECTOR('',#698,2.4585);
#149=VECTOR('',#703,1000.);
#150=VECTOR('',#706,1000.);
#151=VECTOR('',#713,4.);
#152=VECTOR('',#722,2.45850000021619);
#153=VECTOR('',#725,3.99999999990541);
#154=VECTOR('',#732,1000.);
#155=VECTOR('',#733,1000.);
#156=VECTOR('',#736,1000.);
#157=VECTOR('',#739,1000.);
#158=VECTOR('',#742,1000.);
#159=VECTOR('',#745,1000.);
#160=VECTOR('',#750,1000.);
#161=VECTOR('',#751,1000.);
#162=VECTOR('',#752,1000.);
#163=VECTOR('',#753,1000.);
#164=VECTOR('',#754,1000.);
#165=VECTOR('',#755,1000.);
#166=VECTOR('',#756,1000.);
#167=VECTOR('',#757,1000.);
#168=VECTOR('',#758,1000.);
#169=VECTOR('',#763,1000.);
#170=VECTOR('',#764,1000.);
#171=VECTOR('',#765,1000.);
#172=VECTOR('',#766,1000.);
#173=VECTOR('',#767,1000.);
#174=VECTOR('',#768,1000.);
#175=VECTOR('',#769,1000.);
#176=VECTOR('',#770,1000.);
#177=VECTOR('',#771,1000.);
#178=CIRCLE('',#572,4.99999999999999);
#179=CIRCLE('',#573,4.99999999999999);
#180=CIRCLE('',#574,4.99999999999999);
#181=CIRCLE('',#575,4.99999999999999);
#182=CIRCLE('',#576,4.99999999999999);
#183=CIRCLE('',#577,4.99999999999999);
#184=CIRCLE('',#578,4.99999999999999);
#185=CIRCLE('',#580,5.70000000004712);
#186=CIRCLE('',#581,5.79999999996517);
#187=CIRCLE('',#583,2.45849999998882);
#188=CIRCLE('',#584,2.45849999998882);
#189=CIRCLE('',#585,2.45849999998882);
#190=CIRCLE('',#586,2.958499999977);
#191=CIRCLE('',#587,2.958499999977);
#192=CIRCLE('',#589,5.8);
#193=CIRCLE('',#590,5.8);
#194=CIRCLE('',#592,5.8);
#195=CIRCLE('',#593,5.79999999996516);
#196=CIRCLE('',#595,2.4585);
#197=CIRCLE('',#596,2.4585);
#198=CIRCLE('',#598,4.5);
#199=CIRCLE('',#599,4.5);
#200=CIRCLE('',#601,4.);
#201=CIRCLE('',#602,4.);
#202=CIRCLE('',#603,4.);
#203=CIRCLE('',#604,4.);
#204=CIRCLE('',#605,4.);
#205=CIRCLE('',#608,2.99999999992906);
#206=CIRCLE('',#609,2.99999999992906);
#207=CIRCLE('',#613,5.69999999993342);
#208=CIRCLE('',#620,5.8);
#209=CIRCLE('',#623,5.50000000004047);
#210=CIRCLE('',#625,5.49999999992679);
#211=CIRCLE('',#627,5.8);
#212=CIRCLE('',#628,5.8);
#213=CIRCLE('',#630,4.5);
#214=CIRCLE('',#632,4.5);
#215=VERTEX_POINT('',#812);
#216=VERTEX_POINT('',#813);
#217=VERTEX_POINT('',#815);
#218=VERTEX_POINT('',#817);
#219=VERTEX_POINT('',#819);
#220=VERTEX_POINT('',#821);
#221=VERTEX_POINT('',#823);
#222=VERTEX_POINT('',#828);
#223=VERTEX_POINT('',#829);
#224=VERTEX_POINT('',#831);
#225=VERTEX_POINT('',#836);
#226=VERTEX_POINT('',#843);
#227=VERTEX_POINT('',#844);
#228=VERTEX_POINT('',#846);
#229=VERTEX_POINT('',#849);
#230=VERTEX_POINT('',#851);
#231=VERTEX_POINT('',#855);
#232=VERTEX_POINT('',#856);
#233=VERTEX_POINT('',#858);
#234=VERTEX_POINT('',#860);
#235=VERTEX_POINT('',#864);
#236=VERTEX_POINT('',#865);
#237=VERTEX_POINT('',#867);
#238=VERTEX_POINT('',#869);
#239=VERTEX_POINT('',#873);
#240=VERTEX_POINT('',#874);
#241=VERTEX_POINT('',#879);
#242=VERTEX_POINT('',#880);
#243=VERTEX_POINT('',#882);
#244=VERTEX_POINT('',#884);
#245=VERTEX_POINT('',#888);
#246=VERTEX_POINT('',#889);
#247=VERTEX_POINT('',#891);
#248=VERTEX_POINT('',#893);
#249=VERTEX_POINT('',#895);
#250=VERTEX_POINT('',#900);
#251=VERTEX_POINT('',#903);
#252=VERTEX_POINT('',#905);
#253=VERTEX_POINT('',#914);
#254=VERTEX_POINT('',#916);
#255=VERTEX_POINT('',#923);
#256=VERTEX_POINT('',#929);
#257=VERTEX_POINT('',#931);
#258=VERTEX_POINT('',#936);
#259=VERTEX_POINT('',#938);
#260=VERTEX_POINT('',#940);
#261=VERTEX_POINT('',#942);
#262=VERTEX_POINT('',#958);
#263=VERTEX_POINT('',#960);
#264=VERTEX_POINT('',#962);
#265=VERTEX_POINT('',#964);
#266=VERTEX_POINT('',#966);
#267=VERTEX_POINT('',#968);
#268=VERTEX_POINT('',#974);
#269=EDGE_CURVE('',#215,#216,#178,.T.);
#270=EDGE_CURVE('',#216,#217,#106,.T.);
#271=EDGE_CURVE('',#217,#218,#179,.T.);
#272=EDGE_CURVE('',#218,#219,#180,.T.);
#273=EDGE_CURVE('',#219,#220,#181,.T.);
#274=EDGE_CURVE('',#220,#221,#182,.T.);
#275=EDGE_CURVE('',#221,#217,#183,.T.);
#276=EDGE_CURVE('',#216,#215,#184,.T.);
#277=EDGE_CURVE('',#222,#223,#185,.T.);
#278=EDGE_CURVE('',#222,#224,#30,.T.);
#279=EDGE_CURVE('',#224,#225,#186,.T.);
#280=EDGE_CURVE('',#225,#223,#31,.T.);
#281=EDGE_CURVE('',#226,#227,#187,.T.);
#282=EDGE_CURVE('',#228,#226,#188,.T.);
#283=EDGE_CURVE('',#227,#228,#189,.T.);
#284=EDGE_CURVE('',#227,#229,#107,.T.);
#285=EDGE_CURVE('',#230,#229,#190,.T.);
#286=EDGE_CURVE('',#229,#230,#191,.T.);
#287=EDGE_CURVE('',#231,#232,#192,.T.);
#288=EDGE_CURVE('',#232,#233,#108,.T.);
#289=EDGE_CURVE('',#233,#234,#193,.T.);
#290=EDGE_CURVE('',#234,#231,#109,.T.);
#291=EDGE_CURVE('',#235,#236,#194,.T.);
#292=EDGE_CURVE('',#236,#237,#110,.T.);
#293=EDGE_CURVE('',#238,#237,#195,.T.);
#294=EDGE_CURVE('',#238,#235,#111,.T.);
#295=EDGE_CURVE('',#239,#240,#196,.T.);
#296=EDGE_CURVE('',#240,#239,#197,.T.);
#297=EDGE_CURVE('',#240,#228,#112,.T.);
#298=EDGE_CURVE('',#241,#242,#198,.T.);
#299=EDGE_CURVE('',#242,#243,#113,.T.);
#300=EDGE_CURVE('',#244,#243,#199,.T.);
#301=EDGE_CURVE('',#244,#241,#114,.T.);
#302=EDGE_CURVE('',#245,#246,#200,.T.);
#303=EDGE_CURVE('',#247,#245,#201,.T.);
#304=EDGE_CURVE('',#247,#248,#115,.T.);
#305=EDGE_CURVE('',#248,#249,#202,.T.);
#306=EDGE_CURVE('',#249,#248,#203,.T.);
#307=EDGE_CURVE('',#246,#247,#204,.T.);
#308=EDGE_CURVE('',#250,#239,#116,.T.);
#309=EDGE_CURVE('',#248,#251,#117,.T.);
#310=EDGE_CURVE('',#251,#252,#205,.T.);
#311=EDGE_CURVE('',#252,#251,#206,.T.);
#312=EDGE_CURVE('',#221,#222,#118,.T.);
#313=EDGE_CURVE('',#223,#218,#119,.T.);
#314=EDGE_CURVE('',#221,#220,#120,.T.);
#315=EDGE_CURVE('',#219,#253,#121,.T.);
#316=EDGE_CURVE('',#253,#254,#207,.T.);
#317=EDGE_CURVE('',#254,#220,#122,.T.);
#318=EDGE_CURVE('',#219,#218,#123,.T.);
#319=EDGE_CURVE('',#255,#232,#32,.T.);
#320=EDGE_CURVE('',#246,#255,#124,.T.);
#321=EDGE_CURVE('',#256,#246,#125,.T.);
#322=EDGE_CURVE('',#257,#256,#33,.T.);
#323=EDGE_CURVE('',#258,#257,#126,.T.);
#324=EDGE_CURVE('',#259,#258,#127,.T.);
#325=EDGE_CURVE('',#260,#259,#128,.T.);
#326=EDGE_CURVE('',#261,#260,#129,.T.);
#327=EDGE_CURVE('',#224,#261,#130,.T.);
#328=EDGE_CURVE('',#237,#254,#34,.T.);
#329=EDGE_CURVE('',#243,#236,#131,.T.);
#330=EDGE_CURVE('',#233,#242,#132,.T.);
#331=EDGE_CURVE('',#253,#238,#35,.T.);
#332=EDGE_CURVE('',#235,#244,#133,.T.);
#333=EDGE_CURVE('',#262,#225,#134,.T.);
#334=EDGE_CURVE('',#263,#262,#135,.T.);
#335=EDGE_CURVE('',#264,#263,#136,.T.);
#336=EDGE_CURVE('',#265,#264,#137,.T.);
#337=EDGE_CURVE('',#266,#265,#138,.T.);
#338=EDGE_CURVE('',#267,#266,#36,.T.);
#339=EDGE_CURVE('',#245,#267,#139,.T.);
#340=EDGE_CURVE('',#268,#245,#140,.T.);
#341=EDGE_CURVE('',#231,#268,#37,.T.);
#342=EDGE_CURVE('',#241,#234,#141,.T.);
#343=EDGE_CURVE('',#261,#262,#208,.T.);
#344=EDGE_CURVE('',#255,#268,#209,.T.);
#345=EDGE_CURVE('',#267,#256,#210,.T.);
#346=EDGE_CURVE('',#257,#266,#211,.T.);
#347=EDGE_CURVE('',#265,#258,#212,.T.);
#348=EDGE_CURVE('',#259,#264,#213,.T.);
#349=EDGE_CURVE('',#260,#263,#214,.T.);
#350=ORIENTED_EDGE('',*,*,#269,.T.);
#351=ORIENTED_EDGE('',*,*,#270,.T.);
#352=ORIENTED_EDGE('',*,*,#271,.T.);
#353=ORIENTED_EDGE('',*,*,#272,.T.);
#354=ORIENTED_EDGE('',*,*,#273,.T.);
#355=ORIENTED_EDGE('',*,*,#274,.T.);
#356=ORIENTED_EDGE('',*,*,#275,.T.);
#357=ORIENTED_EDGE('',*,*,#270,.F.);
#358=ORIENTED_EDGE('',*,*,#276,.T.);
#359=ORIENTED_EDGE('',*,*,#277,.F.);
#360=ORIENTED_EDGE('',*,*,#278,.T.);
#361=ORIENTED_EDGE('',*,*,#279,.T.);
#362=ORIENTED_EDGE('',*,*,#280,.T.);
#363=ORIENTED_EDGE('',*,*,#281,.F.);
#364=ORIENTED_EDGE('',*,*,#282,.F.);
#365=ORIENTED_EDGE('',*,*,#283,.F.);
#366=ORIENTED_EDGE('',*,*,#284,.T.);
#367=ORIENTED_EDGE('',*,*,#285,.F.);
#368=ORIENTED_EDGE('',*,*,#286,.F.);
#369=ORIENTED_EDGE('',*,*,#284,.F.);
#370=ORIENTED_EDGE('',*,*,#287,.T.);
#371=ORIENTED_EDGE('',*,*,#288,.T.);
#372=ORIENTED_EDGE('',*,*,#289,.T.);
#373=ORIENTED_EDGE('',*,*,#290,.T.);
#374=ORIENTED_EDGE('',*,*,#291,.T.);
#375=ORIENTED_EDGE('',*,*,#292,.T.);
#376=ORIENTED_EDGE('',*,*,#293,.F.);
#377=ORIENTED_EDGE('',*,*,#294,.T.);
#378=ORIENTED_EDGE('',*,*,#295,.F.);
#379=ORIENTED_EDGE('',*,*,#296,.F.);
#380=ORIENTED_EDGE('',*,*,#297,.T.);
#381=ORIENTED_EDGE('',*,*,#282,.T.);
#382=ORIENTED_EDGE('',*,*,#281,.T.);
#383=ORIENTED_EDGE('',*,*,#283,.T.);
#384=ORIENTED_EDGE('',*,*,#297,.F.);
#385=ORIENTED_EDGE('',*,*,#298,.T.);
#386=ORIENTED_EDGE('',*,*,#299,.T.);
#387=ORIENTED_EDGE('',*,*,#300,.F.);
#388=ORIENTED_EDGE('',*,*,#301,.T.);
#389=ORIENTED_EDGE('',*,*,#302,.F.);
#390=ORIENTED_EDGE('',*,*,#303,.F.);
#391=ORIENTED_EDGE('',*,*,#304,.T.);
#392=ORIENTED_EDGE('',*,*,#305,.T.);
#393=ORIENTED_EDGE('',*,*,#306,.T.);
#394=ORIENTED_EDGE('',*,*,#304,.F.);
#395=ORIENTED_EDGE('',*,*,#307,.F.);
#396=ORIENTED_EDGE('',*,*,#308,.T.);
#397=ORIENTED_EDGE('',*,*,#295,.T.);
#398=ORIENTED_EDGE('',*,*,#296,.T.);
#399=ORIENTED_EDGE('',*,*,#308,.F.);
#400=ORIENTED_EDGE('',*,*,#306,.F.);
#401=ORIENTED_EDGE('',*,*,#305,.F.);
#402=ORIENTED_EDGE('',*,*,#309,.T.);
#403=ORIENTED_EDGE('',*,*,#310,.T.);
#404=ORIENTED_EDGE('',*,*,#311,.T.);
#405=ORIENTED_EDGE('',*,*,#309,.F.);
#406=ORIENTED_EDGE('',*,*,#275,.F.);
#407=ORIENTED_EDGE('',*,*,#312,.T.);
#408=ORIENTED_EDGE('',*,*,#277,.T.);
#409=ORIENTED_EDGE('',*,*,#313,.T.);
#410=ORIENTED_EDGE('',*,*,#271,.F.);
#411=ORIENTED_EDGE('',*,*,#314,.F.);
#412=ORIENTED_EDGE('',*,*,#274,.F.);
#413=ORIENTED_EDGE('',*,*,#273,.F.);
#414=ORIENTED_EDGE('',*,*,#315,.T.);
#415=ORIENTED_EDGE('',*,*,#316,.T.);
#416=ORIENTED_EDGE('',*,*,#317,.T.);
#417=ORIENTED_EDGE('',*,*,#318,.F.);
#418=ORIENTED_EDGE('',*,*,#272,.F.);
#419=ORIENTED_EDGE('',*,*,#269,.F.);
#420=ORIENTED_EDGE('',*,*,#276,.F.);
#421=ORIENTED_EDGE('',*,*,#285,.T.);
#422=ORIENTED_EDGE('',*,*,#286,.T.);
#423=ORIENTED_EDGE('',*,*,#288,.F.);
#424=ORIENTED_EDGE('',*,*,#319,.F.);
#425=ORIENTED_EDGE('',*,*,#320,.F.);
#426=ORIENTED_EDGE('',*,*,#321,.F.);
#427=ORIENTED_EDGE('',*,*,#322,.F.);
#428=ORIENTED_EDGE('',*,*,#323,.F.);
#429=ORIENTED_EDGE('',*,*,#324,.F.);
#430=ORIENTED_EDGE('',*,*,#325,.F.);
#431=ORIENTED_EDGE('',*,*,#326,.F.);
#432=ORIENTED_EDGE('',*,*,#327,.F.);
#433=ORIENTED_EDGE('',*,*,#278,.F.);
#434=ORIENTED_EDGE('',*,*,#312,.F.);
#435=ORIENTED_EDGE('',*,*,#314,.T.);
#436=ORIENTED_EDGE('',*,*,#317,.F.);
#437=ORIENTED_EDGE('',*,*,#328,.F.);
#438=ORIENTED_EDGE('',*,*,#292,.F.);
#439=ORIENTED_EDGE('',*,*,#329,.F.);
#440=ORIENTED_EDGE('',*,*,#299,.F.);
#441=ORIENTED_EDGE('',*,*,#330,.F.);
#442=ORIENTED_EDGE('',*,*,#331,.T.);
#443=ORIENTED_EDGE('',*,*,#293,.T.);
#444=ORIENTED_EDGE('',*,*,#328,.T.);
#445=ORIENTED_EDGE('',*,*,#316,.F.);
#446=ORIENTED_EDGE('',*,*,#301,.F.);
#447=ORIENTED_EDGE('',*,*,#332,.F.);
#448=ORIENTED_EDGE('',*,*,#294,.F.);
#449=ORIENTED_EDGE('',*,*,#331,.F.);
#450=ORIENTED_EDGE('',*,*,#315,.F.);
#451=ORIENTED_EDGE('',*,*,#318,.T.);
#452=ORIENTED_EDGE('',*,*,#313,.F.);
#453=ORIENTED_EDGE('',*,*,#280,.F.);
#454=ORIENTED_EDGE('',*,*,#333,.F.);
#455=ORIENTED_EDGE('',*,*,#334,.F.);
#456=ORIENTED_EDGE('',*,*,#335,.F.);
#457=ORIENTED_EDGE('',*,*,#336,.F.);
#458=ORIENTED_EDGE('',*,*,#337,.F.);
#459=ORIENTED_EDGE('',*,*,#338,.F.);
#460=ORIENTED_EDGE('',*,*,#339,.F.);
#461=ORIENTED_EDGE('',*,*,#340,.F.);
#462=ORIENTED_EDGE('',*,*,#341,.F.);
#463=ORIENTED_EDGE('',*,*,#290,.F.);
#464=ORIENTED_EDGE('',*,*,#342,.F.);
#465=ORIENTED_EDGE('',*,*,#279,.F.);
#466=ORIENTED_EDGE('',*,*,#327,.T.);
#467=ORIENTED_EDGE('',*,*,#343,.T.);
#468=ORIENTED_EDGE('',*,*,#333,.T.);
#469=ORIENTED_EDGE('',*,*,#289,.F.);
#470=ORIENTED_EDGE('',*,*,#330,.T.);
#471=ORIENTED_EDGE('',*,*,#298,.F.);
#472=ORIENTED_EDGE('',*,*,#342,.T.);
#473=ORIENTED_EDGE('',*,*,#302,.T.);
#474=ORIENTED_EDGE('',*,*,#320,.T.);
#475=ORIENTED_EDGE('',*,*,#344,.T.);
#476=ORIENTED_EDGE('',*,*,#340,.T.);
#477=ORIENTED_EDGE('',*,*,#307,.T.);
#478=ORIENTED_EDGE('',*,*,#303,.T.);
#479=ORIENTED_EDGE('',*,*,#339,.T.);
#480=ORIENTED_EDGE('',*,*,#345,.T.);
#481=ORIENTED_EDGE('',*,*,#321,.T.);
#482=ORIENTED_EDGE('',*,*,#346,.T.);
#483=ORIENTED_EDGE('',*,*,#337,.T.);
#484=ORIENTED_EDGE('',*,*,#347,.T.);
#485=ORIENTED_EDGE('',*,*,#323,.T.);
#486=ORIENTED_EDGE('',*,*,#347,.F.);
#487=ORIENTED_EDGE('',*,*,#336,.T.);
#488=ORIENTED_EDGE('',*,*,#348,.F.);
#489=ORIENTED_EDGE('',*,*,#324,.T.);
#490=ORIENTED_EDGE('',*,*,#334,.T.);
#491=ORIENTED_EDGE('',*,*,#343,.F.);
#492=ORIENTED_EDGE('',*,*,#326,.T.);
#493=ORIENTED_EDGE('',*,*,#349,.T.);
#494=ORIENTED_EDGE('',*,*,#329,.T.);
#495=ORIENTED_EDGE('',*,*,#291,.F.);
#496=ORIENTED_EDGE('',*,*,#332,.T.);
#497=ORIENTED_EDGE('',*,*,#300,.T.);
#498=ORIENTED_EDGE('',*,*,#341,.T.);
#499=ORIENTED_EDGE('',*,*,#344,.F.);
#500=ORIENTED_EDGE('',*,*,#319,.T.);
#501=ORIENTED_EDGE('',*,*,#287,.F.);
#502=ORIENTED_EDGE('',*,*,#322,.T.);
#503=ORIENTED_EDGE('',*,*,#345,.F.);
#504=ORIENTED_EDGE('',*,*,#338,.T.);
#505=ORIENTED_EDGE('',*,*,#346,.F.);
#506=ORIENTED_EDGE('',*,*,#335,.T.);
#507=ORIENTED_EDGE('',*,*,#349,.F.);
#508=ORIENTED_EDGE('',*,*,#325,.T.);
#509=ORIENTED_EDGE('',*,*,#348,.T.);
#510=ORIENTED_EDGE('',*,*,#311,.F.);
#511=ORIENTED_EDGE('',*,*,#310,.F.);
#512=CYLINDRICAL_SURFACE('',#571,4.99999999999999);
#513=CYLINDRICAL_SURFACE('',#588,5.8);
#514=CYLINDRICAL_SURFACE('',#591,5.8);
#515=CYLINDRICAL_SURFACE('',#594,2.4585);
#516=CYLINDRICAL_SURFACE('',#597,4.5);
#517=CYLINDRICAL_SURFACE('',#600,4.);
#518=CYLINDRICAL_SURFACE('',#619,5.8);
#519=CYLINDRICAL_SURFACE('',#626,5.8);
#520=CYLINDRICAL_SURFACE('',#636,4.5);
#521=ADVANCED_FACE('',(#45),#512,.T.);
#522=ADVANCED_FACE('',(#46),#38,.T.);
#523=ADVANCED_FACE('',(#47),#39,.F.);
#524=ADVANCED_FACE('',(#48),#513,.T.);
#525=ADVANCED_FACE('',(#49),#514,.T.);
#526=ADVANCED_FACE('',(#50),#515,.F.);
#527=ADVANCED_FACE('',(#51),#516,.T.);
#528=ADVANCED_FACE('',(#52),#517,.T.);
#529=ADVANCED_FACE('',(#53),#40,.F.);
#530=ADVANCED_FACE('',(#54),#41,.T.);
#531=ADVANCED_FACE('',(#55),#16,.T.);
#532=ADVANCED_FACE('',(#56),#17,.F.);
#533=ADVANCED_FACE('',(#57),#18,.T.);
#534=ADVANCED_FACE('',(#58),#19,.F.);
#535=ADVANCED_FACE('',(#59,#15),#20,.T.);
#536=ADVANCED_FACE('',(#60),#21,.F.);
#537=ADVANCED_FACE('',(#61),#42,.T.);
#538=ADVANCED_FACE('',(#62),#22,.F.);
#539=ADVANCED_FACE('',(#63),#518,.T.);
#540=ADVANCED_FACE('',(#64),#23,.F.);
#541=ADVANCED_FACE('',(#65),#24,.T.);
#542=ADVANCED_FACE('',(#66),#25,.T.);
#543=ADVANCED_FACE('',(#67),#519,.T.);
#544=ADVANCED_FACE('',(#68),#26,.F.);
#545=ADVANCED_FACE('',(#69),#27,.T.);
#546=ADVANCED_FACE('',(#70),#28,.T.);
#547=ADVANCED_FACE('',(#71),#43,.T.);
#548=ADVANCED_FACE('',(#72),#44,.T.);
#549=ADVANCED_FACE('',(#73),#520,.T.);
#550=ADVANCED_FACE('',(#74),#29,.T.);
#551=CLOSED_SHELL('',(#521,#522,#523,#524,#525,#526,#527,#528,#529,#530,
#531,#532,#533,#534,#535,#536,#537,#538,#539,#540,#541,#542,#543,#544,#545,
#546,#547,#548,#549,#550));
#552=DERIVED_UNIT_ELEMENT(#554,1.);
#553=DERIVED_UNIT_ELEMENT(#1005,3.);
#554=(
MASS_UNIT()
NAMED_UNIT(*)
SI_UNIT($,.GRAM.)
);
#555=DERIVED_UNIT((#552,#553));
#556=MEASURE_REPRESENTATION_ITEM('density measure',
POSITIVE_RATIO_MEASURE(1.),#555);
#557=PROPERTY_DEFINITION_REPRESENTATION(#562,#559);
#558=PROPERTY_DEFINITION_REPRESENTATION(#563,#560);
#559=REPRESENTATION('material name',(#561),#1002);
#560=REPRESENTATION('density',(#556),#1002);
#561=DESCRIPTIVE_REPRESENTATION_ITEM('Generisch','Generisch');
#562=PROPERTY_DEFINITION('material property','material name',#1012);
#563=PROPERTY_DEFINITION('material property','density of part',#1012);
#564=DATE_TIME_ROLE('creation_date');
#565=APPLIED_DATE_AND_TIME_ASSIGNMENT(#566,#564,(#1012));
#566=DATE_AND_TIME(#567,#568);
#567=CALENDAR_DATE(2020,15,4);
#568=LOCAL_TIME(12,18,16.,#569);
#569=COORDINATED_UNIVERSAL_TIME_OFFSET(0,0,.BEHIND.);
#570=AXIS2_PLACEMENT_3D('placement',#810,#638,#639);
#571=AXIS2_PLACEMENT_3D('',#811,#640,#641);
#572=AXIS2_PLACEMENT_3D('',#814,#642,#643);
#573=AXIS2_PLACEMENT_3D('',#818,#645,#646);
#574=AXIS2_PLACEMENT_3D('',#820,#647,#648);
#575=AXIS2_PLACEMENT_3D('',#822,#649,#650);
#576=AXIS2_PLACEMENT_3D('',#824,#651,#652);
#577=AXIS2_PLACEMENT_3D('',#825,#653,#654);
#578=AXIS2_PLACEMENT_3D('',#826,#655,#656);
#579=AXIS2_PLACEMENT_3D('',#827,#657,#658);
#580=AXIS2_PLACEMENT_3D('',#830,#659,#660);
#581=AXIS2_PLACEMENT_3D('',#837,#661,#662);
#582=AXIS2_PLACEMENT_3D('',#842,#663,#664);
#583=AXIS2_PLACEMENT_3D('',#845,#665,#666);
#584=AXIS2_PLACEMENT_3D('',#847,#667,#668);
#585=AXIS2_PLACEMENT_3D('',#848,#669,#670);
#586=AXIS2_PLACEMENT_3D('',#852,#672,#673);
#587=AXIS2_PLACEMENT_3D('',#853,#674,#675);
#588=AXIS2_PLACEMENT_3D('',#854,#676,#677);
#589=AXIS2_PLACEMENT_3D('',#857,#678,#679);
#590=AXIS2_PLACEMENT_3D('',#861,#681,#682);
#591=AXIS2_PLACEMENT_3D('',#863,#684,#685);
#592=AXIS2_PLACEMENT_3D('',#866,#686,#687);
#593=AXIS2_PLACEMENT_3D('',#870,#689,#690);
#594=AXIS2_PLACEMENT_3D('',#872,#692,#693);
#595=AXIS2_PLACEMENT_3D('',#875,#694,#695);
#596=AXIS2_PLACEMENT_3D('',#876,#696,#697);
#597=AXIS2_PLACEMENT_3D('',#878,#699,#700);
#598=AXIS2_PLACEMENT_3D('',#881,#701,#702);
#599=AXIS2_PLACEMENT_3D('',#885,#704,#705);
#600=AXIS2_PLACEMENT_3D('',#887,#707,#708);
#601=AXIS2_PLACEMENT_3D('',#890,#709,#710);
#602=AXIS2_PLACEMENT_3D('',#892,#711,#712);
#603=AXIS2_PLACEMENT_3D('',#896,#714,#715);
#604=AXIS2_PLACEMENT_3D('',#897,#716,#717);
#605=AXIS2_PLACEMENT_3D('',#898,#718,#719);
#606=AXIS2_PLACEMENT_3D('',#899,#720,#721);
#607=AXIS2_PLACEMENT_3D('',#902,#723,#724);
#608=AXIS2_PLACEMENT_3D('',#906,#726,#727);
#609=AXIS2_PLACEMENT_3D('',#907,#728,#729);
#610=AXIS2_PLACEMENT_3D('',#908,#730,#731);
#611=AXIS2_PLACEMENT_3D('',#911,#734,#735);
#612=AXIS2_PLACEMENT_3D('',#913,#737,#738);
#613=AXIS2_PLACEMENT_3D('',#917,#740,#741);
#614=AXIS2_PLACEMENT_3D('',#919,#743,#744);
#615=AXIS2_PLACEMENT_3D('',#921,#746,#747);
#616=AXIS2_PLACEMENT_3D('',#922,#748,#749);
#617=AXIS2_PLACEMENT_3D('',#951,#759,#760);
#618=AXIS2_PLACEMENT_3D('',#956,#761,#762);
#619=AXIS2_PLACEMENT_3D('',#981,#772,#773);
#620=AXIS2_PLACEMENT_3D('',#982,#774,#775);
#621=AXIS2_PLACEMENT_3D('',#983,#776,#777);
#622=AXIS2_PLACEMENT_3D('',#984,#778,#779);
#623=AXIS2_PLACEMENT_3D('',#985,#780,#781);
#624=AXIS2_PLACEMENT_3D('',#986,#782,#783);
#625=AXIS2_PLACEMENT_3D('',#987,#784,#785);
#626=AXIS2_PLACEMENT_3D('',#988,#786,#787);
#627=AXIS2_PLACEMENT_3D('',#989,#788,#789);
#628=AXIS2_PLACEMENT_3D('',#990,#790,#791);
#629=AXIS2_PLACEMENT_3D('',#991,#792,#793);
#630=AXIS2_PLACEMENT_3D('',#992,#794,#795);
#631=AXIS2_PLACEMENT_3D('',#993,#796,#797);
#632=AXIS2_PLACEMENT_3D('',#994,#798,#799);
#633=AXIS2_PLACEMENT_3D('',#995,#800,#801);
#634=AXIS2_PLACEMENT_3D('',#996,#802,#803);
#635=AXIS2_PLACEMENT_3D('',#997,#804,#805);
#636=AXIS2_PLACEMENT_3D('',#998,#806,#807);
#637=AXIS2_PLACEMENT_3D('',#999,#808,#809);
#638=DIRECTION('axis',(0.,0.,1.));
#639=DIRECTION('refdir',(1.,0.,0.));
#640=DIRECTION('center_axis',(1.,1.83697019872103E-16,0.));
#641=DIRECTION('ref_axis',(-1.83697019872103E-16,1.,0.));
#642=DIRECTION('center_axis',(-1.,-1.83697019872103E-16,0.));
#643=DIRECTION('ref_axis',(-1.83697019872103E-16,1.,0.));
#644=DIRECTION('',(-1.,-1.83697019872103E-16,0.));
#645=DIRECTION('center_axis',(1.,1.83697019872103E-16,0.));
#646=DIRECTION('ref_axis',(-1.83697019872103E-16,1.,0.));
#647=DIRECTION('center_axis',(1.,1.83697019872103E-16,0.));
#648=DIRECTION('ref_axis',(-1.83697019872103E-16,1.,0.));
#649=DIRECTION('center_axis',(1.,1.83697019872103E-16,0.));
#650=DIRECTION('ref_axis',(-1.83697019872103E-16,1.,0.));
#651=DIRECTION('center_axis',(1.,1.83697019872103E-16,0.));
#652=DIRECTION('ref_axis',(-1.83697019872103E-16,1.,0.));
#653=DIRECTION('center_axis',(1.,1.83697019872103E-16,0.));
#654=DIRECTION('ref_axis',(-1.83697019872103E-16,1.,0.));
#655=DIRECTION('center_axis',(-1.,-1.83697019872103E-16,0.));
#656=DIRECTION('ref_axis',(-1.83697019872103E-16,1.,0.));
#657=DIRECTION('center_axis',(-1.,-2.99090254483487E-16,0.));
#658=DIRECTION('ref_axis',(2.99090254483487E-16,-1.,0.));
#659=DIRECTION('center_axis',(1.,2.99090254483487E-16,0.));
#660=DIRECTION('ref_axis',(2.99090254483487E-16,-1.,0.));
#661=DIRECTION('center_axis',(1.,1.83697019872107E-16,0.));
#662=DIRECTION('ref_axis',(1.83697019872107E-16,-1.,0.));
#663=DIRECTION('center_axis',(1.,0.,0.));
#664=DIRECTION('ref_axis',(0.,0.,-1.));
#665=DIRECTION('center_axis',(1.,1.83697019872103E-16,0.));
#666=DIRECTION('ref_axis',(1.83697019872103E-16,-1.,0.));
#667=DIRECTION('center_axis',(1.,1.83697019872103E-16,0.));
#668=DIRECTION('ref_axis',(1.83697019872103E-16,-1.,0.));
#669=DIRECTION('center_axis',(1.,1.83697019872103E-16,0.));
#670=DIRECTION('ref_axis',(1.83697019872103E-16,-1.,0.));
#671=DIRECTION('',(0.707106781186548,-8.65956056235493E-17,0.707106781186548));
#672=DIRECTION('center_axis',(-1.,0.,0.));
#673=DIRECTION('ref_axis',(0.,0.,-1.));
#674=DIRECTION('center_axis',(-1.,0.,0.));
#675=DIRECTION('ref_axis',(0.,0.,-1.));
#676=DIRECTION('center_axis',(1.,1.83697019872103E-16,0.));
#677=DIRECTION('ref_axis',(-1.83697019872103E-16,1.,0.));
#678=DIRECTION('center_axis',(1.,1.83697019872103E-16,0.));
#679=DIRECTION('ref_axis',(-1.83697019872103E-16,1.,0.));
#680=DIRECTION('',(1.,0.,-1.11022302462516E-16));
#681=DIRECTION('center_axis',(-1.,-1.83697019872103E-16,0.));
#682=DIRECTION('ref_axis',(-1.83697019872103E-16,1.,0.));
#683=DIRECTION('',(-1.,0.,2.77555756156289E-16));
#684=DIRECTION('center_axis',(1.,1.83697019872103E-16,0.));
#685=DIRECTION('ref_axis',(-1.83697019872103E-16,1.,0.));
#686=DIRECTION('center_axis',(1.,1.83697019872103E-16,0.));
#687=DIRECTION('ref_axis',(-1.83697019872103E-16,1.,0.));
#688=DIRECTION('',(1.,0.,-1.11022302462516E-16));
#689=DIRECTION('center_axis',(1.,1.83697019872105E-16,0.));
#690=DIRECTION('ref_axis',(-1.83697019872105E-16,1.,0.));
#691=DIRECTION('',(-1.,0.,2.77555756156289E-16));
#692=DIRECTION('center_axis',(1.,1.83697019872103E-16,0.));
#693=DIRECTION('ref_axis',(-1.83697019872103E-16,1.,0.));
#694=DIRECTION('center_axis',(1.,1.83697019872103E-16,0.));
#695=DIRECTION('ref_axis',(-1.83697019872103E-16,1.,0.));
#696=DIRECTION('center_axis',(1.,1.83697019872103E-16,0.));
#697=DIRECTION('ref_axis',(-1.83697019872103E-16,1.,0.));
#698=DIRECTION('',(1.,1.83697019872103E-16,0.));
#699=DIRECTION('center_axis',(1.,1.83697019872103E-16,0.));
#700=DIRECTION('ref_axis',(-1.83697019872103E-16,1.,0.));
#701=DIRECTION('center_axis',(1.,1.83697019872103E-16,0.));
#702=DIRECTION('ref_axis',(-1.83697019872103E-16,1.,0.));
#703=DIRECTION('',(1.,1.83697019872103E-16,0.));
#704=DIRECTION('center_axis',(1.,1.83697019872103E-16,0.));
#705=DIRECTION('ref_axis',(-1.83697019872103E-16,1.,0.));
#706=DIRECTION('',(-1.,-1.83697019872103E-16,0.));
#707=DIRECTION('center_axis',(1.,1.83697019872103E-16,0.));
#708=DIRECTION('ref_axis',(-1.83697019872103E-16,1.,0.));
#709=DIRECTION('center_axis',(1.,1.83697019872103E-16,0.));
#710=DIRECTION('ref_axis',(-1.83697019872103E-16,1.,0.));
#711=DIRECTION('center_axis',(1.,1.83697019872103E-16,0.));
#712=DIRECTION('ref_axis',(-1.83697019872103E-16,1.,0.));
#713=DIRECTION('',(-1.,-1.83697019872103E-16,0.));
#714=DIRECTION('center_axis',(1.,1.83697019872103E-16,0.));
#715=DIRECTION('ref_axis',(-1.83697019872103E-16,1.,0.));
#716=DIRECTION('center_axis',(1.,1.83697019872103E-16,0.));
#717=DIRECTION('ref_axis',(-1.83697019872103E-16,1.,0.));
#718=DIRECTION('center_axis',(1.,1.83697019872103E-16,0.));
#719=DIRECTION('ref_axis',(-1.83697019872103E-16,1.,0.));
#720=DIRECTION('center_axis',(1.,0.,0.));
#721=DIRECTION('ref_axis',(0.,0.,-1.));
#722=DIRECTION('',(0.515038074909203,-1.04972719113924E-16,0.857167300702624));
#723=DIRECTION('center_axis',(1.,1.8973538018945E-16,0.));
#724=DIRECTION('ref_axis',(-1.8973538018945E-16,1.,0.));
#725=DIRECTION('',(-0.707106781206645,0.70710678116645,8.65956056210882E-17));
#726=DIRECTION('center_axis',(1.,1.8973538018945E-16,0.));
#727=DIRECTION('ref_axis',(-1.8973538018945E-16,1.,0.));
#728=DIRECTION('center_axis',(1.,1.8973538018945E-16,0.));
#729=DIRECTION('ref_axis',(-1.8973538018945E-16,1.,0.));
#730=DIRECTION('center_axis',(1.,1.83697019872103E-16,0.));
#731=DIRECTION('ref_axis',(-1.83697019872103E-16,1.,0.));
#732=DIRECTION('',(0.,-1.,0.));
#733=DIRECTION('',(0.,1.,0.));
#734=DIRECTION('center_axis',(1.,0.,0.));
#735=DIRECTION('ref_axis',(0.,0.,-1.));
#736=DIRECTION('',(0.,1.,0.));
#737=DIRECTION('center_axis',(1.,1.83697019872103E-16,0.));
#738=DIRECTION('ref_axis',(-1.83697019872103E-16,1.,0.));
#739=DIRECTION('',(0.,1.,0.));
#740=DIRECTION('center_axis',(1.,2.99090254483488E-16,0.));
#741=DIRECTION('ref_axis',(2.99090254483488E-16,-1.,1.77635683940025E-15));
#742=DIRECTION('',(1.83697019872103E-16,-1.,0.));
#743=DIRECTION('center_axis',(1.,0.,0.));
#744=DIRECTION('ref_axis',(0.,0.,-1.));
#745=DIRECTION('',(0.,-1.,0.));
#746=DIRECTION('center_axis',(1.,1.83697019872103E-16,0.));
#747=DIRECTION('ref_axis',(-1.83697019872103E-16,1.,0.));
#748=DIRECTION('center_axis',(-1.11022302462516E-16,0.,-1.));
#749=DIRECTION('ref_axis',(-1.,0.,1.11022302462516E-16));
#750=DIRECTION('',(0.,1.,0.));
#751=DIRECTION('',(0.,1.,0.));
#752=DIRECTION('',(-1.,0.,1.11022302462516E-16));
#753=DIRECTION('',(0.,-1.,0.));
#754=DIRECTION('',(-1.,-1.83697019872103E-16,0.));
#755=DIRECTION('',(0.,1.,0.));
#756=DIRECTION('',(-1.,0.,1.11022302462516E-16));
#757=DIRECTION('',(0.,1.,0.));
#758=DIRECTION('',(0.,-1.,0.));
#759=DIRECTION('center_axis',(-1.,-2.99090254483488E-16,0.));
#760=DIRECTION('ref_axis',(-2.99090254483488E-16,1.,-4.93949666033184E-13));
#761=DIRECTION('center_axis',(2.77555756156289E-16,0.,1.));
#762=DIRECTION('ref_axis',(1.,0.,-2.77555756156289E-16));
#763=DIRECTION('',(0.,-1.,0.));
#764=DIRECTION('',(1.,0.,-2.77555756156289E-16));
#765=DIRECTION('',(0.,-1.,0.));
#766=DIRECTION('',(1.,1.83697019872103E-16,0.));
#767=DIRECTION('',(0.,1.,0.));
#768=DIRECTION('',(1.,0.,-2.77555756156289E-16));
#769=DIRECTION('',(0.,-1.,0.));
#770=DIRECTION('',(0.,-1.,0.));
#771=DIRECTION('',(0.,1.,0.));
#772=DIRECTION('center_axis',(1.,1.83697019872103E-16,0.));
#773=DIRECTION('ref_axis',(1.83697019872103E-16,-1.,1.42920154197742E-12));
#774=DIRECTION('center_axis',(1.,1.83697019872103E-16,0.));
#775=DIRECTION('ref_axis',(-1.83697019872103E-16,1.,0.));
#776=DIRECTION('center_axis',(-1.,-1.83697019872103E-16,0.));
#777=DIRECTION('ref_axis',(1.83697019872103E-16,-1.,0.));
#778=DIRECTION('center_axis',(-1.,-1.83697019872103E-16,0.));
#779=DIRECTION('ref_axis',(1.83697019872103E-16,-1.,0.));
#780=DIRECTION('center_axis',(-1.,0.,0.));
#781=DIRECTION('ref_axis',(0.,8.88178419700125E-16,-1.));
#782=DIRECTION('center_axis',(-1.,-1.83697019872103E-16,0.));
#783=DIRECTION('ref_axis',(1.83697019872103E-16,-1.,0.));
#784=DIRECTION('center_axis',(-1.,-1.49545127241744E-16,0.));
#785=DIRECTION('ref_axis',(-1.49545127241744E-16,1.,0.));
#786=DIRECTION('center_axis',(1.,1.83697019872103E-16,0.));
#787=DIRECTION('ref_axis',(1.83697019872103E-16,-1.,5.66553889764798E-16));
#788=DIRECTION('center_axis',(1.,1.83697019872103E-16,0.));
#789=DIRECTION('ref_axis',(-1.83697019872103E-16,1.,0.));
#790=DIRECTION('center_axis',(-1.,-1.83697019872103E-16,0.));
#791=DIRECTION('ref_axis',(-1.83697019872103E-16,1.,8.88178419700125E-16));
#792=DIRECTION('center_axis',(-1.,-1.83697019872103E-16,0.));
#793=DIRECTION('ref_axis',(1.83697019872103E-16,-1.,0.));
#794=DIRECTION('center_axis',(1.,1.83697019872103E-16,0.));
#795=DIRECTION('ref_axis',(-1.83697019872103E-16,1.,0.));
#796=DIRECTION('center_axis',(-1.,-1.83697019872103E-16,0.));
#797=DIRECTION('ref_axis',(1.83697019872103E-16,-1.,0.));
#798=DIRECTION('center_axis',(1.,1.83697019872103E-16,0.));
#799=DIRECTION('ref_axis',(-1.83697019872103E-16,1.,0.));
#800=DIRECTION('center_axis',(-1.,-1.83697019872103E-16,0.));
#801=DIRECTION('ref_axis',(1.83697019872103E-16,-1.,0.));
#802=DIRECTION('center_axis',(1.,0.,0.));
#803=DIRECTION('ref_axis',(0.,0.,-1.));
#804=DIRECTION('center_axis',(1.,1.49545127241744E-16,0.));
#805=DIRECTION('ref_axis',(1.49545127241744E-16,-1.,1.22464679914735E-16));
#806=DIRECTION('center_axis',(1.,1.83697019872103E-16,0.));
#807=DIRECTION('ref_axis',(1.83697019872103E-16,-1.,-1.22464679914735E-16));
#808=DIRECTION('center_axis',(-1.,-1.83697019872103E-16,0.));
#809=DIRECTION('ref_axis',(1.83697019872103E-16,-1.,0.));
#810=CARTESIAN_POINT('',(0.,0.,0.));
#811=CARTESIAN_POINT('Origin',(26.9,4.94144983455957E-15,0.));
#812=CARTESIAN_POINT('',(33.8,5.,0.));
#813=CARTESIAN_POINT('',(33.8,-4.99999999999998,-6.12323399573676E-16));
#814=CARTESIAN_POINT('Origin',(33.8,6.20895927167708E-15,0.));
#815=CARTESIAN_POINT('',(20.,-4.99999999999999,-6.12323399573676E-16));
#816=CARTESIAN_POINT('',(26.9,-4.99999999999999,-6.12323399573676E-16));
#817=CARTESIAN_POINT('',(20.,-2.99999999999998,-4.));
#818=CARTESIAN_POINT('Origin',(20.,3.67394039744206E-15,0.));
#819=CARTESIAN_POINT('',(20.,2.99999999999999,-4.));
#820=CARTESIAN_POINT('Origin',(20.,3.67394039744206E-15,0.));
#821=CARTESIAN_POINT('',(20.,2.99999999999999,4.));
#822=CARTESIAN_POINT('Origin',(20.,3.67394039744206E-15,0.));
#823=CARTESIAN_POINT('',(20.,-2.99999999999999,4.));
#824=CARTESIAN_POINT('Origin',(20.,3.67394039744206E-15,0.));
#825=CARTESIAN_POINT('Origin',(20.,3.67394039744206E-15,0.));
#826=CARTESIAN_POINT('Origin',(33.8,6.20895927167708E-15,0.));
#827=CARTESIAN_POINT('Origin',(19.9000000001206,3.46944695195361E-15,0.));
#828=CARTESIAN_POINT('',(19.9999999999939,-4.06078810089855,4.));
#829=CARTESIAN_POINT('',(19.9999999999939,-4.06078810089855,-4.));
#830=CARTESIAN_POINT('Origin',(19.9999999999818,3.49935597736045E-15,0.));
#831=CARTESIAN_POINT('',(19.9000000000463,-4.19999999997595,4.));
#832=CARTESIAN_POINT('Ctrl Pts',(19.9999999999939,-4.06078810089855,4.));
#833=CARTESIAN_POINT('Ctrl Pts',(19.9668483438066,-4.10732203361747,4.00000000000088));
#834=CARTESIAN_POINT('Ctrl Pts',(19.9335103971708,-4.15372373728016,4.));
#835=CARTESIAN_POINT('Ctrl Pts',(19.9000000000463,-4.19999999997595,4.));
#836=CARTESIAN_POINT('',(19.9000000000463,-4.19999999999999,-4.));
#837=CARTESIAN_POINT('Origin',(19.9000000000638,3.65557069546656E-15,0.));
#838=CARTESIAN_POINT('Ctrl Pts',(19.9000000000463,-4.19999999999999,-4.));
#839=CARTESIAN_POINT('Ctrl Pts',(19.9335103971681,-4.15372373727822,-3.99999999999431));
#840=CARTESIAN_POINT('Ctrl Pts',(19.9668483438061,-4.10732203361717,-4.));
#841=CARTESIAN_POINT('Ctrl Pts',(19.9999999999939,-4.06078810089855,-4.));
#842=CARTESIAN_POINT('Origin',(33.7999999999852,6.28837260041593E-15,0.));
#843=CARTESIAN_POINT('',(33.299999999997,2.45849999998883,0.));
#844=CARTESIAN_POINT('',(33.299999999997,5.98729318484692E-15,2.45849999998882));
#845=CARTESIAN_POINT('Origin',(33.299999999997,6.11711076174048E-15,0.));
#846=CARTESIAN_POINT('',(33.299999999997,-2.45849999999999,-3.01079415570377E-16));
#847=CARTESIAN_POINT('Origin',(33.299999999997,6.11711076174048E-15,0.));
#848=CARTESIAN_POINT('Origin',(33.299999999997,6.11711076174048E-15,0.));
#849=CARTESIAN_POINT('',(33.7999999999852,5.926060844891E-15,2.958499999977));
#850=CARTESIAN_POINT('',(33.7999999999852,5.926060844891E-15,2.958499999977));
#851=CARTESIAN_POINT('',(33.7999999999852,6.28837260041593E-15,-2.958499999977));
#852=CARTESIAN_POINT('Origin',(33.7999999999852,6.28837260041593E-15,0.));
#853=CARTESIAN_POINT('Origin',(33.7999999999852,6.28837260041593E-15,0.));
#854=CARTESIAN_POINT('Origin',(15.,2.75545529808154E-15,0.));
#855=CARTESIAN_POINT('',(10.3000000000208,4.19999999998444,-4.));
#856=CARTESIAN_POINT('',(10.3000000000208,4.19999999998444,4.));
#857=CARTESIAN_POINT('Origin',(10.3,1.89207930468266E-15,0.));
#858=CARTESIAN_POINT('',(17.,4.2,4.));
#859=CARTESIAN_POINT('',(20.,4.2,4.));
#860=CARTESIAN_POINT('',(17.,4.2,-4.));
#861=CARTESIAN_POINT('Origin',(17.,3.12284933782575E-15,0.));
#862=CARTESIAN_POINT('',(10.,4.2,-4.));
#863=CARTESIAN_POINT('Origin',(15.,2.75545529808154E-15,0.));
#864=CARTESIAN_POINT('',(18.,4.2,-4.));
#865=CARTESIAN_POINT('',(18.,4.2,4.));
#866=CARTESIAN_POINT('Origin',(18.,3.30654635769785E-15,0.));
#867=CARTESIAN_POINT('',(19.8999999999895,4.19999999997595,4.));
#868=CARTESIAN_POINT('',(20.,4.2,4.));
#869=CARTESIAN_POINT('',(19.8999999999895,4.19999999997595,-4.));
#870=CARTESIAN_POINT('Origin',(19.9000000000069,3.65557069545611E-15,0.));
#871=CARTESIAN_POINT('',(10.,4.2,-4.));
#872=CARTESIAN_POINT('Origin',(26.8,4.92308013257236E-15,0.));
#873=CARTESIAN_POINT('',(19.8,3.98736680202946E-15,2.45850000006831));
#874=CARTESIAN_POINT('',(19.8,-2.4585,-3.01079415570377E-16));
#875=CARTESIAN_POINT('Origin',(19.8,3.63720099346764E-15,0.));
#876=CARTESIAN_POINT('Origin',(19.8,3.63720099346764E-15,0.));
#877=CARTESIAN_POINT('',(26.8,-2.4585,-3.01079415570377E-16));
#878=CARTESIAN_POINT('Origin',(17.,3.12284933782575E-15,0.));
#879=CARTESIAN_POINT('',(17.,2.06155281280883,-4.));
#880=CARTESIAN_POINT('',(17.,2.06155281280884,4.));
#881=CARTESIAN_POINT('Origin',(17.,3.12284933782575E-15,0.));
#882=CARTESIAN_POINT('',(18.,2.06155281280884,4.));
#883=CARTESIAN_POINT('',(17.,2.06155281280884,4.));
#884=CARTESIAN_POINT('',(18.,2.06155281280883,-4.));
#885=CARTESIAN_POINT('Origin',(18.,3.30654635769785E-15,0.));
#886=CARTESIAN_POINT('',(17.,2.06155281280884,-4.));
#887=CARTESIAN_POINT('Origin',(5.,9.18485099360515E-16,0.));
#888=CARTESIAN_POINT('',(10.,1.46957615897682E-15,-4.));
#889=CARTESIAN_POINT('',(10.,1.83697019872103E-15,4.));
#890=CARTESIAN_POINT('Origin',(10.,1.83697019872103E-15,0.));
#891=CARTESIAN_POINT('',(10.,-4.,-4.89858719658941E-16));
#892=CARTESIAN_POINT('Origin',(10.,1.83697019872103E-15,0.));
#893=CARTESIAN_POINT('',(1.,-4.,-4.89858719658941E-16));
#894=CARTESIAN_POINT('',(5.,-4.,-4.89858719658941E-16));
#895=CARTESIAN_POINT('',(1.,3.9999999999859,0.));
#896=CARTESIAN_POINT('Origin',(1.,1.83697019872103E-16,0.));
#897=CARTESIAN_POINT('Origin',(1.,1.83697019872103E-16,0.));
#898=CARTESIAN_POINT('Origin',(10.,1.83697019872103E-15,0.));
#899=CARTESIAN_POINT('Origin',(19.8000000000889,3.68628738645072E-15,0.));
#900=CARTESIAN_POINT('',(18.322784168083,3.68628738645072E-15,0.));
#901=CARTESIAN_POINT('',(19.8000000000889,3.38520797085386E-15,2.45850000021619));
#902=CARTESIAN_POINT('Origin',(0.999999999919509,2.05711511398765E-32,0.));
#903=CARTESIAN_POINT('',(-1.13686005054348E-10,-2.99999999992906,-3.67394039735518E-16));
#904=CARTESIAN_POINT('',(0.99999999991951,-3.99999999990541,-4.89858719647358E-16));
#905=CARTESIAN_POINT('',(-1.13687190087322E-10,2.99999999992906,0.));
#906=CARTESIAN_POINT('Origin',(-1.13686620881182E-10,-1.89735380195748E-16,
0.));
#907=CARTESIAN_POINT('Origin',(-1.13686620881182E-10,-1.89735380195748E-16,
0.));
#908=CARTESIAN_POINT('Origin',(20.,5.,0.));
#909=CARTESIAN_POINT('',(20.,0.,4.));
#910=CARTESIAN_POINT('',(20.,0.,-4.));
#911=CARTESIAN_POINT('Origin',(20.,0.,5.8));
#912=CARTESIAN_POINT('',(20.,0.,4.));
#913=CARTESIAN_POINT('Origin',(20.,5.,0.));
#914=CARTESIAN_POINT('',(20.0000000000193,4.06078810078307,-4.));
#915=CARTESIAN_POINT('',(20.,0.,-4.));
#916=CARTESIAN_POINT('',(20.0000000000136,4.0607881007911,4.));
#917=CARTESIAN_POINT('Origin',(20.0000000000387,3.49935597739445E-15,0.));
#918=CARTESIAN_POINT('',(20.,5.,4.));
#919=CARTESIAN_POINT('Origin',(20.,0.,-4.));
#920=CARTESIAN_POINT('',(20.,0.,-4.));
#921=CARTESIAN_POINT('Origin',(33.8,6.10622663543836E-15,0.));
#922=CARTESIAN_POINT('Origin',(20.,0.,4.));
#923=CARTESIAN_POINT('',(10.000000000032,3.77491721767139,4.));
#924=CARTESIAN_POINT('Ctrl Pts',(10.000000000032,3.77491721767139,4.));
#925=CARTESIAN_POINT('Ctrl Pts',(10.0981401206104,3.91790595939965,4.));
#926=CARTESIAN_POINT('Ctrl Pts',(10.1982827892565,4.05953337557744,4.));
#927=CARTESIAN_POINT('Ctrl Pts',(10.3000000000208,4.19999999998444,4.));
#928=CARTESIAN_POINT('',(10.,0.,4.));
#929=CARTESIAN_POINT('',(10.000000000012,-3.7749172175594,4.));
#930=CARTESIAN_POINT('',(10.,0.,4.));
#931=CARTESIAN_POINT('',(10.3000000000232,-4.19999999998782,4.));
#932=CARTESIAN_POINT('Ctrl Pts',(10.3000000000232,-4.19999999998782,4.));
#933=CARTESIAN_POINT('Ctrl Pts',(10.1982827892649,-4.05953337556256,4.));
#934=CARTESIAN_POINT('Ctrl Pts',(10.0981401206227,-3.91790595936306,4.));
#935=CARTESIAN_POINT('Ctrl Pts',(10.000000000012,-3.7749172175594,4.));
#936=CARTESIAN_POINT('',(17.,-4.2,4.));
#937=CARTESIAN_POINT('',(20.,-4.2,4.));
#938=CARTESIAN_POINT('',(17.,-2.06155281280883,4.));
#939=CARTESIAN_POINT('',(17.,0.,4.));
#940=CARTESIAN_POINT('',(18.,-2.06155281280883,4.));
#941=CARTESIAN_POINT('',(17.,-2.06155281280884,4.));
#942=CARTESIAN_POINT('',(18.,-4.2,4.));
#943=CARTESIAN_POINT('',(18.,0.,4.));
#944=CARTESIAN_POINT('',(20.,-4.2,4.));
#945=CARTESIAN_POINT('Ctrl Pts',(19.8999999999895,4.19999999997595,4.));
#946=CARTESIAN_POINT('Ctrl Pts',(19.9335103971255,4.15372373726529,4.00000000000103));
#947=CARTESIAN_POINT('Ctrl Pts',(19.9668483437746,4.10732203358196,4.));
#948=CARTESIAN_POINT('Ctrl Pts',(20.0000000000136,4.0607881007911,4.));
#949=CARTESIAN_POINT('',(18.,0.,4.));
#950=CARTESIAN_POINT('',(17.,0.,4.));
#951=CARTESIAN_POINT('Origin',(19.9000000000638,3.46944695195361E-15,0.));
#952=CARTESIAN_POINT('Ctrl Pts',(20.0000000000193,4.06078810078307,-4.));
#953=CARTESIAN_POINT('Ctrl Pts',(19.9668483437849,4.1073220335645,-3.99999999999693));
#954=CARTESIAN_POINT('Ctrl Pts',(19.9335103971343,4.15372373725198,-4.));
#955=CARTESIAN_POINT('Ctrl Pts',(19.8999999999895,4.19999999997595,-4.));
#956=CARTESIAN_POINT('Origin',(10.,0.,-4.));
#957=CARTESIAN_POINT('',(18.,0.,-4.));
#958=CARTESIAN_POINT('',(18.,-4.19999999999999,-4.));
#959=CARTESIAN_POINT('',(10.,-4.19999999999999,-4.));
#960=CARTESIAN_POINT('',(18.,-2.06155281280883,-4.));
#961=CARTESIAN_POINT('',(18.,0.,-4.));
#962=CARTESIAN_POINT('',(17.,-2.06155281280883,-4.));
#963=CARTESIAN_POINT('',(17.,-2.06155281280883,-4.));
#964=CARTESIAN_POINT('',(17.,-4.2,-4.));
#965=CARTESIAN_POINT('',(17.,0.,-4.));
#966=CARTESIAN_POINT('',(10.3000000000232,-4.19999999998782,-4.));
#967=CARTESIAN_POINT('',(10.,-4.2,-4.));
#968=CARTESIAN_POINT('',(10.000000000012,-3.7749172175594,-4.));
#969=CARTESIAN_POINT('Ctrl Pts',(10.000000000012,-3.7749172175594,-4.));
#970=CARTESIAN_POINT('Ctrl Pts',(10.0981401206214,-3.91790595936405,-4.00000000000295));
#971=CARTESIAN_POINT('Ctrl Pts',(10.1982827892649,-4.05953337556256,-4.));
#972=CARTESIAN_POINT('Ctrl Pts',(10.3000000000232,-4.19999999998782,-4.));
#973=CARTESIAN_POINT('',(10.,0.,-4.));
#974=CARTESIAN_POINT('',(10.000000000032,3.77491721767139,-4.));
#975=CARTESIAN_POINT('',(10.,0.,-4.));
#976=CARTESIAN_POINT('Ctrl Pts',(10.3000000000208,4.19999999998444,-4.));
#977=CARTESIAN_POINT('Ctrl Pts',(10.1982827892565,4.05953337557744,-4.));
#978=CARTESIAN_POINT('Ctrl Pts',(10.0981401206104,3.91790595939966,-4.));
#979=CARTESIAN_POINT('Ctrl Pts',(10.000000000032,3.77491721767139,-4.));
#980=CARTESIAN_POINT('',(17.,0.,-4.));
#981=CARTESIAN_POINT('Origin',(15.,2.75545529808154E-15,0.));
#982=CARTESIAN_POINT('Origin',(18.,3.30654635769785E-15,0.));
#983=CARTESIAN_POINT('Origin',(17.,3.52732891466409E-15,-7.7553251033388E-16));
#984=CARTESIAN_POINT('Origin',(10.,5.8,0.));
#985=CARTESIAN_POINT('Origin',(10.0000000000477,1.73472347597681E-15,0.));
#986=CARTESIAN_POINT('Origin',(10.,5.8,0.));
#987=CARTESIAN_POINT('Origin',(9.99999999999091,1.68985993780704E-15,0.));
#988=CARTESIAN_POINT('Origin',(15.,2.75545529808154E-15,0.));
#989=CARTESIAN_POINT('Origin',(10.3,1.89207930468266E-15,0.));
#990=CARTESIAN_POINT('Origin',(17.,3.12284933782575E-15,0.));
#991=CARTESIAN_POINT('Origin',(17.,3.52732891466409E-15,-7.7553251033388E-16));
#992=CARTESIAN_POINT('Origin',(17.,3.12284933782575E-15,0.));
#993=CARTESIAN_POINT('Origin',(18.,3.71102593453619E-15,-7.7553251033388E-16));
#994=CARTESIAN_POINT('Origin',(18.,3.30654635769785E-15,0.));
#995=CARTESIAN_POINT('Origin',(18.,3.71102593453619E-15,-7.7553251033388E-16));
#996=CARTESIAN_POINT('Origin',(10.3000000000293,1.73472347597681E-15,0.));
#997=CARTESIAN_POINT('Origin',(10.2999999999724,1.73472347597681E-15,0.));
#998=CARTESIAN_POINT('Origin',(17.,3.12284933782575E-15,0.));
#999=CARTESIAN_POINT('Origin',(0.,4.,0.));
#1000=UNCERTAINTY_MEASURE_WITH_UNIT(LENGTH_MEASURE(0.01),#1004,
'DISTANCE_ACCURACY_VALUE',
'Maximum model space distance between geometric entities at asserted c
onnectivities');
#1001=UNCERTAINTY_MEASURE_WITH_UNIT(LENGTH_MEASURE(0.01),#1004,
'DISTANCE_ACCURACY_VALUE',
'Maximum model space distance between geometric entities at asserted c
onnectivities');
#1002=(
GEOMETRIC_REPRESENTATION_CONTEXT(3)
GLOBAL_UNCERTAINTY_ASSIGNED_CONTEXT((#1000))
GLOBAL_UNIT_ASSIGNED_CONTEXT((#1004,#1006,#1007))
REPRESENTATION_CONTEXT('','3D')
);
#1003=(
GEOMETRIC_REPRESENTATION_CONTEXT(3)
GLOBAL_UNCERTAINTY_ASSIGNED_CONTEXT((#1001))
GLOBAL_UNIT_ASSIGNED_CONTEXT((#1004,#1006,#1007))
REPRESENTATION_CONTEXT('','3D')
);
#1004=(
LENGTH_UNIT()
NAMED_UNIT(*)
SI_UNIT(.MILLI.,.METRE.)
);
#1005=(
LENGTH_UNIT()
NAMED_UNIT(*)
SI_UNIT(.CENTI.,.METRE.)
);
#1006=(
NAMED_UNIT(*)
PLANE_ANGLE_UNIT()
SI_UNIT($,.RADIAN.)
);
#1007=(
NAMED_UNIT(*)
SI_UNIT($,.STERADIAN.)
SOLID_ANGLE_UNIT()
);
#1008=SHAPE_DEFINITION_REPRESENTATION(#1009,#1010);
#1009=PRODUCT_DEFINITION_SHAPE('',$,#1012);
#1010=SHAPE_REPRESENTATION('',(#570),#1002);
#1011=PRODUCT_DEFINITION_CONTEXT('part definition',#1016,'design');
#1012=PRODUCT_DEFINITION('ETY-DR-0012_Default_sldprt',
'ETY-DR-0012_Default_sldprt',#1013,#1011);
#1013=PRODUCT_DEFINITION_FORMATION('ANY',$,#1018);
#1014=PRODUCT_RELATED_PRODUCT_CATEGORY('ETY-DR-0012_Default_sldprt',
'ETY-DR-0012_Default_sldprt',(#1018));
#1015=APPLICATION_PROTOCOL_DEFINITION('international standard',
'automotive_design',2009,#1016);
#1016=APPLICATION_CONTEXT(
'Core Data for Automotive Mechanical Design Process');
#1017=PRODUCT_CONTEXT('part definition',#1016,'mechanical');
#1018=PRODUCT('ETY-DR-0012_Default_sldprt','ETY-DR-0012_Default_sldprt',
'STEP AP203',(#1017));
#1019=PRESENTATION_STYLE_ASSIGNMENT((#1020));
#1020=SURFACE_STYLE_USAGE(.BOTH.,#1023);
#1021=SURFACE_STYLE_RENDERING_WITH_PROPERTIES($,#1027,(#1022));
#1022=SURFACE_STYLE_TRANSPARENT(0.);
#1023=SURFACE_SIDE_STYLE('',(#1024,#1021));
#1024=SURFACE_STYLE_FILL_AREA(#1025);
#1025=FILL_AREA_STYLE('',(#1026));
#1026=FILL_AREA_STYLE_COLOUR('',#1027);
#1027=COLOUR_RGB('',0.749019607843137,0.749019607843137,0.749019607843137);
ENDSEC;
END-ISO-10303-21;
