ISO-10303-21;
HEADER;
/* Generated by software containing ST-Developer
 * from STEP Tools, Inc. (www.steptools.com) 
 */

FILE_DESCRIPTION(
/* description */ ('STEP AP203'),
/* implementation_level */ '2;1');

FILE_NAME(
/* name */ 
'C:\\Users\\Serafin Kollegger\\Documents\\MCI\\Studium\\MA\\MA-Thesis\\
RoboZelle\\Delta Roboter Model\\Model4\\\\WKM-10-14_Default_sldprt_ipt
_eff3dde7.STEP',
/* time_stamp */ '2021-04-19T13:14:24+02:00',
/* author */ (''),
/* organization */ (''),
/* preprocessor_version */ 'ST-DEVELOPER v18',
/* originating_system */ 'Autodesk Inventor 2020',
/* authorisation */ '');

FILE_SCHEMA (('AUTOMOTIVE_DESIGN { 1 0 10303 214 3 1 1 }'));
ENDSEC;

DATA;
#10=MECHANICAL_DESIGN_GEOMETRIC_PRESENTATION_REPRESENTATION('',(#13),#211);
#11=SHAPE_REPRESENTATION_RELATIONSHIP('SRR','None',#218,#12);
#12=ADVANCED_BREP_SHAPE_REPRESENTATION('',(#14),#210);
#13=STYLED_ITEM('',(#227),#14);
#14=MANIFOLD_SOLID_BREP('Volumenk\X\F6rper1',#106);
#15=PLANE('',#140);
#16=PLANE('',#141);
#17=CYLINDRICAL_SURFACE('',#137,5.);
#18=LINE('',#196,#20);
#19=LINE('',#202,#21);
#20=VECTOR('',#162,5.17320508078001);
#21=VECTOR('',#169,5.);
#22=CONICAL_SURFACE('',#132,5.17320508078001,0.52359877561207);
#23=FACE_BOUND('',#32,.T.);
#24=FACE_BOUND('',#36,.T.);
#25=FACE_BOUND('',#38,.T.);
#26=FACE_OUTER_BOUND('',#31,.T.);
#27=FACE_OUTER_BOUND('',#33,.T.);
#28=FACE_OUTER_BOUND('',#34,.T.);
#29=FACE_OUTER_BOUND('',#35,.T.);
#30=FACE_OUTER_BOUND('',#37,.T.);
#31=EDGE_LOOP('',(#74,#75,#76,#77,#78,#79));
#32=EDGE_LOOP('',(#80));
#33=EDGE_LOOP('',(#81,#82,#83,#84,#85,#86));
#34=EDGE_LOOP('',(#87,#88,#89,#90,#91,#92));
#35=EDGE_LOOP('',(#93,#94));
#36=EDGE_LOOP('',(#95,#96));
#37=EDGE_LOOP('',(#97));
#38=EDGE_LOOP('',(#98,#99));
#39=CIRCLE('',#127,6.42261628933257);
#40=CIRCLE('',#128,9.50000000000001);
#41=CIRCLE('',#129,6.42261628933257);
#42=CIRCLE('',#130,9.50000000000001);
#43=CIRCLE('',#131,6.42261628933258);
#44=CIRCLE('',#133,4.99999999999545);
#45=CIRCLE('',#134,4.99999999999545);
#46=CIRCLE('',#135,5.17320508078001);
#47=CIRCLE('',#136,5.17320508078001);
#48=CIRCLE('',#138,5.);
#49=CIRCLE('',#139,5.);
#50=VERTEX_POINT('',#180);
#51=VERTEX_POINT('',#181);
#52=VERTEX_POINT('',#183);
#53=VERTEX_POINT('',#186);
#54=VERTEX_POINT('',#188);
#55=VERTEX_POINT('',#191);
#56=VERTEX_POINT('',#192);
#57=VERTEX_POINT('',#195);
#58=VERTEX_POINT('',#197);
#59=VERTEX_POINT('',#201);
#60=VERTEX_POINT('',#203);
#61=EDGE_CURVE('',#50,#51,#39,.T.);
#62=EDGE_CURVE('',#51,#52,#40,.T.);
#63=EDGE_CURVE('',#51,#50,#41,.T.);
#64=EDGE_CURVE('',#53,#50,#42,.T.);
#65=EDGE_CURVE('',#54,#54,#43,.T.);
#66=EDGE_CURVE('',#55,#56,#44,.T.);
#67=EDGE_CURVE('',#56,#55,#45,.T.);
#68=EDGE_CURVE('',#56,#57,#18,.T.);
#69=EDGE_CURVE('',#58,#57,#46,.T.);
#70=EDGE_CURVE('',#57,#58,#47,.T.);
#71=EDGE_CURVE('',#55,#59,#19,.T.);
#72=EDGE_CURVE('',#60,#59,#48,.T.);
#73=EDGE_CURVE('',#59,#60,#49,.T.);
#74=ORIENTED_EDGE('',*,*,#61,.T.);
#75=ORIENTED_EDGE('',*,*,#62,.T.);
#76=ORIENTED_EDGE('',*,*,#62,.F.);
#77=ORIENTED_EDGE('',*,*,#63,.T.);
#78=ORIENTED_EDGE('',*,*,#64,.F.);
#79=ORIENTED_EDGE('',*,*,#64,.T.);
#80=ORIENTED_EDGE('',*,*,#65,.T.);
#81=ORIENTED_EDGE('',*,*,#66,.F.);
#82=ORIENTED_EDGE('',*,*,#67,.F.);
#83=ORIENTED_EDGE('',*,*,#68,.T.);
#84=ORIENTED_EDGE('',*,*,#69,.F.);
#85=ORIENTED_EDGE('',*,*,#70,.F.);
#86=ORIENTED_EDGE('',*,*,#68,.F.);
#87=ORIENTED_EDGE('',*,*,#66,.T.);
#88=ORIENTED_EDGE('',*,*,#67,.T.);
#89=ORIENTED_EDGE('',*,*,#71,.T.);
#90=ORIENTED_EDGE('',*,*,#72,.F.);
#91=ORIENTED_EDGE('',*,*,#73,.F.);
#92=ORIENTED_EDGE('',*,*,#71,.F.);
#93=ORIENTED_EDGE('',*,*,#61,.F.);
#94=ORIENTED_EDGE('',*,*,#63,.F.);
#95=ORIENTED_EDGE('',*,*,#69,.T.);
#96=ORIENTED_EDGE('',*,*,#70,.T.);
#97=ORIENTED_EDGE('',*,*,#65,.F.);
#98=ORIENTED_EDGE('',*,*,#72,.T.);
#99=ORIENTED_EDGE('',*,*,#73,.T.);
#100=SPHERICAL_SURFACE('',#126,9.50000000000001);
#101=ADVANCED_FACE('',(#26,#23),#100,.T.);
#102=ADVANCED_FACE('',(#27),#22,.F.);
#103=ADVANCED_FACE('',(#28),#17,.F.);
#104=ADVANCED_FACE('',(#29,#24),#15,.T.);
#105=ADVANCED_FACE('',(#30,#25),#16,.T.);
#106=CLOSED_SHELL('',(#101,#102,#103,#104,#105));
#107=DERIVED_UNIT_ELEMENT(#109,1.);
#108=DERIVED_UNIT_ELEMENT(#213,3.);
#109=(
MASS_UNIT()
NAMED_UNIT(*)
SI_UNIT($,.GRAM.)
);
#110=DERIVED_UNIT((#107,#108));
#111=MEASURE_REPRESENTATION_ITEM('density measure',
POSITIVE_RATIO_MEASURE(1.),#110);
#112=PROPERTY_DEFINITION_REPRESENTATION(#117,#114);
#113=PROPERTY_DEFINITION_REPRESENTATION(#118,#115);
#114=REPRESENTATION('material name',(#116),#210);
#115=REPRESENTATION('density',(#111),#210);
#116=DESCRIPTIVE_REPRESENTATION_ITEM('Generisch','Generisch');
#117=PROPERTY_DEFINITION('material property','material name',#220);
#118=PROPERTY_DEFINITION('material property','density of part',#220);
#119=DATE_TIME_ROLE('creation_date');
#120=APPLIED_DATE_AND_TIME_ASSIGNMENT(#121,#119,(#220));
#121=DATE_AND_TIME(#122,#123);
#122=CALENDAR_DATE(2020,15,4);
#123=LOCAL_TIME(12,18,26.,#124);
#124=COORDINATED_UNIVERSAL_TIME_OFFSET(0,0,.BEHIND.);
#125=AXIS2_PLACEMENT_3D('placement',#178,#142,#143);
#126=AXIS2_PLACEMENT_3D('',#179,#144,#145);
#127=AXIS2_PLACEMENT_3D('',#182,#146,#147);
#128=AXIS2_PLACEMENT_3D('',#184,#148,#149);
#129=AXIS2_PLACEMENT_3D('',#185,#150,#151);
#130=AXIS2_PLACEMENT_3D('',#187,#152,#153);
#131=AXIS2_PLACEMENT_3D('',#189,#154,#155);
#132=AXIS2_PLACEMENT_3D('',#190,#156,#157);
#133=AXIS2_PLACEMENT_3D('',#193,#158,#159);
#134=AXIS2_PLACEMENT_3D('',#194,#160,#161);
#135=AXIS2_PLACEMENT_3D('',#198,#163,#164);
#136=AXIS2_PLACEMENT_3D('',#199,#165,#166);
#137=AXIS2_PLACEMENT_3D('',#200,#167,#168);
#138=AXIS2_PLACEMENT_3D('',#204,#170,#171);
#139=AXIS2_PLACEMENT_3D('',#205,#172,#173);
#140=AXIS2_PLACEMENT_3D('',#206,#174,#175);
#141=AXIS2_PLACEMENT_3D('',#207,#176,#177);
#142=DIRECTION('axis',(0.,0.,1.));
#143=DIRECTION('refdir',(1.,0.,0.));
#144=DIRECTION('center_axis',(1.,-3.47797195430848E-16,-6.45560247654819E-16));
#145=DIRECTION('ref_axis',(4.09029535388216E-16,1.,-2.49113970069793E-31));
#146=DIRECTION('center_axis',(0.,1.,0.));
#147=DIRECTION('ref_axis',(0.,0.,1.));
#148=DIRECTION('center_axis',(-6.45560247654819E-16,1.22464679914735E-16,
-1.));
#149=DIRECTION('ref_axis',(-4.09029535388216E-16,-1.,-1.22464679914735E-16));
#150=DIRECTION('center_axis',(0.,1.,0.));
#151=DIRECTION('ref_axis',(0.,0.,1.));
#152=DIRECTION('center_axis',(-6.45560247654819E-16,1.22464679914735E-16,
-1.));
#153=DIRECTION('ref_axis',(-4.09029535388216E-16,-1.,-1.22464679914735E-16));
#154=DIRECTION('center_axis',(0.,-1.,0.));
#155=DIRECTION('ref_axis',(0.,0.,-1.));
#156=DIRECTION('center_axis',(0.,-1.,0.));
#157=DIRECTION('ref_axis',(0.,0.,-1.));
#158=DIRECTION('center_axis',(0.,-1.,0.));
#159=DIRECTION('ref_axis',(1.,0.,0.));
#160=DIRECTION('center_axis',(0.,-1.,0.));
#161=DIRECTION('ref_axis',(1.,0.,0.));
#162=DIRECTION('',(-6.12323399588282E-17,-0.866025403777553,0.500000000011926));
#163=DIRECTION('center_axis',(0.,1.,0.));
#164=DIRECTION('ref_axis',(0.,0.,-1.));
#165=DIRECTION('center_axis',(0.,1.,0.));
#166=DIRECTION('ref_axis',(0.,0.,-1.));
#167=DIRECTION('center_axis',(0.,1.,0.));
#168=DIRECTION('ref_axis',(0.,0.,1.));
#169=DIRECTION('',(0.,1.,0.));
#170=DIRECTION('center_axis',(0.,-1.,0.));
#171=DIRECTION('ref_axis',(0.,0.,1.));
#172=DIRECTION('center_axis',(0.,-1.,0.));
#173=DIRECTION('ref_axis',(0.,0.,1.));
#174=DIRECTION('center_axis',(0.,-1.,0.));
#175=DIRECTION('ref_axis',(0.,0.,-1.));
#176=DIRECTION('center_axis',(0.,1.,0.));
#177=DIRECTION('ref_axis',(0.,0.,1.));
#178=CARTESIAN_POINT('',(0.,0.,0.));
#179=CARTESIAN_POINT('Origin',(0.,3.88578058618805E-15,5.55111512312578E-15));
#180=CARTESIAN_POINT('',(6.42261628933257,-7.,4.63980935359008E-16));
#181=CARTESIAN_POINT('',(-6.42261628933257,-7.,8.84004812605604E-15));
#182=CARTESIAN_POINT('Origin',(0.,-7.,5.55111512312578E-15));
#183=CARTESIAN_POINT('',(-9.50000000000001,7.18985394278111E-15,1.16839374758466E-14));
#184=CARTESIAN_POINT('Origin',(0.,3.88578058618805E-15,5.55111512312578E-15));
#185=CARTESIAN_POINT('Origin',(0.,-7.,5.55111512312578E-15));
#186=CARTESIAN_POINT('',(9.50000000000001,-5.81707229594996E-16,-5.81707229594997E-16));
#187=CARTESIAN_POINT('Origin',(0.,3.88578058618805E-15,5.55111512312578E-15));
#188=CARTESIAN_POINT('',(6.42261628933257,7.,-3.93271824044139E-16));
#189=CARTESIAN_POINT('Origin',(0.,7.,5.55111512312578E-15));
#190=CARTESIAN_POINT('Origin',(0.,-7.000000000005,0.));
#191=CARTESIAN_POINT('',(6.12323399573398E-16,-6.69999999996662,-4.99999999999545));
#192=CARTESIAN_POINT('',(-6.1232339957312E-16,-6.69999999996662,4.99999999999545));
#193=CARTESIAN_POINT('Origin',(0.,-6.69999999996662,0.));
#194=CARTESIAN_POINT('Origin',(0.,-6.69999999996662,0.));
#195=CARTESIAN_POINT('',(-6.33534904351006E-16,-7.000000000005,5.17320508078001));
#196=CARTESIAN_POINT('',(-6.33534904351006E-16,-7.000000000005,5.17320508078001));
#197=CARTESIAN_POINT('',(0.,-7.000000000005,-5.17320508078001));
#198=CARTESIAN_POINT('Origin',(0.,-7.000000000005,0.));
#199=CARTESIAN_POINT('Origin',(0.,-7.000000000005,0.));
#200=CARTESIAN_POINT('Origin',(0.,0.,0.));
#201=CARTESIAN_POINT('',(-6.12323399573677E-16,7.,-5.));
#202=CARTESIAN_POINT('',(-6.12323399573677E-16,0.,-5.));
#203=CARTESIAN_POINT('',(0.,7.,5.));
#204=CARTESIAN_POINT('Origin',(0.,7.,0.));
#205=CARTESIAN_POINT('Origin',(0.,7.,0.));
#206=CARTESIAN_POINT('Origin',(-5.71130814466628,-7.,0.));
#207=CARTESIAN_POINT('Origin',(-5.71130814466628,7.,0.));
#208=UNCERTAINTY_MEASURE_WITH_UNIT(LENGTH_MEASURE(0.01),#212,
'DISTANCE_ACCURACY_VALUE',
'Maximum model space distance between geometric entities at asserted c
onnectivities');
#209=UNCERTAINTY_MEASURE_WITH_UNIT(LENGTH_MEASURE(0.01),#212,
'DISTANCE_ACCURACY_VALUE',
'Maximum model space distance between geometric entities at asserted c
onnectivities');
#210=(
GEOMETRIC_REPRESENTATION_CONTEXT(3)
GLOBAL_UNCERTAINTY_ASSIGNED_CONTEXT((#208))
GLOBAL_UNIT_ASSIGNED_CONTEXT((#212,#214,#215))
REPRESENTATION_CONTEXT('','3D')
);
#211=(
GEOMETRIC_REPRESENTATION_CONTEXT(3)
GLOBAL_UNCERTAINTY_ASSIGNED_CONTEXT((#209))
GLOBAL_UNIT_ASSIGNED_CONTEXT((#212,#214,#215))
REPRESENTATION_CONTEXT('','3D')
);
#212=(
LENGTH_UNIT()
NAMED_UNIT(*)
SI_UNIT(.MILLI.,.METRE.)
);
#213=(
LENGTH_UNIT()
NAMED_UNIT(*)
SI_UNIT(.CENTI.,.METRE.)
);
#214=(
NAMED_UNIT(*)
PLANE_ANGLE_UNIT()
SI_UNIT($,.RADIAN.)
);
#215=(
NAMED_UNIT(*)
SI_UNIT($,.STERADIAN.)
SOLID_ANGLE_UNIT()
);
#216=SHAPE_DEFINITION_REPRESENTATION(#217,#218);
#217=PRODUCT_DEFINITION_SHAPE('',$,#220);
#218=SHAPE_REPRESENTATION('',(#125),#210);
#219=PRODUCT_DEFINITION_CONTEXT('part definition',#224,'design');
#220=PRODUCT_DEFINITION('WKM-10-14_Default_sldprt',
'WKM-10-14_Default_sldprt',#221,#219);
#221=PRODUCT_DEFINITION_FORMATION('ANY',$,#226);
#222=PRODUCT_RELATED_PRODUCT_CATEGORY('WKM-10-14_Default_sldprt',
'WKM-10-14_Default_sldprt',(#226));
#223=APPLICATION_PROTOCOL_DEFINITION('international standard',
'automotive_design',2009,#224);
#224=APPLICATION_CONTEXT(
'Core Data for Automotive Mechanical Design Process');
#225=PRODUCT_CONTEXT('part definition',#224,'mechanical');
#226=PRODUCT('WKM-10-14_Default_sldprt','WKM-10-14_Default_sldprt',
'STEP AP203',(#225));
#227=PRESENTATION_STYLE_ASSIGNMENT((#228));
#228=SURFACE_STYLE_USAGE(.BOTH.,#231);
#229=SURFACE_STYLE_RENDERING_WITH_PROPERTIES($,#235,(#230));
#230=SURFACE_STYLE_TRANSPARENT(0.);
#231=SURFACE_SIDE_STYLE('',(#232,#229));
#232=SURFACE_STYLE_FILL_AREA(#233);
#233=FILL_AREA_STYLE('',(#234));
#234=FILL_AREA_STYLE_COLOUR('',#235);
#235=COLOUR_RGB('',0.749019607843137,0.749019607843137,0.749019607843137);
ENDSEC;
END-ISO-10303-21;
